datasetabdou/outputlowerFalsestripFalselemmatizFalsenamesFalsenumbersTrueadverbsTrueconjoctionFalse 1.58.11 PM.txt,0,1,54884,0.9085184085184084,54884,0.8579178579178579,54884,0.9185134185134185,0,2,722435,0.9062266174240454,722435,0.8183301389650247,722435,0.9277786002664863,0,3,1635142,0.8965809862993421,1635142,0.7565615439468175,1635142,0.919594770967287,0,4,2558380,0.9032881914846785,2558380,0.7184567330588004,2558380,0.9205165300005204,1,1,55128,0.9035000000000001,55128,0.8635,55128,0.913,1,2,721177,0.8999040953006697,721177,0.8300206710128796,721177,0.9228912216698618,1,3,1620135,0.8971713823637731,1620135,0.8257473859505852,1620135,0.920245472450401,1,4,2536445,0.8961654183470968,2536445,0.6515427949555085,2536445,0.9134218359900134,2,1,29878,0.9194287748589738,29878,0.8711548403935636,29878,0.9234798113183019,2,2,114103,0.9141814181418142,114103,0.9061856185618562,114103,0.9265876587658766,2,3,131222,0.910977910977911,131222,0.8985243985243985,131222,0.92998192998193,2,4,137296,0.9083350086164561,137296,0.8973076449920037,137296,0.9283903979772582,3,1,22407,0.9125487129384163,22407,0.8593052337471039,22407,0.9205247847230624,3,2,59051,0.9132499879905847,59051,0.8929520744263503,59051,0.9249971978030777,3,3,63149,0.9163966396639663,63149,0.9011001100110011,63149,0.9334783478347835,3,4,63134,0.9191801593112251,63134,0.9048133434153095,63134,0.9211665486435341,4,1,18223,0.906059805637182,18223,0.8742434747981681,18223,0.9053409253495099,4,2,39911,0.9118537413774642,39911,0.9077977845849625,39911,0.9165331526682953,4,3,41887,0.9125000000000001,41887,0.8985000000000001,41887,0.92,4,4,42127,0.9159759005296764,42127,0.8991774815573443,42127,0.9179881902994032,5,1,15468,0.9160866573865182,15468,0.854785676570825,15468,0.9125686010976175,5,2,30528,0.9119267376405775,30528,0.9038241495333085,30528,0.9264225788254498,5,3,31408,0.9069206000534155,31408,0.892409406318426,31408,0.9200433925404442,5,4,31806,0.917135016860607,31806,0.9034875255509199,31806,0.9225602121676381,6,1,13640,0.9220378127885052,13640,0.8849106705199183,13640,0.9314378823555357,6,2,24416,0.9132968471671712,24416,0.8976712064338874,24416,0.9133098493645425,6,3,25382,0.9123804028126279,25382,0.900649452605661,25382,0.9264355412788436,6,4,25309,0.9173749813337664,25309,0.9004039924192542,25309,0.91747570382976
datasetabdou/outputlowerFalsestripFalselemmatizTruenamesFalsenumbersTrueadverbsFalseconjoctionFalse 1.58.11 PM.txt,0,1,47846,0.9179769179769179,47846,0.848080848080848,47846,0.913983913983914,0,2,661255,0.8895133895133894,661255,0.8153483153483154,661255,0.9095144095144095,0,3,1556131,0.8953781512605041,1556131,0.8163565426170468,1556131,0.9159763905562224,0,4,2478542,0.9025000000000001,2478542,0.6829999999999999,2478542,0.9165000000000001,1,1,48020,0.9121146936199874,48020,0.8620627410743127,48020,0.9215696569131888,1,2,662542,0.9040236160944645,662542,0.8217052868211473,662542,0.9165186660746643,1,3,1550383,0.899002364085107,1550383,0.7206279426059338,1550383,0.9199911196803086,1,4,2474665,0.885565642374245,2474665,0.744665393806213,2474665,0.9157680592080246,2,1,25109,0.9088303510268828,25109,0.8560851870100424,25109,0.9099079070177336,2,2,116631,0.9040615776596203,116631,0.8769313125263525,116631,0.9167173270544497,2,3,139102,0.9162973485227942,139102,0.8994616503512196,139102,0.9245979908558698,2,4,143325,0.9138456152634344,143325,0.8949638668700458,143325,0.9268785476732265,3,1,18907,0.9166687515198579,18907,0.8617116878204211,18907,0.9255672385168788,3,2,60482,0.9173367336733673,60482,0.8894089408940894,60482,0.9319731973197319,3,3,66549,0.9143057222889155,66549,0.8930072028811524,66549,0.9285814325730293,3,4,67266,0.9164851602857685,67266,0.8996845751847753,67266,0.9273339078666587,4,1,15419,0.912361279189301,15419,0.8666628630113539,15419,0.9109879594290113,4,2,40728,0.9106035761770941,40728,0.9003130380497799,40728,0.9256942311559397,4,3,43458,0.9164798924180328,43458,0.9049212346311475,43458,0.9302238089139344,4,4,43583,0.9102177276359386,43583,0.9024966022247802,43583,0.9206150698206554,5,1,13101,0.9184065659093184,13101,0.8775397858072266,13101,0.9232309078170353,5,2,30949,0.905058480935695,30949,0.8949543192691082,30949,0.9160506568105089,5,3,32509,0.9135653391334784,32509,0.8868821720543013,32509,0.9275056876421911,5,4,32690,0.9133475220431743,32690,0.9034680994063146,32690,0.917264086028388,6,1,11528,0.9162078208371953,11528,0.8480372754828528,11528,0.9194493850046345,6,2,24904,0.9219999999999999,24904,0.8925000000000001,24904,0.9275000000000001,6,3,25856,0.9169876679506719,25856,0.9000376001504006,25856,0.9249996999987999,6,4,26128,0.9117385838206656,26128,0.900424671769529,26128,0.9101148094027892
datasetabdou/outputlowerFalsestripFalselemmatizTruenamesTruenumbersTrueadverbsTrueconjoctionTrue 1.58.11 PM.txt,0,1,29337,0.9067256725672568,29337,0.8852035203520352,29337,0.9116561656165616,0,2,534566,0.8985146657998049,534566,0.8625890825435722,534566,0.9024855592508315,0,3,1307783,0.8986526538393758,1307783,0.8239057818933337,1307783,0.9138523526490331,0,4,2096812,0.8796794171657644,2096812,0.8544454713123771,2096812,0.9082200111221799,1,1,29183,0.9145005950003954,29183,0.865793632444886,29183,0.9165893516447332,1,2,530878,0.8982633499223889,530878,0.8688931206093677,530878,0.9103130850842521,1,3,1316499,0.886566662397541,1316499,0.8773933785860656,1316499,0.9051373591188525,1,4,2107853,0.8848905319761858,2107853,0.7871935215415147,2107853,0.9012907304269893,2,1,16522,0.9034217676666157,16522,0.8797636084168123,16522,0.9039602940544086,2,2,102476,0.9052334257514473,102476,0.8974028909666294,102476,0.9105314641669767,2,3,125211,0.8938581788944402,125211,0.9090027240980675,125211,0.9123918461064598,2,4,128230,0.9083007953145253,128230,0.9067945784192923,128230,0.9183622441631596,3,1,12819,0.8996835085339663,12819,0.8612799098939594,12819,0.9006667927030911,3,2,53749,0.8961672386582831,53749,0.9038502968511234,53749,0.9119291565419976,3,3,59206,0.9116361636163617,59206,0.905050505050505,59206,0.9240724072407241,3,4,59349,0.9135391338585045,59349,0.9091815767353838,59349,0.9226850446475533,4,1,10762,0.9095,10762,0.8825,10762,0.9115,4,2,35949,0.9021918444487155,35949,0.9006702863732462,35949,0.9080338266384778,4,3,38431,0.9049344789516631,38431,0.8969663514616233,38431,0.9159586553384855,4,4,38808,0.9052312069622703,38808,0.8918893231915275,38808,0.9116605422991539,5,1,9369,0.8966917642721761,9369,0.8736421046726425,9369,0.899427590269235,5,2,27069,0.9219261743825448,27069,0.899505575773213,27069,0.9184225027026325,5,3,28616,0.9047684769857153,28616,0.9053840514702279,28616,0.9093625328664768,5,4,28405,0.9110747986927531,28405,0.9095057422067194,28405,0.9165119944317996,6,1,8457,0.9065826330532213,8457,0.8724289715886355,8457,0.9026210484193677,6,2,21934,0.9106015666590616,21934,0.908093871457105,21934,0.914786395603428,6,3,22799,0.9109924914703142,22799,0.9116015756983915,22799,0.915852131393755,6,4,22977,0.9052274107824605,22977,0.8997374085708482,22977,0.912070399321105
datasetabdou/outputlowerFalsestripFalselemmatizTruenamesFalsenumbersFalseadverbsTrueconjoctionFalse 1.58.11 PM.txt,0,1,48523,0.9111711171117112,48523,0.8774877487748775,48523,0.9261026102610261,0,2,677510,0.894833274826254,677510,0.8295413745063153,677510,0.9134510275743365,0,3,1597227,0.8994865979463916,1597227,0.73999195996784,1597227,0.9129796519186076,0,4,2531826,0.8899417143040143,2531826,0.7257289715136668,2531826,0.9146711021440811,1,1,48633,0.9163198747048392,48633,0.8511789926581117,48633,0.9241888268480486,1,2,675112,0.9064944064944065,675112,0.8321458321458323,675112,0.9289959289959291,1,3,1590157,0.9096176413798485,1590157,0.8097305911907151,1590157,0.9300531534406672,1,4,2523092,0.8980386507069421,2523092,0.6476394574974287,2523092,0.9144696032879914,2,1,25642,0.9217436617577045,25642,0.851525899076219,25642,0.919166156566687,2,2,119383,0.9043568213582189,119383,0.893833680653168,119383,0.9187056491912935,2,3,141989,0.9104291110264403,141989,0.8877359990639542,141989,0.9234087470286044,2,4,147693,0.9013255073660967,147693,0.8916217213594302,147693,0.9204170537813564,3,1,18962,0.9052084208504867,18962,0.8542484326928078,18962,0.9122938095866789,3,2,61847,0.9052029171720084,61847,0.8863251558053243,61847,0.9154108177127739,3,3,68370,0.9143908824518422,68370,0.8993590975324655,68370,0.9245388384493444,3,4,68762,0.9083294078583509,68762,0.8945807442700566,68762,0.9134070222496923,4,1,15522,0.912128694306021,15522,0.8565729720756318,15522,0.9215416555411216,4,2,41886,0.9155359592945346,41886,0.8898400342412327,41886,0.9220211927629394,4,3,45224,0.912842681631153,45224,0.9069841613168428,45224,0.9242658199074533,4,4,44941,0.9147032818432413,44941,0.9075868870298578,44941,0.9237890626562806,5,1,13366,0.9135254101640657,13366,0.8613945578231292,13366,0.9116446578631453,5,2,31948,0.9096595688078257,31948,0.8868323067091118,31948,0.9180670861174203,5,3,33769,0.9109166880122951,33769,0.8869668929303278,33769,0.9205862576844263,5,4,33795,0.9066922097573806,33795,0.8829198332998293,33795,0.9106486884913075,6,1,11700,0.9026084417350678,11700,0.8532756524104386,11700,0.9150666410662571,6,2,25683,0.9086681021162714,25683,0.8898920812585821,25683,0.9171462888493968,6,3,26826,0.9127429148176036,26826,0.9028601066982809,26826,0.9193775132571813,6,4,26880,0.9109186350131157,26880,0.8930997618883325,26880,0.9244437977460895
datasetabdou/outputlowerFalsestripFalselemmatizFalsenamesTruenumbersFalseadverbsTrueconjoctionTrue 1.58.11 PM.txt,0,1,36939,0.9124797123174109,36939,0.8830949478545306,36939,0.9090021810196292,0,2,610138,0.9089889089889089,610138,0.881089881089881,610138,0.922989922989923,0,3,1427717,0.899496391942271,1427717,0.8106689707035312,1427717,0.913484615753852,0,4,2258692,0.8874108897614787,2258692,0.859148784578375,2258692,0.9079898011055475,1,1,37133,0.9059703733360024,37133,0.877504754278851,37133,0.9102492243018716,1,2,609211,0.9048609527011073,609211,0.8918696649178203,609211,0.9222923895165261,1,3,1415377,0.9037620590680491,1415377,0.8788820870003672,1415377,0.9242816081892115,1,4,2227215,0.8895272068150081,2227215,0.7512574073999976,2227215,0.9099348188813174,2,1,21582,0.9096259625962597,21582,0.8806180618061806,21582,0.9055555555555556,2,2,104202,0.908659387807377,104202,0.907378650102459,104202,0.9299356429303278,2,3,120293,0.9050908129925044,120293,0.9067084694727401,120293,0.916814818374015,2,4,125717,0.9055276497488477,125717,0.8995455959103632,125717,0.9135157216414947,3,1,16703,0.9167313483808874,16703,0.8930182808051046,16703,0.920503085192578,3,2,53132,0.9091296736163452,53132,0.9127301336584458,53132,0.9173120368674297,3,3,57648,0.9049691938789902,57648,0.9021546778386996,57648,0.9141970251260705,3,4,57621,0.9087909637066085,57621,0.9084614238322837,57621,0.9169349491288447,4,1,13840,0.9091377284432111,13840,0.8879021975549388,13840,0.9036100902522564,4,2,35785,0.9077457745774579,35785,0.9050905090509052,35785,0.9136863686368637,4,3,38068,0.9108331732923629,38068,0.916026502784713,38068,0.9119134498431599,4,4,38105,0.9185646970351525,38105,0.9179946879150065,38105,0.9295448727179635,5,1,12081,0.9041447873975411,12081,0.8692767033811475,12081,0.9132220158811476,5,2,27125,0.91394290194447,27125,0.9075116704201349,27125,0.9169310095163425,5,3,28367,0.9181604559245887,28367,0.9088530959676444,28367,0.9210855118697849,5,4,28376,0.9025,28376,0.9025,28376,0.907,6,1,10684,0.9206246405441224,10684,0.8783576304668551,10684,0.9109949738691207,6,2,22074,0.914294201663526,22074,0.9075448787962441,22074,0.9133780220923301,6,3,22964,0.9152581786321888,22964,0.9113745222942677,22964,0.9167519310763519,6,4,22718,0.9189756759027035,22718,0.9099796399185597,22718,0.9194906779627118
datasetabdou/outputlowerFalsestripFalselemmatizTruenamesTruenumbersFalseadverbsTrueconjoctionFalse 1.58.11 PM.txt,0,1,29718,0.9075336678030101,29718,0.8638937750439755,29718,0.9060171541543873,0,2,543740,0.8936824774975065,543740,0.8930095057262688,543740,0.9109604268563806,0,3,1352637,0.8887341960791374,1352637,0.8125938283569923,1352637,0.9056850607752709,0,4,2175484,0.8914270913752895,2175484,0.7975877131576737,2175484,0.9094157389666028,1,1,29886,0.9015950398759969,29886,0.8783644591114779,29886,0.9075751893797345,1,2,541178,0.9002636379638669,541178,0.8758101166567985,541178,0.9158438815189387,1,3,1332215,0.8907931438816387,1332215,0.8414042396519915,1332215,0.9082465913502135,1,4,2178137,0.8780684941921183,2178137,0.7747970342390935,2178137,0.9020402610445786,2,1,16867,0.9119801955439975,16867,0.8687429671676127,16867,0.9024405491235529,2,2,105989,0.9040726018150453,105989,0.9029125728143204,105989,0.9115252881322032,2,3,127740,0.9024640400250157,127740,0.8991119449656035,127740,0.9095809881175734,2,4,132006,0.904848683894327,132006,0.9105680962527436,132006,0.9200984475880741,3,1,13241,0.9043938152969495,13241,0.8732667900727136,13241,0.9004426216884628,3,2,55179,0.9080990650614754,55179,0.9051133452868853,55179,0.9156634221311475,3,3,60953,0.9107384147921,60953,0.9094782018161068,60953,0.9206230853014158,3,4,61493,0.9103576130847331,61493,0.9124466241660965,61493,0.9124466241660965,4,1,11008,0.9040119040119041,11008,0.8674633674633675,11008,0.903006903006903,4,2,37069,0.9166666666666666,37069,0.9191476590636254,37069,0.919297719087635,4,3,39740,0.9104854881900164,39740,0.9076845947860755,39740,0.9137927238813437,4,4,40108,0.909653206546263,40108,0.8978769769207913,40108,0.9157484309199566,5,1,9625,0.9099516398065592,9625,0.8580794323177293,9625,0.9054666218664874,5,2,27952,0.9119377984449613,27952,0.8964799119978,27952,0.9129928248206205,5,3,29787,0.9098209820982097,29787,0.8964046404640463,29787,0.913901390139014,5,4,29807,0.909743696970364,29807,0.9156202885472494,29807,0.9171104457065566,6,1,8677,0.9120630189994352,8677,0.8780659271988751,8677,0.9097306510601308,6,2,22411,0.9016805360423648,22411,0.8962868899375978,22411,0.9019597247739473,6,3,23638,0.9060279060279061,23638,0.9075174075174075,23638,0.9105164105164105,6,4,23751,0.908005908005908,23751,0.9074914074914074,23751,0.912998912998913
datasetabdou/outputlowerFalsestripFalselemmatizTruenamesFalsenumbersFalseadverbsFalseconjoctionTrue 1.58.11 PM.txt,0,1,48474,0.9047822886495656,48474,0.8526747851690644,48474,0.9132535085052248,0,2,674224,0.894047619047619,674224,0.8175370148059222,674224,0.9115446178471388,0,3,1600765,0.8943589697422555,1600765,0.7078285624545494,1600765,0.9162803050081473,0,4,2544347,0.896580022023722,2544347,0.7174682521346109,2544347,0.9221038355482076,1,1,48654,0.9157755603134613,48654,0.8561762854102791,48654,0.9166834327789005,1,2,675057,0.9014814014814014,675057,0.8591128591128591,675057,0.9194844194844194,1,3,1577217,0.9028977844006745,1577217,0.6857442146459487,1577217,0.9202137887108985,1,4,2521242,0.8862060784193986,2521242,0.6427549601516052,2521242,0.9089668649158933,2,1,25461,0.9122718940234159,25461,0.8650885721743461,25461,0.9201555325981404,2,2,120834,0.9034696293598034,120834,0.8862155511367786,120834,0.9118002023475114,2,3,143230,0.9105635409536846,143230,0.8915366787948653,143230,0.9213628412807058,2,4,147316,0.9097077291276917,147316,0.9120279588684725,147316,0.9204700717389411,3,1,19020,0.9154926619706478,19020,0.8446483785935143,19020,0.92000168000672,3,2,61678,0.9164461527533643,61678,0.9067068577242564,61678,0.9258347931437765,3,3,68326,0.921415649366819,68326,0.9136392683241479,68326,0.9339407630973918,3,4,68601,0.9106570512820512,68601,0.8938301282051282,68601,0.9212339743589744,4,1,15602,0.9155277397496577,15602,0.8693173238559146,15602,0.9119962079658718,4,2,42219,0.9151145673323093,42219,0.8916970686123913,42219,0.9230510752688171,4,3,45225,0.9051036626709225,45225,0.8986899073490779,45225,0.9219858404633448,4,4,45306,0.8958784034501831,45306,0.889682856402732,45306,0.906464692533038,5,1,13346,0.9107610761076107,13346,0.8743774377437743,13346,0.9008400840084009,5,2,31950,0.9110231992087929,31950,0.8803864234778114,31950,0.9210052890476014,5,3,33813,0.918580960729453,33813,0.9063006592456501,33813,0.9176843546237257,5,4,33589,0.9092573486071347,33589,0.899440191899895,33589,0.9203739526114537,6,1,11702,0.9098050119217168,11702,0.8751520218911524,11702,0.9141436366836825,6,2,25784,0.9193369336933693,25784,0.8966946694669466,25784,0.9248824882488249,6,3,26823,0.9175368770079372,26823,0.8956347908043356,26823,0.9270303990811141,6,4,26881,0.9149546392742284,26881,0.8975683610937776,26881,0.9169866717867486
datasetabdou/outputlowerFalsestripFalselemmatizTruenamesFalsenumbersFalseadverbsFalseconjoctionFalse 1.58.11 PM.txt,0,1,48586,0.9039192623553379,48586,0.848168340449536,48586,0.913842939456768,0,2,677523,0.9021539101630635,677523,0.8404290217791361,677523,0.9181202093101406,0,3,1586121,0.9053540445345589,1586121,0.690516070348094,1586121,0.9219633433376477,0,4,2557769,0.8909106546220765,2557769,0.7115433656249157,2557769,0.9119536857306008,1,1,48317,0.9170139170139171,48317,0.8479178479178479,48317,0.922008922008922,1,2,678768,0.9089621735791091,678768,0.8286610343061956,678768,0.9224910394265233,1,3,1589759,0.897388188443264,1589759,0.72734491493811,1589759,0.9188674282616892,1,4,2528970,0.8975390800179384,2528970,0.7402139791146133,2528970,0.9208509513742072,2,1,25491,0.9163734022967126,25491,0.8564479659503316,25491,0.920380598649334,2,2,119052,0.9064151603790095,119052,0.8747143678591964,119052,0.9179679491987299,2,3,143319,0.897406189901382,143319,0.8867113236172129,143319,0.9119028641319947,2,4,147080,0.9020670789342988,147080,0.8915794870151716,147080,0.9167841522613308,3,1,19044,0.9060149060149061,19044,0.8569268569268569,19044,0.9145064145064146,3,2,62377,0.9176133065952584,62377,0.8900416681676814,62377,0.9240266420099987,3,3,67890,0.9124198717948718,67890,0.8921073717948718,67890,0.9237179487179487,3,4,68918,0.9066229364578531,68918,0.8859277601485721,68918,0.9175608224266165,4,1,15638,0.9125954748522842,15638,0.8567917247121742,15638,0.912305247313894,4,2,42352,0.9193069306930693,42352,0.8896639663966396,42352,0.9319031903190319,4,3,45264,0.9124365989855838,45264,0.9025564409030544,45264,0.9199667194675115,4,4,45280,0.9209125939201076,45280,0.9042172415965695,45280,0.9299853288116339,5,1,13358,0.9025749046813175,13358,0.8657856939960232,13358,0.9088141275690035,5,2,31994,0.9150746411942591,31994,0.881922110753772,31994,0.9220427526840429,5,3,33659,0.9064378864108533,33659,0.8797276663913294,33659,0.9151410477835348,5,4,33869,0.9140496561986247,33869,0.9014866059464238,33869,0.9225266901067604,6,1,11778,0.9147312873323171,11778,0.8867057943356899,11778,0.9148433092886206,6,2,25832,0.9167030117758154,25832,0.8953801031534218,25832,0.925358816256467,6,3,26806,0.9134884134884135,26806,0.8905143905143905,26806,0.9204944204944205,6,4,26912,0.9147258133079943,26912,0.8970068265359705,26912,0.9118751719136806
datasetabdou/outputlowerFalsestripFalselemmatizTruenamesFalsenumbersTrueadverbsTrueconjoctionTrue 1.58.11 PM.txt,0,1,47713,0.9053518622412499,47713,0.8534268179140778,47713,0.9088835352932294,0,2,656990,0.9001226354416426,656990,0.835722023664839,656990,0.9172295793484316,0,3,1571247,0.8930020370183331,1571247,0.7661833956505608,1571247,0.9085036765330887,0,4,2465772,0.8874329475861132,2465772,0.7234000424015264,2465772,0.9064936337708157,1,1,47862,0.9109724442094385,47862,0.8533722695572407,47862,0.9186545371516468,1,2,662922,0.9014634146341464,662922,0.860750469043152,662922,0.9178361475922453,1,3,1566503,0.894754825302585,1566503,0.7971952162694065,1566503,0.9102285108822568,1,4,2476675,0.8978927293110742,2476675,0.702888433963151,2476675,0.9154166487485486,2,1,25194,0.9064205027280436,25194,0.8622537960607369,25194,0.9094285508568136,2,2,117117,0.9067507408752078,117117,0.8925398392328303,117117,0.9176745870052039,2,3,138349,0.9069869249355863,138349,0.8783494083563407,138349,0.9211969914929937,2,4,143217,0.9040751797637391,143217,0.9013225475089882,143217,0.9168030945043658,3,1,18835,0.9107730904813158,18835,0.8525412233563674,18835,0.9198660365958572,3,2,60513,0.9165486661946648,60513,0.8909455637822552,60513,0.9195386781547127,3,3,66107,0.9040501364512281,66107,0.8874374869373823,66107,0.9205427848850639,3,4,66384,0.9164875799887146,66384,0.9035573217437239,66384,0.9261622625350668,4,1,15312,0.8977244880098022,15312,0.8672951414068164,15312,0.9071291040484109,4,2,40700,0.9009400354639737,40700,0.87768331392021,40700,0.9089454471222548,4,3,43349,0.9172230427769172,43349,0.8913235347094635,43349,0.9223304954149004,4,4,43634,0.9147133104948614,43634,0.9002600585131655,43634,0.9255507489185066,5,1,13119,0.9125466501866006,13119,0.8643924575698303,13119,0.9160296641186563,5,2,30999,0.9179705494734397,30999,0.8982450658751238,30999,0.9264257587957009,5,3,32518,0.9089361804256237,32518,0.8959930639375755,32518,0.9169662526962742,5,4,32802,0.9073573681766505,32802,0.8895574130118011,32802,0.9176454340202718,6,1,11498,0.9096888803533706,11498,0.8658936687792075,11498,0.9123895717303631,6,2,24786,0.9119425910814575,24786,0.8900942415078642,24786,0.9214687434998959,6,3,25974,0.9168080814549181,25974,0.9034003586065573,25974,0.9207863729508197,6,4,26205,0.9094431648963567,26205,0.8911621841369151,26205,0.915002115171329
datasetabdou/outputlowerFalsestripFalselemmatizTruenamesFalsenumbersTrueadverbsFalseconjoctionTrue 1.58.11 PM.txt,0,1,48276,0.9002304589975033,48276,0.8594640227898341,48276,0.9090887267140387,0,2,666342,0.912439847834522,666342,0.8342890344052386,666342,0.9249432979587267,0,3,1556748,0.8879721993049825,1556748,0.771934298357459,1556748,0.906012650316258,0,4,2484406,0.89570903453277,2484406,0.6639493886124378,2484406,0.9190267810257308,1,1,47854,0.9089839089839089,47854,0.842072842072842,47854,0.9154914154914154,1,2,663906,0.9007251631617114,663906,0.8329824210447351,663906,0.9201770398339627,1,3,1548156,0.8955325821303286,1548156,0.7605490421961688,1548156,0.9160336641346565,1,4,2475219,0.8845161522584362,2475219,0.6936890990255845,2475219,0.9124845997535961,2,1,25284,0.9090000000000001,25284,0.8500000000000001,25284,0.9115,2,2,116112,0.9055734057834739,116112,0.8923971366722818,116112,0.9247956337853465,2,3,138626,0.9142540457105015,138626,0.8984503405729468,138626,0.9306554666234511,2,4,143065,0.9124518392474955,143065,0.9057521490186574,143065,0.9287621472259305,3,1,18806,0.9063259123989044,18806,0.8684303428577714,18806,0.9149211086097974,3,2,60685,0.9164008398427145,60685,0.8844736128741206,60685,0.9243181279389744,3,3,66513,0.9156346006144395,66513,0.887312788018433,66513,0.921074948796723,3,4,66869,0.913288031407201,66869,0.9036233537031924,66869,0.9216710888069826,4,1,15403,0.9167866973945329,15403,0.870830932718776,15403,0.9163105755073299,4,2,41005,0.903125,41005,0.8866185897435898,41005,0.9183894230769231,4,3,43568,0.9178681730169145,43568,0.90218991534781,43568,0.9208566033508825,4,4,43380,0.9079132566856635,43380,0.903927317761712,43380,0.9193698925312039,5,1,13092,0.9130592175329578,13092,0.8788969100721906,13092,0.9135457219114973,5,2,30993,0.9158218015247613,30993,0.9002498558523929,30993,0.9225687103594079,5,3,32542,0.913766471013717,32542,0.9017466702815942,32542,0.9220916424143046,5,4,32877,0.9126718836892032,32877,0.8837392128857257,32877,0.9240831202915772,6,1,11420,0.9120868351260646,11420,0.879210651583457,11420,0.9170330131884747,6,2,25066,0.9238091236158301,25066,0.9025248220138546,25066,0.9319230507565663,6,3,26067,0.907279549718574,26067,0.8877298311444654,26067,0.9191744840525328,6,4,26097,0.9102202868852459,26097,0.8885598104508197,26097,0.9179287269467213
datasetabdou/outputlowerFalsestripFalselemmatizTruenamesFalsenumbersTrueadverbsTrueconjoctionFalse 1.58.11 PM.txt,0,1,47714,0.9028284963802935,47714,0.8743353193670319,47714,0.9155855596130438,0,2,663926,0.9049451445063007,663926,0.8408660677946103,663926,0.9219662976966793,0,3,1552937,0.8814586136203472,1552937,0.7027796463578705,1552937,0.896441956563521,0,4,2459375,0.8876050420168067,2459375,0.6773109243697479,2459375,0.9029211684673869,1,1,47770,0.9153012440239293,47770,0.8555530524892994,47770,0.926006858401542,1,2,657418,0.9136112669520806,657418,0.846620984428237,657418,0.9245908049494426,1,3,1556239,0.9010096040384161,1556239,0.766565066260265,1556239,0.9220156880627522,1,4,2475455,0.8874057864332463,2475455,0.7197196396281065,2475455,0.9110471907954745,2,1,25251,0.9058579749103942,25251,0.8640312980030722,25251,0.9088901689708141,2,2,117035,0.9168066519819816,117035,0.8939126671935523,117035,0.924737984552032,2,3,137608,0.9059880077598026,137608,0.890937115352451,137608,0.9223498941890614,2,4,142180,0.9122682997164326,142180,0.9057338310450342,142180,0.9265528124449286,3,1,18834,0.9069186490713665,18834,0.8419293094551403,18834,0.9189550823829657,3,2,60470,0.9135000000000001,60470,0.8925,60470,0.9225,3,3,66152,0.9205670567056706,66152,0.8936693669366937,66152,0.9275677567756775,3,4,66942,0.9152587328595736,66942,0.9002652387148434,66942,0.9191122009808828,4,1,15297,0.9033657572953914,15297,0.864271961191268,15297,0.9043659823460279,4,2,40858,0.9103186485564753,40858,0.8907122761854184,40858,0.9210124425055431,4,3,43722,0.9236064178618809,43722,0.9014592876273435,43722,0.9287452128857852,4,4,43803,0.9185813350738954,43803,0.8965803760294961,43803,0.9257871822414611,5,1,13095,0.9183155342330915,13095,0.8751675542875891,13095,0.91267870790136,5,2,30980,0.9112368501910106,30980,0.8967541702571863,30980,0.9238489569728142,5,3,32760,0.919428872531145,32760,0.901742674077072,32760,0.9245388865959553,5,4,32696,0.9054794054794055,32696,0.8925153925153926,32696,0.9169859169859169,6,1,11450,0.9229356752167013,11450,0.8801399969396297,11450,0.9195397643114818,6,2,24915,0.9088181643625193,24915,0.9036178315412186,24915,0.910426267281106,6,3,26028,0.9154686618746474,26028,0.9010296041184165,26028,0.9224946899787598,6,4,26071,0.9110569105691056,26071,0.8932833020637898,26071,0.9157223264540337
datasetabdou/outputlowerFalsestripFalselemmatizTruenamesTruenumbersTrueadverbsFalseconjoctionFalse 1.58.11 PM.txt,0,1,29192,0.9028189146663386,29192,0.8780852666420597,29192,0.9028869343240196,0,2,534798,0.8988993120700438,534798,0.8740462789243277,534798,0.918211382113821,0,3,1311505,0.8894685578742315,1311505,0.8347543390173561,1311505,0.9099636398545593,0,4,2120430,0.87998787998788,2120430,0.7422387422387422,2120430,0.9044824044824045,1,1,29328,0.911,29328,0.8715,29328,0.907,1,2,534347,0.8874674872073849,534347,0.8762178859609736,534347,0.9069781628034653,1,3,1298621,0.9039605425795328,1298621,0.799054765971575,1298621,0.9224402078474826,1,4,2101521,0.896931951605493,2101521,0.7885743199214446,2101521,0.9123888056422221,2,1,16497,0.8924418604651163,16497,0.8653020693189826,16497,0.8949284066884489,2,2,103756,0.8963521045204662,103756,0.8995323621213319,103756,0.9063889175023175,2,3,124675,0.8905225620902484,124675,0.8975045900183601,124675,0.91000564002256,2,4,128328,0.8991590918873038,128328,0.9108718478457799,128328,0.9134207973862882,3,1,12830,0.9159482435341918,12830,0.8711338402045619,12830,0.9154527390746516,3,2,53505,0.9076389743097413,53505,0.9014776724059479,53505,0.9135972662660471,3,3,58929,0.910192079340642,58929,0.9060956005117847,58929,0.9192143363754316,3,4,59701,0.9025246227216045,59701,0.901518613667523,59701,0.9110291992627935,4,1,10777,0.9068672605670359,10777,0.888929729124222,10777,0.8958133924633263,4,2,35975,0.9024300607515188,35975,0.9035150878771969,35975,0.912972824320608,4,3,38597,0.9011645129781749,38597,0.9016048582088356,38597,0.908974636114714,4,4,38678,0.9104346939122452,38678,0.9079751717765459,38678,0.9114647031823286,5,1,9408,0.9023401488830765,9408,0.8723698474233738,9408,0.9091917332556587,5,2,27027,0.9085900209110247,27027,0.9070304444917802,27027,0.910590118915827,5,3,28716,0.9045226180904723,28716,0.9045126180504722,28716,0.9130116520466083,5,4,28909,0.9071411986997806,28909,0.9025495988855262,28909,0.9186922547277067,6,1,8427,0.9172828244030472,8427,0.875568145445234,8427,0.9201235516292171,6,2,21760,0.9027557605162446,21760,0.8906242494115386,21760,0.9082180429456693,6,3,22760,0.9091346153846155,22760,0.9110576923076923,22760,0.9050080128205128,6,4,22798,0.9081132452981192,22798,0.8986394557823129,22798,0.9150960384153661
datasetabdou/outputlowerFalsestripFalselemmatizFalsenamesFalsenumbersFalseadverbsTrueconjoctionTrue 1.58.11 PM.txt,0,1,55132,0.918410251076155,55132,0.8822090381014867,55132,0.9274355507193035,0,2,733995,0.89935856856986,733995,0.8200691833899862,733995,0.9268774169934326,0,3,1666211,0.897989798979898,1666211,0.7895239523952395,1666211,0.9185168516851686,0,4,2613347,0.9008922507903836,2613347,0.7112982093973881,2613347,0.9264810753017259,1,1,55884,0.9130396521586086,55884,0.8603664414657658,55884,0.9230196920787684,1,2,734553,0.8940623515587889,734553,0.8393459836495911,734553,0.9130828270706767,1,3,1654361,0.9024900208135176,1654361,0.7146047682058269,1654361,0.9264030621174978,1,4,2601004,0.8920639001799794,2601004,0.750507473795944,2601004,0.9166902604048386,2,1,30166,0.9135397218574968,30166,0.8542871885846972,30166,0.9195097755879802,2,2,117574,0.9057308642000003,117574,0.8958205614654788,117574,0.9201465318690814,2,3,135091,0.914263209222075,135091,0.9059213322997675,135091,0.9263409267085094,2,4,142021,0.9085057167669152,142021,0.901177169750159,142021,0.9213799478947811,3,1,22652,0.9228467765954568,22652,0.8658672210238559,22652,0.9234243991371762,3,2,61267,0.9102603099385246,61267,0.8976850665983607,61267,0.9225874103483607,3,3,65297,0.9121228364221112,65297,0.901978471224964,65297,0.9245962854662768,3,4,66157,0.912881773694677,66157,0.8968535805601014,66157,0.9243224804836767,4,1,18477,0.9114626458505835,18477,0.8616184464737858,18477,0.9244826979307917,4,2,41511,0.9132275047606856,41511,0.8988414331663759,41511,0.9216627194315982,4,3,43425,0.9172054849364427,43425,0.9020868781903715,43425,0.9280002001801622,4,4,43435,0.9162635722353557,43435,0.8990539828064175,43435,0.9218605404983597,5,1,15795,0.9156569841212658,15795,0.864494398213192,15795,0.9203291425003303,5,2,31617,0.9146304222672775,31617,0.9012490300618257,31617,0.916870666566544,5,3,32740,0.9003652071392041,32740,0.8885367594146677,32740,0.9076903675991509,5,4,32999,0.9128534508969292,32999,0.8954429437839049,32999,0.9282176633435214,6,1,13696,0.9036366039141248,13696,0.8716616408568305,13696,0.9069534381745298,6,2,25464,0.9148514851485149,25464,0.8941394139413941,25464,0.9248824882488249,6,3,26405,0.9091477286932172,26405,0.888907222680567,26405,0.9185504637615941,6,4,26136,0.9122878359087631,26136,0.8907550625775905,26136,0.9179133667253879
datasetabdou/outputlowerFalsestripTruelemmatizFalsenamesFalsenumbersFalseadverbsFalseconjoctionTrue 1.58.11 PM.txt,0,1,55417,0.912884943680438,55417,0.8506809051533174,55417,0.9124434079160411,0,2,727497,0.9007688221896128,727497,0.856801115522386,727497,0.9197403049481301,0,3,1662074,0.9105433818315296,1662074,0.7313736021387615,1662074,0.9314299116550697,0,4,2584430,0.8910354829836713,2584430,0.7367882773624066,2584430,0.9036208146833037,1,1,55439,0.8915365661462645,55439,0.8378733514934059,55439,0.9015366061464245,1,2,735682,0.9031618023553507,735682,0.8364455325140808,735682,0.9236431131592421,1,3,1662440,0.9004986244325972,1662440,0.7377721508353908,1662440,0.9194645537631344,1,4,2616793,0.8920471160355554,2616793,0.6019672406955644,2616793,0.9121391289021348,2,1,30238,0.9188490236021565,30238,0.8709731776857066,30238,0.9229052223558956,2,2,117722,0.9086753970286885,117722,0.8900246542008197,117722,0.9261254482581966,2,3,135328,0.9021016171827164,135328,0.8998685363716038,135328,0.9236940679288775,2,4,139429,0.9057505750575058,139429,0.8931893189318931,139429,0.9193469346934693,3,1,22635,0.9085,22635,0.865,22635,0.919,3,2,60623,0.9096950750586779,60623,0.8978689955807835,60623,0.9266189043263119,3,3,66083,0.9119709326233577,66083,0.9025114285457008,66083,0.9246096184881801,3,4,66158,0.9195327125234004,66158,0.9019384310148962,66158,0.9299988799820799,4,1,18526,0.9195553460460247,18526,0.87578053142693,18526,0.9212742916793023,4,2,41390,0.9139812258310325,41390,0.8930890378013403,41390,0.9184917664258978,4,3,43288,0.9154946202569633,43288,0.8983680712550867,43288,0.9183875575686522,4,4,43536,0.912431711885407,43536,0.8860529744767702,43536,0.9244648201833817,5,1,15819,0.9162336525718286,15819,0.8574354229701684,15819,0.9167862769123052,5,2,31426,0.9175406701626807,31426,0.9009676038704155,31426,0.9205346821387286,5,3,32911,0.9181048283811476,32911,0.9067222720286885,32911,0.9165439293032787,5,4,32850,0.9148049329775872,32850,0.8970442935945694,32850,0.9238292578532827,6,1,13803,0.9191552251718227,13803,0.8762416091254266,13803,0.9207973533699675,6,2,25357,0.9110427760694018,25357,0.8933398334958373,25357,0.9225255631390784,6,3,26221,0.9153412562920115,26221,0.8991527974884961,26221,0.9244413574042459,6,4,26213,0.9220442983986855,26213,0.9109841988577897,26213,0.9215397938581447
datasetabdou/outputlowerFalsestripFalselemmatizFalsenamesTruenumbersTrueadverbsTrueconjoctionTrue 1.58.11 PM.txt,0,1,36532,0.9067783043032787,36532,0.8694127817622951,36532,0.9134141265368854,0,2,599055,0.9011530395177817,599055,0.88328187710713,599055,0.9155942869087161,0,3,1386650,0.8963100335997103,1386650,0.8777576719671986,1386650,0.9132639332767168,0,4,2171618,0.8796211830228539,2171618,0.85896789578132,2171618,0.9041994750656167,1,1,36411,0.9005000000000001,36411,0.867,36411,0.9030000000000001,1,2,597485,0.9028900161623273,597485,0.8503344481605352,597485,0.9193743899121474,1,3,1382504,0.8985694277711085,1382504,0.785014005602241,1382504,0.9205582232893156,1,4,2180807,0.8887477437659791,2180807,0.6883044645622179,2180807,0.9121414203976584,2,1,21228,0.9188792153967582,21228,0.8786676990393533,21228,0.9121392822809034,2,2,101084,0.9121312131213122,101084,0.9133263326332632,101084,0.926042604260426,2,3,115343,0.9119111911191119,115343,0.9024152415241524,115343,0.9194669466946694,2,4,119668,0.9055449904914423,119668,0.9062155940346311,119668,0.9154338905014513,3,1,16392,0.9137595813797187,16392,0.8912123345761789,16392,0.9097950104815093,3,2,51949,0.9079387431790178,51949,0.9086968523467379,51949,0.9149277495959418,3,3,55738,0.9028511298892516,55738,0.9071042186799819,55738,0.9142980603034377,3,4,55755,0.909820056352459,55755,0.9106285220286885,55755,0.9141185322745902,4,1,13663,0.908113961345695,13663,0.8681406222478423,13663,0.8999115306400217,4,2,34542,0.9106707646500907,34542,0.9025738457413388,34542,0.9168277446284001,4,3,36652,0.9071907190719072,36652,0.9015251525152514,36652,0.9176067606760676,4,4,36512,0.9250563255069295,36512,0.9160172441551974,36512,0.9330443973995766,5,1,11837,0.9125884444284387,11837,0.8789978182123745,11837,0.9151748781310054,5,2,26339,0.9190930873511447,26339,0.9119788312379244,26339,0.9220691944910016,5,3,27046,0.9130975285926255,27046,0.9052083552199114,27046,0.9196354871727144,5,4,27345,0.9094152353808846,27345,0.9059876496912422,27345,0.9129128228205705,6,1,10511,0.9099591413165531,10511,0.881728185079118,10511,0.9106447938985435,6,2,21239,0.91378410168393,21239,0.9140951626518797,21239,0.9177008693703966,6,3,21840,0.9102010114589335,21840,0.9080404583573395,21840,0.905739869406568,6,4,21924,0.8977147005081224,21924,0.895704738304423,21924,0.9094140321894321
datasetabdou/outputlowerFalsestripTruelemmatizFalsenamesTruenumbersFalseadverbsFalseconjoctionTrue.txt,0,1,36989,0.911764088130894,36989,0.8913456374127227,36989,0.9129332857252875,0,2,607836,0.9063501587539688,607836,0.8718892972324308,607836,0.9149078726968175,0,3,1419609,0.8995477703245666,1419609,0.8709619312478797,1419609,0.9110966894866357,0,4,2242490,0.8870071751793794,2242490,0.8227480687017176,2242490,0.9035400885022125,1,1,36878,0.9001366722996466,36878,0.8606337752671163,36878,0.9052083552199114,1,2,610330,0.8888559973357841,610330,0.8558613247673061,610330,0.9088666181960737,1,3,1422507,0.8906396418109868,1422507,0.8701614830801295,1422507,0.9051633182287765,1,4,2250055,0.8810296045821545,2250055,0.751576940809838,2250055,0.8999878985357228,2,1,21500,0.8999415690900487,21500,0.850632984848985,21500,0.9033858911364112,2,2,103637,0.9080659809322627,103637,0.908926149525307,103637,0.9220127144920405,2,3,120483,0.9045244723915582,120483,0.9094925518808301,120483,0.9204807276916429,2,4,124435,0.9197601364923744,124435,0.9179663197251718,124435,0.9284752507386158,3,1,16657,0.9061273963191018,16657,0.8801617931052415,16657,0.9005594453150706,3,2,53321,0.9067687266704274,53321,0.8978679821244964,53321,0.9106014778896664,3,3,57804,0.901937548438711,57804,0.9039975999399985,57804,0.9079826995674892,3,4,57967,0.9124218471864987,57967,0.9044695609041926,57967,0.9274703889340016,4,1,13960,0.9028177803379417,13960,0.8821524577572964,13960,0.9003376216077827,4,2,35795,0.9242414223899991,35795,0.9167545792169722,35795,0.9247693986180447,4,3,38171,0.9073043987411257,38171,0.9075555519907279,38171,0.9085426193529371,4,4,37988,0.9050031269543465,37988,0.9061913696060038,37988,0.9167604752970607,5,1,12002,0.9017754000426071,12002,0.8937745478985949,12002,0.8933064687932261,5,2,27070,0.9103731082823059,27070,0.9094850647681736,27070,0.9179049773438899,5,3,28597,0.9043347511148403,28597,0.8985592833019476,28597,0.9128759429513791,5,4,28492,0.9121330339798287,28492,0.9078295768876653,28492,0.9157527267918382,6,1,10729,0.9135632749724605,10729,0.8779474341926881,10729,0.9092334845133075,6,2,22062,0.9136300161252247,22062,0.909880801379647,22062,0.9193028541247363,6,3,22972,0.9082760221003316,22972,0.9035580973870878,22972,0.9081359946549524,6,4,22920,0.9103523292740867,22920,0.9040684153934635,22920,0.9133980145532745
datasetabdou/outputlowerFalsestripFalselemmatizTruenamesTruenumbersTrueadverbsTrueconjoctionFalse 1.58.11 PM.txt,0,1,29302,0.9035761149605542,29302,0.8668868317037653,29302,0.9011417644140757,0,2,530315,0.9002816180235536,530315,0.8966893881208398,530315,0.9132264464925754,0,3,1303808,0.8905455149096341,1303808,0.8767648908840179,1303808,0.9105456949112543,0,4,2101624,0.888484215747452,2101624,0.8495015920254724,2101624,0.9094965519448311,1,1,29468,0.909583069570409,29468,0.8697136159671823,29468,0.9100515925280338,1,2,530932,0.9003975894576279,530932,0.8820584631542097,530932,0.9188192343277237,1,3,1312786,0.8875003875003875,1312786,0.8423713423713424,1312786,0.9095024095024095,1,4,2118815,0.8828740157480315,2118815,0.7359964150822611,2118815,0.9048316368990462,2,1,16527,0.9077877055611598,16527,0.8692414853244944,16527,0.9037005011929352,2,2,103456,0.9011888291673295,103456,0.8919074785997745,103456,0.9086440204913974,2,3,123748,0.9095000000000001,123748,0.91,123748,0.9185000000000001,2,4,127924,0.9030024480391686,127924,0.8990223843581497,127924,0.9160026560424965,3,1,12883,0.9118353320751811,12883,0.877436169776543,12883,0.909384535528799,3,2,53720,0.9081787777439951,53720,0.899431518138612,53720,0.9196624313901202,3,3,58972,0.9092063314055014,58972,0.9049988785465963,58972,0.9198961854563514,3,4,59172,0.9037852066017348,59172,0.9004424358373028,59172,0.9088666181960737,4,1,10775,0.9014746058984235,10775,0.8700754803019212,10775,0.9009876039504159,4,2,35933,0.9150198696168945,35933,0.911798310382225,35933,0.9178012157884416,4,3,38726,0.9133190217189773,38726,0.9139444031866393,38726,0.9276391548931588,4,4,38552,0.9171003903513162,38552,0.9067610849764788,38552,0.9186818136322691,5,1,9456,0.9159415245388097,9456,0.8789592760180995,9456,0.9074188540954027,5,2,27049,0.9111652509953704,27049,0.8954488493107665,27049,0.9126269278582708,5,3,28665,0.9096095085919323,28665,0.9097526740912495,28665,0.9136892247438038,5,4,28724,0.9086860679454829,28724,0.9030356130186001,28724,0.9151936677298463,6,1,8398,0.9095215502097516,8398,0.8679936418898563,8398,0.9014517951751634,6,2,21574,0.9114302857571438,21574,0.9045251131278282,21574,0.9164404110102754,6,3,22673,0.9037027366879443,22673,0.9064187171568935,22673,0.9145546542301771,6,4,22756,0.9116447779862413,22756,0.9052657911194497,22756,0.917961225766104
datasetabdou/outputlowerFalsestripFalselemmatizFalsenamesTruenumbersTrueadverbsFalseconjoctionFalse 1.58.11 PM.txt,0,1,36340,0.9086868509065306,36340,0.8762941863628363,36340,0.9082887935862765,0,2,597323,0.9053955395539554,597323,0.8758875887588758,597323,0.9174067406740674,0,3,1377729,0.9025897268966181,1377729,0.8744338472585156,1377729,0.9185975112780526,0,4,2185388,0.8894705052345472,2185388,0.7723619512575614,2185388,0.9094856853711684,1,1,36382,0.9039779039779039,36382,0.8750348750348751,36382,0.9114874114874114,1,2,600805,0.9029304578953001,600805,0.8901433417463704,600805,0.9173121496860366,1,3,1384525,0.8975709239010846,1384525,0.8769398802165224,1384525,0.9106854943568939,1,4,2186076,0.8829981279700474,2186076,0.804230867693883,2186076,0.8969663514616233,2,1,21228,0.9132418903724806,21228,0.8666377906441687,21228,0.9130978437013593,2,2,101369,0.9119819119819119,101369,0.9075094075094076,101369,0.9244904244904246,2,3,118179,0.9003434278176532,118179,0.9083800787863817,118179,0.9133984852773074,2,4,119311,0.9025752575257526,119311,0.9125562556255626,119311,0.917001700170017,3,1,16369,0.9064406579659217,16369,0.8766233896105065,16369,0.9109631986687882,3,2,51761,0.9015750393759843,51761,0.9029475736893422,51761,0.9130278256956423,3,3,55672,0.912228133930706,55672,0.9049725370632112,55672,0.9207560985124701,3,4,55877,0.9105642052224285,55877,0.9084219584307842,55877,0.9154163540885222,4,1,13630,0.9043937265636568,13630,0.8779729389024288,13630,0.9032391677571945,4,2,34833,0.9054095947454107,34833,0.9014874535483277,34833,0.9158889720029922,4,3,36662,0.9082574316885197,36662,0.9141377239515563,36662,0.9171103993594234,4,4,36447,0.9170866733867742,36447,0.9155406486503783,36447,0.9210667370677931,5,1,11867,0.9186260705385394,11867,0.8763065470356932,11867,0.9115718165853971,5,2,26360,0.9071214489509987,26360,0.903009247453125,26360,0.9125622155485619,5,3,27181,0.9244282794180592,27181,0.9249072966626797,27181,0.9254583164993939,5,4,27337,0.9185889335458458,27337,0.9157024065730771,27337,0.9197045236930336,6,1,10545,0.9055896012256441,10545,0.885378873639451,10545,0.8975713125672524,6,2,21387,0.911781296506697,21387,0.9116132723112128,21387,0.9126974284296939,6,3,21899,0.913363016925048,21899,0.9099891086821505,21899,0.9169789544534889,6,4,22177,0.9013696876600104,22177,0.889056899641577,22177,0.9079381080389144
datasetabdou/outputlowerFalsestripFalselemmatizFalsenamesTruenumbersTrueadverbsTrueconjoctionFalse 1.58.11 PM.txt,0,1,36375,0.9062456245624563,36375,0.8754575457545755,36375,0.9007300730073007,0,2,596548,0.9065000000000001,596548,0.8704999999999999,596548,0.9175,0,3,1380760,0.8783813525410165,1380760,0.7829331732693078,1380760,0.8963085234093637,0,4,2170022,0.8950004950400983,2170022,0.8767025129035453,2170022,0.9160471998231857,1,1,36285,0.9048019207683072,36285,0.870218087234894,36285,0.8978191276510604,1,2,597013,0.9013950348758718,597013,0.8499687492187306,597013,0.917430435760894,1,3,1384875,0.8879971999299983,1384875,0.8416860421510538,1384875,0.911972799319983,1,4,2199649,0.8802978304754298,2199649,0.9049996046675255,2199649,0.8988279142759059,2,1,21275,0.9101722592213114,21275,0.8715420081967213,21275,0.9107325819672132,2,2,101708,0.8994123905982495,101708,0.8935642970287523,101708,0.9099505592089475,2,3,117072,0.9089177229430736,117072,0.9059826495662392,117072,0.917927948198705,2,4,119391,0.9103037758606182,119391,0.9066924054031311,119391,0.9197744821865771,3,1,16457,0.9152220137585991,16457,0.895234521575985,16457,0.9126328955597248,3,2,51840,0.9049661173764098,51840,0.906621489835213,51840,0.9053387012077718,3,3,55576,0.9024484391750266,55576,0.9020304324869198,55576,0.913492615881854,3,4,56035,0.9114766459065836,56035,0.9154786619146477,56035,0.9184886739546958,4,1,13613,0.9155520945553265,13613,0.8782678193998065,13613,0.9195362459750868,4,2,34399,0.907362843117251,34399,0.8991482330536785,34399,0.9154204224027911,4,3,36358,0.9100235911559666,36358,0.9115271648310768,36358,0.9179609800880243,4,4,36500,0.9062086512468008,36500,0.9025597097248766,36500,0.9086264437996998,5,1,11813,0.9159856639426558,11813,0.8815845263381054,11813,0.9185006740026959,5,2,26321,0.9103977743198756,26321,0.909463740694665,26321,0.9169130088683193,5,3,27193,0.9109067926445352,27193,0.9079786872327404,27193,0.9219371897388305,5,4,27225,0.9080825293204691,27225,0.9015364245827933,27225,0.9145686330981296,6,1,10474,0.9017901166041091,10474,0.8823047588758239,10474,0.9028452442745573,6,2,21138,0.9064020097286225,21138,0.8910010240655402,21138,0.9114263312852022,6,3,21890,0.9044024892986368,21890,0.8995302304131791,21890,0.9123293508956734,6,4,21801,0.9185166962671402,21801,0.9134846157538521,21801,0.9220067521080336
datasetabdou/outputlowerFalsestripFalselemmatizFalsenamesFalsenumbersTrueadverbsFalseconjoctionTrue 1.58.11 PM.txt,0,1,54794,0.9256557725488236,54794,0.8834762821634868,54794,0.9290590382836138,0,2,727019,0.9025804412870605,727019,0.8359873757980127,727019,0.923054768876302,0,3,1617510,0.8974649366234155,1617510,0.752681317032926,1617510,0.920470511762794,0,4,2535146,0.8855615208590037,2535146,0.665417820166104,2535146,0.9128674529132195,1,1,54873,0.9108510851085108,54873,0.86003100310031,54873,0.9193869386938693,1,2,723365,0.9034400860021501,723365,0.8207155178879473,723365,0.9274106852671317,1,3,1622363,0.8993377496695752,1622363,0.789610704062449,1622363,0.9153692303228408,1,4,2568011,0.8944773293891402,2568011,0.7115153642528484,2568011,0.9090515435256327,2,1,29935,0.917553662630272,29935,0.875294622777756,29935,0.9215860538713058,2,2,114992,0.8989270903438132,114992,0.8920800287202585,114992,0.9199512795615161,2,3,130918,0.9169806807525128,130918,0.8979581828317614,130918,0.9261914269900987,2,4,135133,0.8994745978983917,135133,0.8985265941063765,135133,0.9204806819227278,3,1,22489,0.9193569356935694,22489,0.8412891289128913,22489,0.9238823882388238,3,2,58891,0.905,58891,0.8885000000000001,58891,0.9149999999999999,3,3,63545,0.9082504644957182,63545,0.8910398600859855,63545,0.9156508793151577,3,4,63783,0.9169627011558108,63783,0.9123577758225655,63783,0.925145064406895,4,1,18172,0.9068946482073356,18172,0.8752955106383831,18172,0.9129668668072052,4,2,39941,0.9096712955739326,39941,0.8900514500842166,39941,0.9160115382614993,4,3,42032,0.9157462985194079,42032,0.9001700680272109,42032,0.9273809523809524,4,4,42189,0.9191979949874688,42189,0.9014536340852131,42189,0.923609022556391,5,1,15554,0.9147313965458768,15554,0.8707134846467293,15554,0.9134513320374286,5,2,30694,0.9192811722587828,30694,0.8909699903272046,30694,0.9268938723291031,5,3,31526,0.9131579605411219,31526,0.9105773799104798,31526,0.9231452076717261,5,4,31511,0.9179636835278857,31511,0.9043730284543082,31511,0.9290563802020785,6,1,13709,0.9044466400197603,13709,0.8601547413926725,13709,0.9084586761280852,6,2,24604,0.910054560872974,24604,0.9014364229827677,24604,0.9170346725547609,6,3,25383,0.9193654841371035,25383,0.9030025750643766,25383,0.927420685517138,6,4,25523,0.9188032136226875,25523,0.8978338454644389,25523,0.923852506241598
datasetabdou/outputlowerFalsestripFalselemmatizFalsenamesTruenumbersFalseadverbsFalseconjoctionTrue 1.58.11 PM.txt,0,1,37050,0.9064827376450202,37050,0.8696339028089596,37050,0.9034592742887558,0,2,608372,0.899442597770391,608372,0.8671554686218744,608372,0.9109476437905751,0,3,1420120,0.9134730302366587,1420120,0.8336848758699804,1420120,0.9283978361381727,0,4,2225052,0.8980820684654047,2225052,0.8181115751043986,2225052,0.911652621839914,1,1,37046,0.9077469225768516,37046,0.8764107464648073,37046,0.9079808157512779,1,2,611240,0.9084321000996674,611240,0.8839785695129909,611240,0.92038818241131,1,3,1426033,0.8985446725513241,1426033,0.825315696031607,1426033,0.9159360856192643,1,4,2255057,0.8981270785926834,2255057,0.8165587257132854,2255057,0.9131754644795079,2,1,21580,0.9198125348655305,21580,0.8891058299673803,21580,0.9128409310561363,2,2,104629,0.9087753321245162,104629,0.9027332476754286,104629,0.9210436254908319,2,3,119913,0.9200336801347205,119913,0.9140256561026243,119913,0.9295427181708728,2,4,125487,0.9080625290004639,125487,0.9060544968719498,125487,0.923038768620298,3,1,16686,0.9152663922128736,16686,0.882424955291237,16686,0.9202673724049915,3,2,53566,0.9049451445063007,53566,0.895014055126496,53566,0.9114677032093289,3,3,58002,0.9204287268596297,58002,0.9184726955631289,58002,0.924476791628666,3,4,58112,0.9129028225705643,58112,0.9119427985699644,58112,0.9264306607665193,4,1,13992,0.9105242524644497,13992,0.8760624610593458,13992,0.9085060889932084,4,2,35663,0.9050036294460715,35663,0.9069284873970613,35663,0.9135941528372257,4,3,37894,0.9128732697554505,37894,0.9086581061800706,37894,0.9169407524217166,4,4,38069,0.9196619228649642,38069,0.9086080547612547,38069,0.9296376087558796,5,1,12081,0.908048841016527,12081,0.8788070735817413,12081,0.8980941116194547,5,2,27357,0.9155091064075012,27357,0.9050860616538405,27357,0.9157562260133906,5,3,28589,0.9169636678546714,28589,0.9154886619546478,28589,0.9149896599586399,5,4,28423,0.9197592908741957,28423,0.9103406512187975,28423,0.9273537097988857,6,1,10752,0.9135081379387624,10752,0.8873514781154079,10752,0.9067738785572217,6,2,21887,0.9063639391784226,21887,0.895969935311305,21887,0.9156881338706886,6,3,22939,0.9134039428774923,22939,0.9097497589218906,22939,0.9247366146631508,6,4,22946,0.9043588135818655,22946,0.8984145223115931,22946,0.9154013546663787
datasetabdou/outputlowerFalsestripFalselemmatizFalsenamesTruenumbersFalseadverbsTrueconjoctionFalse 1.58.11 PM.txt,0,1,36940,0.9084841352754462,36940,0.8931737854789839,36940,0.9026551949117604,0,2,612024,0.9040584649354388,612024,0.8897222355557689,612024,0.913070609129746,0,3,1414091,0.8934973934973934,1414091,0.8466253466253466,1414091,0.9114914114914114,0,4,2237249,0.8874705074127038,2237249,0.645281786900284,2237249,0.907752795036032,1,1,36924,0.900475011875297,36924,0.8816445411135277,36924,0.9025000625015625,1,2,608277,0.9006690246304038,608277,0.8610714611261531,608277,0.9196188793361642,1,3,1420313,0.8908394219385933,1420313,0.8000922672628347,1420313,0.9107729534830891,1,4,2241370,0.8876970444458449,2241370,0.7696734356228949,2241370,0.9030399785538021,2,1,21512,0.9081975676227294,21512,0.8817057455808612,21512,0.9061305671945221,2,2,104112,0.9081249481100038,104112,0.9045999293795908,104112,0.9187385154309595,2,3,121195,0.9007688221896128,121195,0.9061088654621184,121195,0.9165353787244513,2,4,124239,0.9108810322725267,124239,0.9113138477950427,124239,0.9218890571226425,3,1,16703,0.9156056640587886,16703,0.868584355332782,16703,0.9175338202394394,3,2,53672,0.9177954297104842,53672,0.9104264482790366,53672,0.9211547005775905,3,3,57703,0.9136615672656863,57703,0.9205425581283706,57703,0.9201445008081164,3,4,57928,0.9152463030535818,57928,0.9103730555022086,57928,0.9153583317329236,4,1,13894,0.9073957395739574,13894,0.8644664466446644,13894,0.8998299829982999,4,2,35867,0.9050876271906797,35867,0.9039975999399986,35867,0.9215455386384661,4,3,38045,0.9152425385825007,38045,0.9085153589763083,38045,0.9196449649686498,4,4,37955,0.9166576605785511,37955,0.9050658244973602,37955,0.9198938482414113,5,1,12069,0.9004230181972915,12069,0.8714450201496833,12069,0.8994568346224124,5,2,27204,0.9101563477173233,27204,0.9074546591619762,27204,0.9118949343339587,5,3,28472,0.9122055545996902,28472,0.9111382087796446,28472,0.9156436685486098,5,4,28468,0.9050316201264804,28468,0.8985205940823764,28468,0.9155246620986484,6,1,10720,0.8982071093352167,10720,0.8681858699686562,10720,0.8900355056579952,6,2,21984,0.913976913976914,21984,0.903991903991904,21984,0.9124844124844125,6,3,22785,0.9072057205720572,22785,0.8969096909690969,22785,0.9117811781178117,6,4,22793,0.9075759712225898,22793,0.898463524712711,22793,0.9169749317716567
datasetabdou/outputlowerFalsestripFalselemmatizTruenamesFalsenumbersFalseadverbsTrueconjoctionTrue 1.58.11 PM.txt,0,1,48303,0.8975203603257653,48303,0.8607137714203428,48303,0.9105325685210963,0,2,674633,0.9122022200056883,674633,0.8022634684484395,674633,0.9297084990726608,0,3,1594494,0.8919572989324733,1594494,0.7775569389234732,1594494,0.9149428735718392,0,4,2510410,0.8769175672417743,2510410,0.7234506656903142,2510410,0.9005495984050242,1,1,48621,0.9127764348912262,48621,0.8408076054160387,48621,0.9201915355143767,1,2,678944,0.9004274517216584,678944,0.8281017003057369,678944,0.9164513906182647,1,3,1584690,0.893070289124626,1584690,0.7345217523480375,1584690,0.9115645850333605,1,4,2536892,0.9018424917660148,2536892,0.7415288999875941,2536892,0.9149808507317541,2,1,25598,0.9073615178593777,25598,0.8562113589146705,25598,0.9162749367975772,2,2,119907,0.913001652006608,119907,0.8884045536182146,119907,0.9214966859867438,2,3,142560,0.9082468555424971,142560,0.9009652171738641,142560,0.9208321872421296,2,4,146267,0.906663999399865,146267,0.8920232052211747,146267,0.918756720262059,3,1,19148,0.9020968871984786,19148,0.8477479731758584,19148,0.9103142828545692,3,2,61998,0.9104843359600231,61998,0.8883736946633354,61998,0.9253395476968416,3,3,67590,0.9124141979994619,67590,0.8892667860868486,67590,0.9202725260569036,3,4,68300,0.896192653760137,68300,0.8847924193141855,68300,0.9158014970934303,4,1,15554,0.9045038862138204,15554,0.8441607749017316,15554,0.9077428145812303,4,2,42125,0.9133735257877134,42125,0.90120177305532,42125,0.9228568913923606,4,3,45082,0.911322547573204,45082,0.8803330749418619,45082,0.9194893851116501,4,4,45097,0.9165114165114165,45097,0.8934803934803934,45097,0.9235064235064236,5,1,13341,0.9206186103119053,13341,0.8781195278568649,13341,0.9245908049494426,5,2,32150,0.9084725689776583,32150,0.890748031496063,32150,0.9198074707125022,5,3,33723,0.9117861786178618,33723,0.9029802980298031,33723,0.9212421242124212,5,4,33524,0.9097259725972598,33524,0.8985348534853487,33524,0.9221622162216222,6,1,11669,0.9085283631896734,11669,0.86378086500026,11669,0.917770357595861,6,2,25489,0.9073512895060303,25489,0.8872943626178768,25489,0.9154732722659442,6,3,27109,0.9116923147700872,27109,0.9000209025292061,27109,0.9177920528383935,6,4,27057,0.9125204215058841,27057,0.8924420669515256,27057,0.918733161324144
datasetabdou/outputlowerFalsestripFalselemmatizTruenamesTruenumbersFalseadverbsFalseconjoctionFalse 1.58.11 PM.txt,0,1,29900,0.9001402840752524,29900,0.8584583782158872,29900,0.9103409404043188,0,2,542046,0.8941417593171936,542046,0.8523206751054854,542046,0.9082839999358263,0,3,1347265,0.8890836054029831,1347265,0.8741797900262466,1347265,0.9105010882785993,0,4,2163503,0.8872537253725372,2163503,0.7834733473347335,2163503,0.9093059305930592,1,1,29971,0.9002900652646845,29971,0.8805581255782552,29971,0.9028881498337126,1,2,548747,0.8975071692914016,548747,0.8646185456351431,548747,0.9124905878017912,1,3,1342129,0.8988981179181871,1342129,0.861524550284873,1342129,0.9153623327571858,1,4,2159885,0.889018041845558,2159885,0.7576604819961668,2159885,0.9084073239729672,2,1,16856,0.9013586662985945,16856,0.8730341146864784,16856,0.8998093626350765,2,2,106440,0.9004776234035468,106440,0.8947223413947284,106440,0.9154923591255972,2,3,127880,0.9080236320945284,127880,0.9120136480545923,127880,0.9230076920307682,2,4,131283,0.9013554977745186,131283,0.9022719019087418,131283,0.9060215555059781,3,1,13224,0.9163605184909497,13224,0.8799979189927926,13224,0.9124246135129402,3,2,54919,0.9046935560501114,54919,0.899052286764522,54919,0.9097546948063314,3,3,61014,0.9048830447997885,61014,0.903507454617538,61014,0.913968547641073,3,4,62091,0.8973025723150836,62091,0.8983034731258133,62091,0.9124662195976379,4,1,11026,0.908088470648486,11026,0.884950547340119,11026,0.9064680558222904,4,2,37170,0.9108638401503846,37170,0.9046718896859882,37170,0.9169006415164974,4,3,39994,0.9139097402006063,39994,0.9095555660076196,39994,0.922213293490955,4,4,40474,0.9132352941176471,40474,0.9029411764705882,40474,0.9142557022809124,5,1,9631,0.9134333958724202,9631,0.8852157598499062,9631,0.9065540963101939,5,2,27949,0.9107132677746897,27949,0.9160291983650674,27949,0.9201735340562587,5,3,29830,0.9088462335483342,29830,0.9098142877593699,29830,0.9150725139677108,5,4,29733,0.8999399759903961,29733,0.9019207683073229,29733,0.9104141656662664,6,1,8691,0.9124205987295797,8691,0.8821021136338181,8691,0.9114565833053329,6,2,22642,0.9123450437526466,22642,0.8948524943663649,22642,0.9125647830487399,6,3,23697,0.9098597184366484,23697,0.9029781700882699,23697,0.9094571278537671,6,4,23664,0.9056484133715255,23664,0.9015638251908276,23664,0.9045042486118001
datasetabdou/outputlowerFalsestripFalselemmatizFalsenamesTruenumbersTrueadverbsFalseconjoctionTrue 1.58.11 PM.txt,0,1,36519,0.916156462585034,36519,0.8851440576230493,36519,0.913765506202481,0,2,597460,0.8962137674634523,597460,0.8898686964490813,597460,0.9131779781414204,0,3,1386621,0.8898881438927205,1386621,0.8060480709222128,1386621,0.9068305836040391,0,4,2193787,0.8924971198156681,2193787,0.8490223374295954,2193787,0.9120583717357911,1,1,36431,0.90939553685996,36431,0.869995769488108,36431,0.9169899557846499,1,2,599565,0.8955603289652635,599565,0.8576097217555482,599565,0.9100425606809708,1,3,1395160,0.895993660931891,1395160,0.7922114303322807,1395160,0.9108908711816519,1,4,2180656,0.8957243968075443,2180656,0.9101097769707724,2180656,0.9024881845286681,2,1,21135,0.905892509172972,21135,0.8662546665119499,21135,0.9097677647557809,2,2,100890,0.9161851156973108,100890,0.90411507191995,100890,0.9242651657285803,2,3,117862,0.9124303107577689,117862,0.9119877996949924,117862,0.9244206105152629,2,4,119722,0.9024044384710156,119722,0.8989223827581242,119722,0.9084445351125618,3,1,16338,0.9059464951439222,16338,0.8731459703355254,16338,0.9149706395302325,3,2,51501,0.9075354939939398,51501,0.9086592536554712,51501,0.917587289007369,3,3,55713,0.8966013824884792,55713,0.9065620199692781,55713,0.9090101766513057,3,4,56524,0.8977297729772978,56524,0.9028702870287029,56524,0.9073157315731573,4,1,13663,0.9009909009909011,13663,0.873053873053873,13663,0.907000907000907,4,2,34590,0.9086968523467379,34590,0.9045402537965468,34590,0.920168504264614,4,3,36668,0.9152158120193392,36668,0.9034795460808136,36668,0.9213632606027204,4,4,36756,0.9075365205843293,36756,0.9019584313349013,36756,0.9079905278484457,5,1,11792,0.9085734293717487,11792,0.8780312124849939,11792,0.9034913965586233,5,2,26326,0.9133300129315647,26326,0.9039223746073275,26326,0.9144401472578182,5,3,27290,0.9187895301742204,27290,0.9075837917158059,27290,0.9229437307381833,5,4,27388,0.9063521045550644,27388,0.9029966685886348,27388,0.9052229482990582,6,1,10529,0.9053995125176155,10529,0.8729140224697973,10529,0.8973721558943462,6,2,21396,0.9173608997260448,21396,0.9102576939713869,21396,0.9175191047597686,6,3,21954,0.9082998801992477,21954,0.9070668432151439,21954,0.9097866305562977,6,4,21840,0.905,21840,0.905,21840,0.9115
datasetabdou/outputlowerFalsestripFalselemmatizTruenamesTruenumbersFalseadverbsTrueconjoctionTrue 1.58.11 PM.txt,0,1,29841,0.909848921323859,29841,0.8810695538057742,29841,0.9164226041866719,0,2,545264,0.9053908692933083,545264,0.9061163227016884,545264,0.9116572858036273,0,3,1343472,0.8985148514851485,1343472,0.8423342334233422,1343472,0.9119611961196119,0,4,2160067,0.8819781116497863,2160067,0.7912826605225682,2160067,0.9059824957199315,1,1,29786,0.9112388288688867,29786,0.8666314157643636,29786,0.9108712981545352,1,2,543881,0.8982773441839101,543881,0.8596787057765112,543881,0.922294852947799,1,3,1326539,0.9088899756870582,1326539,0.8280466936499317,1326539,0.9193967470063877,1,4,2167519,0.8950055800223201,2167519,0.8148182592730371,2167519,0.9139916559666238,2,1,16871,0.9084526760740848,16871,0.8561547053923486,16871,0.9069571626144635,2,2,106199,0.9147282867442018,106199,0.9058975559209606,106199,0.9192081648003008,2,3,129088,0.9088340891061674,129088,0.905022713199465,129088,0.9178943598639109,2,4,131564,0.9075365205843293,131564,0.9039704635274164,131564,0.9095405526488423,3,1,13206,0.9120236480945925,13206,0.8769075076300306,13206,0.9100076400305601,3,2,55183,0.9135144135144134,55183,0.898985898985899,55183,0.9250089250089248,3,3,61155,0.9013388082295535,61155,0.899993096347968,61155,0.909181957255388,3,4,61201,0.9047684780901681,61201,0.8966146216256498,61201,0.9183318979184985,4,1,10971,0.913,10971,0.868,10971,0.9115000000000001,4,2,36994,0.9156052882398771,36994,0.9059006139742909,36994,0.9195617669738039,4,3,40070,0.9083655253629169,40070,0.9004128183809235,40070,0.9180946720815312,4,4,39833,0.9135624679979519,39833,0.8984495007680492,39833,0.9199868791602663,5,1,9685,0.9073292868437081,9685,0.8709078798534624,9685,0.9048784902973259,5,2,28033,0.9116939181694039,28033,0.9065790053301617,28033,0.9111422804762305,5,3,29828,0.9115659831221007,29828,0.9063840047964757,29828,0.9185331046050779,5,4,29676,0.9097470793966069,29676,0.9018781272533977,29676,0.9183416193359396,6,1,8580,0.9113852394744844,8580,0.883089164839737,8580,0.9149277495959418,6,2,22561,0.9118811881188119,22561,0.8950695069506951,22561,0.9135263526352635,6,3,23434,0.9078834862908283,23434,0.902442719693265,23434,0.9184085020165987,6,4,23579,0.9224706898827596,23579,0.9094866379465517,23579,0.9199836799347197
