datasetthibault/outputlowerTruestripTruelemmatizTruenamesFalsenumbersFalseadverbsTrueconjoctionFalse.txt,0,1,38436,0.9170316681266725,38436,0.8478513914055655,38436,0.9215166860667443,0,2,621794,0.8898647113745921,621794,0.8372628646283139,621794,0.9132602667344494,0,3,1475027,0.8861693881123253,1475027,0.7845640269060539,1475027,0.9086219399364858,0,4,2379143,0.8891295846797462,2379143,0.6740340581210327,2379143,0.9081428852891199,1,1,38162,0.9021254782326024,38162,0.8480458103073192,38162,0.9067690230301817,1,2,626516,0.9097912795869015,626516,0.8025930717349478,626516,0.9278468309735851,1,3,1484526,0.8965544311671272,1484526,0.7649659833331834,1484526,0.9175624605605677,1,4,2355483,0.8947863897205214,2355483,0.6152978011869407,2355483,0.9159812579889274,2,1,21314,0.904591087512354,21314,0.8422448873434993,21314,0.9032436509429055,2,2,111698,0.907391719263672,111698,0.8769405315877435,111698,0.9214109115378953,2,3,131579,0.9104037745358834,131579,0.8981943349960599,131579,0.9254523162833862,2,4,135321,0.9064085228272872,135321,0.8978032836728489,135321,0.9209646189051223,3,1,16341,0.911830161786402,16341,0.8594958865744793,16341,0.9129204070915957,3,2,57873,0.8997885642673613,57873,0.8786414904118796,57873,0.9151546611377323,3,3,62982,0.9071528611444578,62982,0.8919267707082833,62982,0.914155662264906,3,4,63280,0.9152637979869102,63280,0.9018058600438463,63280,0.9246631514938151,4,1,13546,0.9038281512537807,13546,0.8563073082523882,13546,0.9112512201757054,4,2,38747,0.9156506016385049,38747,0.9014336917562724,38747,0.91965085765489,4,3,41068,0.915689475137127,41068,0.900176434581178,41068,0.9217746678348956,4,4,41482,0.9115,41482,0.9005000000000001,41482,0.9235000000000001,5,1,11662,0.9200436357525067,11662,0.8606752037485533,11662,0.9104391685398427,5,2,29338,0.90846095440454,29338,0.8923756476087867,29338,0.913763368576056,5,3,30563,0.9114527030743278,30563,0.8910770196931772,30563,0.9189662706964363,5,4,31024,0.909630240756019,31024,0.8924548113702843,31024,0.9100477511937799,6,1,10281,0.9077117351404067,10281,0.8676377184866595,10281,0.9040384086419445,6,2,23549,0.9218079828436079,23549,0.9022109660072979,23549,0.9242206004737212,6,3,24369,0.9203428712062018,24369,0.9047900123954663,24369,0.925113975263091,6,4,24474,0.9078905262484199,24474,0.8955083281332501,24474,0.9164406630506087
datasetthibault/outputlowerFalsestripFalselemmatizTruenamesTruenumbersTrueadverbsFalseconjoctionTrue.txt,0,1,29455,0.9068681582485116,29455,0.8771565520773318,29455,0.8991661865437551,0,2,532258,0.8947243659757312,532258,0.8823189345111642,532258,0.9092202071606036,0,3,1313827,0.8905472562180023,1313827,0.8375833475850578,1313827,0.909538554165054,0,4,2108317,0.8798019207683074,2108317,0.8441276510604242,2108317,0.9008503401360544,1,1,29212,0.9108467904844575,29212,0.8717023812857264,29212,0.9088587189138809,1,2,536302,0.8997935867895546,536302,0.8618231566820277,536302,0.9164026497695853,1,3,1312218,0.8936235340250241,1312218,0.8249902968561815,1312218,0.9111021971118641,1,4,2120350,0.8974923974923975,2120350,0.8286443286443287,2120350,0.916991916991917,2,1,16572,0.909703881552621,16572,0.879341736694678,16572,0.9077430972388955,2,2,104057,0.9138678466961675,104057,0.9104952623815596,104057,0.9203905097627441,2,3,122985,0.8977688771161857,122985,0.8961823630856398,122985,0.9052623049868157,2,4,126630,0.9151197772479238,126630,0.9103710934374549,126630,0.9270734985837961,3,1,12789,0.9146350733273922,12789,0.8795636462562173,12789,0.9135438889172272,3,2,52919,0.9103774339770595,52919,0.9015717080547787,52919,0.9212955739324908,3,3,58822,0.9086951043034486,58822,0.9030911503831811,58822,0.920083526765668,3,4,59585,0.9085417075014701,59585,0.9089847234500443,59585,0.91750003000108,4,1,10761,0.9104853445470703,10761,0.871302345373082,10761,0.9111711847012589,4,2,36131,0.9050250321155439,36131,0.8988850603692187,36131,0.91718491750007,4,3,38571,0.9036738351254479,38571,0.9036338325652842,38571,0.9156506016385049,4,4,38876,0.9189229730743268,38876,0.9119777994449861,38876,0.9234555863896597,5,1,9441,0.9033445665797415,9441,0.8800518349803093,9441,0.9140091486439581,5,2,27200,0.9183649995399098,27200,0.9116716876507797,27200,0.9224638029053696,5,3,28530,0.9004701057737992,28530,0.9013353004425996,28530,0.9079342852141732,5,4,28750,0.9124565993055889,28750,0.9084885358165731,28750,0.9139986239779837,6,1,8456,0.8995573132333937,8456,0.8639343311289012,8456,0.8989381918856094,6,2,21882,0.9040000000000001,21882,0.8965,21882,0.914,6,3,22769,0.9086834733893558,22769,0.9014505802320928,22769,0.9153561424569829,6,4,22860,0.9057297003073771,22860,0.9005987448770492,22860,0.9013831967213115
datasetthibault/outputlowerFalsestripFalselemmatizFalsenamesFalsenumbersTrueadverbsFalseconjoctionFalse.txt,0,1,54849,0.9136263626362635,54849,0.8704270427042704,54849,0.9136163616361637,0,2,723777,0.9152699124383903,723777,0.792911741138551,723777,0.9343337944998144,0,3,1636511,0.905057626440661,1636511,0.7679391984799621,1636511,0.9240381009525238,0,4,2569386,0.8900110100990908,2569386,0.6530348773138959,2569386,0.9149932349391144,1,1,54866,0.9246028767979988,54866,0.8730831769856161,54866,0.9335584740462789,1,2,724590,0.9201770398339627,724590,0.8431347053086944,724590,0.9347028081318296,1,3,1621756,0.9004796043164388,1621756,0.7748664737982641,1621756,0.922518802669224,1,4,2530869,0.8995683930942896,2530869,0.6897130354085665,2530869,0.9200307204915279,2,1,29708,0.9160100062539088,29708,0.8809756097560976,29708,0.9197623514696684,2,2,114937,0.8959311690430878,114937,0.8890757034410472,114937,0.9121683513346033,2,3,131357,0.9123185912235564,131357,0.9038558492951715,131357,0.9213035023347564,2,4,135618,0.8995233995233994,135618,0.8844773844773844,135618,0.9195134195134194,3,1,22262,0.906092652316308,22262,0.8627465686642166,22262,0.9115752893822345,3,2,59378,0.9059344949519192,59378,0.8946563145010319,59378,0.9214687434998959,3,3,63390,0.9042526579111945,63390,0.9013508442776735,63390,0.9184740462789244,3,4,63826,0.9129124624079514,63826,0.892338973015735,63826,0.9224411153749603,4,1,18289,0.9199260763777425,18289,0.8594761143296021,18289,0.919982079121877,4,2,40132,0.9220121404318022,40132,0.9000336344416683,40132,0.9255637773079635,4,3,42154,0.9081388084625828,42154,0.8970710140922907,42154,0.9218416489461818,4,4,41907,0.9127014312881593,41907,0.9097988189370433,41907,0.9213191872685417,5,1,15506,0.9080179080179079,15506,0.8734663734663735,15506,0.911017911017911,5,2,30275,0.9125194125194124,30275,0.8939928939928939,30275,0.9130049130049129,5,3,31579,0.906650641025641,31579,0.8959134615384616,31579,0.9191506410256409,5,4,31685,0.9114527030743278,31685,0.9030261272351451,31685,0.9224648021832197,6,1,13643,0.915400965217174,13643,0.8588307369158061,13643,0.9063539296341676,6,2,24545,0.9135,24545,0.9119999999999999,24545,0.9245,6,3,25164,0.9044441596308817,25164,0.8963336484083372,25164,0.917605216360403,6,4,25551,0.8951472364942711,25551,0.8924316267933484,25551,0.912493406163323
datasetthibault/outputlowerTruestripTruelemmatizTruenamesTruenumbersTrueadverbsTrueconjoctionFalse.txt,0,1,25779,0.9085134143848383,25779,0.8807717129445908,25779,0.912136079945164,0,2,501332,0.8977681299437232,501332,0.8940526803743253,501332,0.9150997270669752,0,3,1238913,0.9029656118624474,1238913,0.8372633490533963,1238913,0.9154606618426474,0,4,1980358,0.8933706453729338,1980358,0.804613864396473,1980358,0.9138795986622072,1,1,25795,0.9069705115281844,25795,0.8901542424678794,25795,0.9074685194963119,1,2,505538,0.8948138331124504,505538,0.8776699757445425,505538,0.9047860768672951,1,3,1235647,0.8984332730951208,1235647,0.7991442306826851,1235647,0.9154256494776076,1,4,1977739,0.8896131431903261,1977739,0.8041393008554035,1977739,0.909198012959568,2,1,15161,0.9043317326930771,15161,0.8644557823129253,15161,0.9048419367747098,2,2,97126,0.908026113671275,97126,0.9008256528417818,97126,0.9105062724014336,2,3,114827,0.9022909163665466,114827,0.8941976790716286,114827,0.9093937575030011,2,4,118795,0.9144046304740876,118795,0.9139386230179681,118795,0.9289548632778124,3,1,11936,0.9064586635922562,11936,0.8654004739715937,11936,0.9051496373156556,3,2,50460,0.9069759069759069,50460,0.900994900994901,50460,0.9164874164874164,3,3,54582,0.9096835159203025,54582,0.8987323018771222,54582,0.9121380293420464,3,4,55054,0.907803355169644,55054,0.8940543817163159,55054,0.9178402558339359,4,1,10027,0.9113533196188891,10027,0.8753048996968755,10027,0.9098576984735763,4,2,33779,0.9000334147358986,33779,0.892225471432902,33779,0.9084426231968298,4,3,35384,0.9158746159754224,35384,0.9090021761392729,35384,0.9164266513056836,4,4,35591,0.904260958715711,35591,0.8974394238703709,35591,0.9093821109749693,5,1,8823,0.9184267793138761,8823,0.8769041218637993,8823,0.9154745903737839,5,2,25249,0.9044541610609265,25249,0.8947001729771287,25249,0.9101039464411557,5,3,26269,0.9049022970860641,26269,0.8994603562888593,26269,0.911965869235408,5,4,26485,0.922700107524193,26485,0.9125628266359931,26485,0.9171013478032558,6,1,7972,0.911709397605787,7972,0.8844104090647207,7972,0.9070241981947379,6,2,20159,0.9126104070660522,20159,0.9034898233486944,20159,0.9185867895545315,6,3,21105,0.9134002818286614,21105,0.9030865947105547,21105,0.9182000823252167,6,4,20944,0.8999480995328958,20944,0.8989630906678161,20944,0.9049571446143014
datasetthibault/outputlowerTruestripTruelemmatizFalsenamesTruenumbersTrueadverbsTrueconjoctionFalse.txt,0,1,32849,0.9108145196458506,32849,0.8760287016255186,32849,0.9133500166032542,0,2,568169,0.90330276183533,568169,0.8790085714199996,568169,0.920338596591233,0,3,1313759,0.8936531883220826,1313759,0.7974669414992928,1313759,0.9106056495523625,0,4,2055287,0.9073449585051234,2055287,0.8943059279968049,2055287,0.9149607773069919,1,1,32998,0.91,32998,0.8614999999999999,32998,0.9115000000000001,1,2,569174,0.9033360803955771,569174,0.8577575170824598,569174,0.9169400393656687,1,3,1311059,0.8950395801583205,1311059,0.8567954271817088,1311059,0.9170356681426727,1,4,2051413,0.8933256844912719,2051413,0.7264147354341618,2051413,0.90862236745678,2,1,19877,0.9045938940092167,19877,0.8571908602150538,19877,0.9095142089093701,2,2,95253,0.9106994971014319,95253,0.9109265416021541,95253,0.920561430040288,2,3,107947,0.912340893248083,107947,0.9081098812956367,107947,0.9139235847537553,2,4,110219,0.9197760074264062,110219,0.9188116949891765,110219,0.9218666848058771,3,1,15457,0.9097539015606242,15457,0.8874149659863945,15457,0.9111044417767108,3,2,47886,0.9167661962452529,47886,0.9182438469661278,47886,0.9217271315124184,3,3,51057,0.9036013430500361,51057,0.9051570960344807,51057,0.9110499481749167,3,4,51440,0.9112580026024398,51440,0.8976712064338873,51440,0.9171810035896066,4,1,12923,0.9070192439566687,12923,0.8581109828603348,12923,0.9034989103133311,4,2,32039,0.9096288760242448,32039,0.8997548114869467,32039,0.9154789879146371,4,3,33202,0.9052924373177145,33202,0.9079119507423454,33202,0.9133780220923301,4,4,33408,0.908875618925133,33408,0.90199206135697,33408,0.9189844377394569,5,1,11306,0.9019511175600581,11306,0.8746323716913452,11306,0.8999990999918999,5,2,24283,0.9127728738966269,24283,0.8931109499637417,24283,0.9101147758245605,5,3,24849,0.9119889119889121,24849,0.9069989069989071,24849,0.9164924164924164,5,4,25005,0.9092677382172132,25005,0.9042408427254098,25005,0.9100441854508197,6,1,10036,0.9046899001536098,10036,0.8608070916538657,10036,0.9011136712749616,6,2,19503,0.9086197103095712,19503,0.9049905796608679,19503,0.9130568700473217,6,3,19954,0.9106077818801477,19954,0.9065416354988779,19954,0.9175180306491033,6,4,19976,0.9216349846390168,19976,0.9051379288274449,19976,0.9240911418330773
datasetthibault/outputlowerTruestripTruelemmatizTruenamesTruenumbersFalseadverbsTrueconjoctionTrue.txt,0,1,26280,0.9101922899880319,26280,0.8692045822976332,26280,0.9136816487945852,0,2,512347,0.9010801097209875,512347,0.8732693594242348,512347,0.9170622535602821,0,3,1251269,0.9009303721488595,1251269,0.8534513805522209,1251269,0.9154261704681873,0,4,2014760,0.8900440103960936,2014760,0.7799205192846737,2014760,0.9010351093159839,1,1,26207,0.909176010297246,26207,0.877160636437009,26207,0.9035598307395194,1,2,512581,0.910481984652109,512581,0.8981620179752959,512581,0.9250328425639629,1,3,1255112,0.8907582110936685,1255112,0.8156975039796052,1255112,0.9077672088534835,1,4,2021348,0.8811832662349028,2021348,0.8309819709434624,2021348,0.9102197994548773,2,1,15460,0.9048422972908099,15460,0.8581455729625066,15460,0.9053963770782993,2,2,99215,0.9062040934038699,99215,0.9022737127127037,99215,0.9128061315941525,2,3,118009,0.9114218111852026,118009,0.914020904752571,118009,0.9194461000596021,2,4,121776,0.9017135709818636,121776,0.8882551594746716,121776,0.9099186991869918,3,1,12185,0.9080591725325529,12185,0.8729088561797056,12185,0.9095426858841729,3,2,51423,0.8937987961410109,51423,0.8949178509746978,51423,0.9013796676037127,3,3,56138,0.8969981238273921,56138,0.8882426516572859,56138,0.9091307066916823,3,4,56172,0.9116708121682724,56172,0.9041754052240322,56172,0.9171549757520661,4,1,10353,0.9000381003429031,10353,0.8568397115574038,10353,0.9110171991547923,4,2,34144,0.9015204015204015,34144,0.9015054015054015,34144,0.907012907012907,4,3,36900,0.9018954918032787,36900,0.9011830814549181,36900,0.9024077868852459,4,4,36972,0.9169306835637481,36972,0.91846678187404,36972,0.920482910906298,5,1,9015,0.9112550188837222,9015,0.8660412487393325,9015,0.9168735646918963,5,2,26093,0.9084220126786212,26093,0.9010371508203903,26093,0.9074499650482873,5,3,27253,0.9006717135195849,27253,0.8996455400962763,27253,0.9071533089092058,5,4,27399,0.9077392413292991,27399,0.9064714560776174,27399,0.9153834612787877,6,1,8117,0.9043788654921272,8117,0.8687440670353733,8117,0.901784615753953,6,2,20880,0.9065548951441067,20880,0.8852472804754963,20880,0.9069514090260977,6,3,21799,0.9126616413801933,21799,0.8994022469752256,21799,0.9124855963126561,6,4,21644,0.9076061236394053,21644,0.8938978719742744,21644,0.9177955138268145
datasetthibault/outputlowerTruestripTruelemmatizFalsenamesTruenumbersFalseadverbsTrueconjoctionTrue.txt,0,1,33243,0.9198354778823379,33243,0.8822458549388643,33243,0.9204396325459318,0,2,573905,0.9021539101630635,573905,0.8944448000512073,573905,0.9135535517114464,0,3,1341479,0.8840210725208564,1341479,0.8518498502826216,1341479,0.9077216537765609,0,4,2099380,0.8965000000000001,2099380,0.7815,2099380,0.9105000000000001,1,1,33428,0.9076083477370206,33428,0.8701627616669867,33428,0.9062439984636066,1,2,578745,0.8957098749688698,578745,0.8928123852931146,578745,0.912608730875518,1,3,1332493,0.8902007556352459,1332493,0.7919281506147541,1332493,0.9070184426229508,1,4,2103361,0.8909702555240884,2103361,0.8214011424182787,2103361,0.9089985439767037,2,1,20155,0.901062438247777,20155,0.8556708041489494,20155,0.9040445456036417,2,2,96945,0.9189260273753415,96945,0.9037157820733215,96945,0.9284579944417277,2,3,112112,0.9106537358262522,112112,0.8970605450283199,112112,0.9197965723867926,2,4,114944,0.9061814800117047,114944,0.9072757955834546,114944,0.9181778643609879,3,1,15747,0.9035,15747,0.8644999999999999,15747,0.9045000000000001,3,2,48904,0.90639400921659,48904,0.9105622759856631,48904,0.9109463005632361,3,3,52313,0.9124964124964124,52313,0.90999790999791,52313,0.9204994204994206,3,4,53143,0.9069456277825111,53143,0.9039696158784635,53143,0.9169576678306712,4,1,13249,0.9213112015930692,13249,0.8655622800253243,13249,0.9104393642525587,4,2,33128,0.9119756479025916,33128,0.9010096040384161,33128,0.922997691990768,4,3,34331,0.9081649194855721,34331,0.8996791831277945,34331,0.9064497600377854,4,4,34635,0.9149716598866395,34635,0.9119936479745918,34635,0.9069756279025116,5,1,11541,0.9175876097123455,11541,0.8758168364405151,11541,0.9103241719520789,5,2,25033,0.915,25033,0.9065000000000001,25033,0.915,5,3,25974,0.9100710502312332,25974,0.90351610631931,25974,0.9174701156966604,5,4,25913,0.9123853096327407,25913,0.9079226980674517,25913,0.9123903097577439,6,1,10294,0.9130884837065285,10294,0.8831173572002212,10294,0.9075383121357685,6,2,20276,0.9126217330728893,20276,0.9058020805516133,20276,0.91097195426027,6,3,20720,0.9114431607148751,20720,0.9075689708795732,20720,0.9180169828321587,6,4,20816,0.9067941081849807,20816,0.900397478028966,20816,0.9059332064530548
datasetthibault/outputlowerTruestripTruelemmatizFalsenamesTruenumbersTrueadverbsFalseconjoctionFalse.txt,0,1,32653,0.9123455604634787,32653,0.859099929581973,32653,0.9136458933486973,0,2,566103,0.899105471187851,566103,0.8895040885887567,566103,0.9145776991886831,0,3,1299588,0.8835048061730222,1299588,0.8328099811593218,1299588,0.9089727230180286,0,4,2058566,0.8777907260793477,2058566,0.8993806840707858,2058566,0.8962200303550905,1,1,32783,0.9157429280089167,32783,0.8760604359706285,32783,0.9180716599080914,1,2,568795,0.8930513356390167,568795,0.8853679472647438,568795,0.9119546720103566,1,3,1315297,0.8940000000000001,1315297,0.841,1315297,0.915,1,4,2054749,0.8872285056550895,2054749,0.884731258132319,2054749,0.9013311980782704,2,1,19832,0.9140095950919261,19832,0.8750725839069965,19832,0.9163863426120595,2,2,95138,0.9016915223701332,95138,0.9102842558302472,95138,0.9202882594334901,2,3,108492,0.9145065284178187,108492,0.9124743983614951,108492,0.9214909754224271,2,4,110240,0.914387304977944,110240,0.9009951487622894,110240,0.9204156003644179,3,1,15534,0.9143496663519547,15534,0.8903202061096799,15534,0.9104211006384919,3,2,48179,0.9139189010804388,48179,0.9175360312971266,48179,0.9244522802820901,3,3,50936,0.9141920551480563,50936,0.9107823419704058,50936,0.918361595777802,3,4,50874,0.9084576118506656,50874,0.9006655990391351,50874,0.9161645480932838,4,1,12975,0.9223421033945107,12975,0.8858106830926542,12975,0.9143741392708518,4,2,32352,0.9083320330784834,32352,0.8980640205480274,32352,0.9127138919228168,4,3,33300,0.9057484350598614,33300,0.9047059753351229,33300,0.9213918337987052,4,4,33468,0.9101325041319999,33468,0.9035523193225521,33468,0.9164925824098864,5,1,11336,0.9203861339008204,11336,0.8707143457164458,11336,0.9129728670232129,5,2,24220,0.9145858343337335,24220,0.9193177270908364,24220,0.9178071228491397,5,3,24887,0.9145753643841096,24887,0.9110227755693893,24887,0.9175754393859846,5,4,24991,0.9147941171465779,24991,0.9144643001924849,24991,0.9128232231174159,6,1,10049,0.9062591602896878,10049,0.8663125438318298,10049,0.9073646478096841,6,2,19569,0.9168558854035265,19569,0.9085132413069508,19569,0.9204860819106887,6,3,20080,0.9094854094854096,20080,0.9114924114924114,20080,0.9144914144914145,6,4,20078,0.9045310194793829,20078,0.8990072766372433,20078,0.9065464729564152
datasetthibault/outputlowerFalsestripFalselemmatizFalsenamesFalsenumbersTrueadverbsTrueconjoctionTrue.txt,0,1,55048,0.9167266820305998,55048,0.8654975673772485,55048,0.9217439664554126,0,2,723103,0.9155206620826484,723103,0.8096792387169548,723103,0.9335127340509363,0,3,1631928,0.9045795723705269,1631928,0.7853490493566353,1631928,0.920711702195762,0,4,2538922,0.8906132642049689,2538922,0.706649004529548,2538922,0.9189571938204523,1,1,54859,0.9061346208463504,54859,0.855652803500926,54859,0.9106077818801477,1,2,720083,0.9098132276333863,720083,0.8109341219477789,720083,0.930843501984375,1,3,1625934,0.896358085268782,1625934,0.723539697830917,1625934,0.9211960517746907,1,4,2560291,0.9029744475911614,2560291,0.6822529160466567,2560291,0.9189987039792636,2,1,29939,0.9204605115127878,29939,0.8633715842896071,29939,0.9215055376384409,2,2,114740,0.9121313469139557,114740,0.892396505096734,114740,0.9276995887407786,2,3,132053,0.9119606860736176,132053,0.901687682696452,132053,0.9249263213897482,2,4,135775,0.9098529223481211,135775,0.8913041738685102,135775,0.9211718199859165,3,1,22359,0.9187517700403594,22359,0.8601665614232775,22359,0.9188868685271563,3,2,59158,0.9136618974457461,59158,0.9055598233147685,59158,0.922584181550477,3,3,63365,0.9080625290004639,63365,0.8974523592377478,63365,0.9210347365557849,3,4,63689,0.9152065269147203,63689,0.9087364306035156,63689,0.9295941885170795,4,1,18222,0.9039185410674785,18222,0.8573068630470698,18222,0.9044455600401614,4,2,40111,0.9202081474397705,40111,0.8929883282183427,40111,0.9241554263581401,4,3,41848,0.9155899612386045,41848,0.9018944682008553,41848,0.9255483197395106,4,4,42357,0.9121745445524349,42357,0.9007468419768004,42357,0.9237953096803366,5,1,15643,0.9045052295255742,15643,0.8633061371978471,15643,0.9020493694440358,5,2,30566,0.9156079618866279,30566,0.8938521786784324,30566,0.9230392294122589,5,3,31569,0.907025907025907,31569,0.8884893884893883,31569,0.9135154135154134,5,4,31558,0.915434425147329,31558,0.8977809650691535,31558,0.9230829242531536,6,1,13677,0.9263213395283317,13677,0.8719060025052124,13677,0.9221873386719172,6,2,24637,0.9039305414994939,24637,0.8921821185562681,24637,0.9084577044773612,6,3,25401,0.9076607031412524,25401,0.9009977436750893,25401,0.9166619993279033,6,4,25276,0.904298218943528,25276,0.8868997135587523,25276,0.9131074874781968
datasetthibault/outputlowerTruestripTruelemmatizTruenamesFalsenumbersFalseadverbsFalseconjoctionTrue.txt,0,1,38252,0.9141796418684291,38252,0.8429453841353155,38252,0.9195544158358804,0,2,623221,0.8978903726481148,623221,0.8082096895116206,623221,0.9210055863685,0,3,1489269,0.8935626730249155,1489269,0.7710490310604727,1489269,0.9140356211294426,0,4,2355863,0.8915230948314139,2355863,0.6575186706721442,2355863,0.9069546503674133,1,1,38068,0.909247075584583,38068,0.8364338339756442,38068,0.9118693447628653,1,2,619189,0.8984813984813985,619189,0.7771837771837772,619189,0.9144904144904145,1,3,1490516,0.9021466596595673,1490516,0.6751968740848314,1490516,0.9235199842741434,1,4,2349863,0.888231904241653,2349863,0.7079846645776555,2349863,0.9074171899199213,2,1,21294,0.913081846130436,21294,0.8427712779216567,21294,0.9171077303183166,2,2,112229,0.9014824014824014,112229,0.891039891039891,112229,0.915993915993916,2,3,132384,0.9104552613815345,132384,0.8911722793069826,132384,0.9209730243256081,2,4,135913,0.9105852646316157,135913,0.9059126478161954,135913,0.9205805145128627,3,1,16312,0.9013427437423981,16312,0.8574635106587287,16312,0.9110892388451443,3,2,57550,0.9007526693506038,57550,0.8796179140306569,57550,0.9133530044259959,3,3,62928,0.9161616161616163,62928,0.8963046304630463,62928,0.9255575557555756,3,4,63428,0.9135224135224136,63428,0.8944813944813945,63428,0.9220109220109219,4,1,13532,0.9127253632067214,13532,0.85440474106674,13532,0.9168462904153435,4,2,39155,0.9116684721884624,39155,0.8993959254224471,39155,0.9258425685022972,4,3,41145,0.9047140365326324,41145,0.8935173741657667,41145,0.9089606323009474,4,4,41515,0.9141539182063724,41515,0.895193095766814,41515,0.9163174954541861,5,1,11735,0.9026264894128995,11735,0.8611400430827909,11735,0.9003667940340441,5,2,29587,0.8956243855948941,29587,0.8737768150639382,29587,0.9085760202249911,5,3,30587,0.9122191650388917,30587,0.8808368614295816,30587,0.9205450721171878,5,4,30998,0.8999778999779,30998,0.8825103825103825,30998,0.9039829039829039,6,1,10360,0.8998495203962897,10360,0.8553309700831739,10360,0.902017167081386,6,2,23562,0.9039361354252188,23562,0.8865424788823099,23562,0.9114677032093289,6,3,24483,0.9187683496173654,24483,0.8999434470809067,24483,0.9218286246009209,6,4,24587,0.9170802537222836,24587,0.9030021270191432,24587,0.9160442443981995
datasetthibault/outputlowerTruestripTruelemmatizTruenamesTruenumbersTrueadverbsFalseconjoctionTrue.txt,0,1,25667,0.907467166979362,25667,0.8833020637898688,25667,0.9102689180737962,0,2,501183,0.8993662647540549,501183,0.859737301032246,501183,0.918934116147442,0,3,1232690,0.892852570770191,1232690,0.8420552559568578,1232690,0.9043842313293116,0,4,1969047,0.8800963261648745,1969047,0.8031314004096263,1969047,0.898145481310804,1,1,25599,0.908213141025641,25599,0.8732371794871795,25599,0.9041666666666667,1,2,502032,0.904251700680272,502032,0.8558223289315726,502032,0.9102140856342537,1,3,1232821,0.8908423763915093,1232821,0.7892957430529686,1232821,0.9082344906044328,1,4,1990385,0.9030202319222778,1990385,0.6780885370448367,1990385,0.9219445775587033,2,1,15119,0.9117276387187117,15119,0.8698332124728063,15119,0.9126078367632717,2,2,97370,0.9110877771944299,97370,0.9054301357533938,97370,0.9195554888872223,2,3,116345,0.9007931863402688,116345,0.9001539555779635,116345,0.9078527348372762,2,4,119213,0.9031282532844109,119213,0.9075899719086236,119213,0.9115971682612448,3,1,11903,0.9094290620240392,11903,0.8708051694533032,11903,0.9053728632703002,3,2,50208,0.9044924044924044,50208,0.9005064005064005,50208,0.9074944074944075,3,3,54944,0.8990889358342232,54944,0.8942744260565952,54944,0.8992510540183793,3,4,54720,0.9129606869147036,54720,0.9085843302591656,54720,0.9192046830722445,4,1,10087,0.910424274457044,10087,0.8779590300467679,10087,0.9070648343904157,4,2,33781,0.9066286992250481,33781,0.9028269540830003,33781,0.9145322483206708,4,3,35722,0.9051494092842197,35722,0.897049821765066,35722,0.9200683333933452,4,4,35776,0.9099294058324229,35776,0.9053281788385579,35776,0.90977533126033,5,1,8830,0.9086230984709761,8830,0.8616467933902646,8830,0.9085510926385036,5,2,25436,0.9143963418540586,25436,0.9053831123070024,25436,0.918560606060606,5,3,26374,0.907090053763441,26374,0.9020657322068613,26374,0.9085701484895033,5,4,26641,0.910220403199027,26641,0.903093006229221,26641,0.9109825525803058,6,1,7919,0.9047676205108508,7919,0.8665898470008322,7919,0.9017508482171437,6,2,20348,0.9100982462877624,20348,0.9029297875064003,20348,0.9049539170506912,6,3,20987,0.9068820404505888,20987,0.8989695340501791,20987,0.913906490015361,6,4,20985,0.9133966868473422,20985,0.9133966868473422,20985,0.9205384648479046
datasetthibault/outputlowerTruestripTruelemmatizFalsenamesTruenumbersTrueadverbsFalseconjoctionTrue.txt,0,1,32949,0.907781660402432,32949,0.8513815339169278,32949,0.9101922899880319,0,2,568505,0.9099236396945587,568505,0.887626550506202,568505,0.9229456917827672,0,3,1311722,0.8967347196105961,1311722,0.8894614173732651,1311722,0.9195623609611407,0,4,2051686,0.8900196923827782,2051686,0.8086123420933933,2051686,0.9080878786333145,1,1,32793,0.9118921930817026,32793,0.8871527621471351,32793,0.9209334569779691,1,2,571451,0.9033416063198814,571451,0.8517359766875843,571451,0.9173276552835573,1,3,1316004,0.8914170506912443,1316004,0.8291810675883257,1316004,0.9134024577572966,1,4,2052475,0.8939593959395941,2052475,0.8898639863986398,2052475,0.9056155615561556,2,1,19974,0.911303579593605,19974,0.881811478272006,19974,0.9092795088601869,2,2,95355,0.9093159315931593,95355,0.9105460546054605,95355,0.9213471347134712,2,3,108312,0.910904634327082,108312,0.911478162429959,108312,0.9174854567873826,2,4,110056,0.9125296643575491,110056,0.9035523193225521,110056,0.927806058132136,3,1,15595,0.9025266101064404,15595,0.8684104736418946,15595,0.9020096080384322,3,2,48027,0.9063005072730473,48027,0.9045162503400489,48027,0.9139276055752028,3,3,50971,0.9183391263034183,50971,0.9124127928783977,50971,0.9183991398064565,3,4,51152,0.9082085648937566,51152,0.9146055830522273,51152,0.9186059070784734,4,1,12978,0.9058526106939849,12978,0.8646601277645996,12978,0.9078946842086315,4,2,32080,0.9114887033983307,32080,0.8915665240987168,32080,0.9110081990737917,4,3,33522,0.9189120266893078,33522,0.910513115142642,33522,0.9184645047607332,4,4,33251,0.9065656565656566,33251,0.9040404040404041,33251,0.9115461546154616,5,1,11236,0.9111082411267426,11236,0.8866779997677315,11236,0.9106246821325452,5,2,24197,0.9148214821482148,24197,0.9104260426042604,24197,0.9249124912491249,5,3,24986,0.9080292014612734,24986,0.9067897998951661,24986,0.9096287197051843,5,4,25066,0.9096559655965596,25066,0.8939593959395941,25066,0.9195769576957696,6,1,10024,0.9167562701607862,10024,0.8784976619739441,10024,0.9097396914305719,6,2,19598,0.9167930409452663,19598,0.90818625234576,19598,0.9219026964736574,6,3,20137,0.9072345671106558,20137,0.9008228739754098,20137,0.9121173796106558,6,4,19960,0.9165066564260113,19960,0.9040498591909883,19960,0.9215069764464925
datasetthibault/outputlowerFalsestripFalselemmatizFalsenamesTruenumbersFalseadverbsFalseconjoctionFalse.txt,0,1,37054,0.9091990197962714,37054,0.8686935421871997,37054,0.9076174002178231,0,2,608718,0.9014634146341464,608718,0.8956472795497186,608718,0.9182238899312071,0,3,1418022,0.8929423235580889,1418022,0.8650191254781369,1418022,0.906977674441861,0,4,2232435,0.8975682030244451,2232435,0.8160135971013652,2232435,0.9146415859684633,1,1,37091,0.9166962715819832,37091,0.8746641301508801,37091,0.9174533234728116,1,2,606023,0.9094430033145987,606023,0.8705024739395686,606023,0.9212842868809148,1,3,1418601,0.8958833382085999,1418601,0.9089654149920459,1418601,0.9090746076078202,1,4,2249749,0.9029781268031414,2249749,0.7836070524634722,2249749,0.9194767752909777,2,1,21582,0.8984128318105964,21582,0.8594529752400162,21582,0.8996604356508549,2,2,104839,0.9070986555516,104839,0.9059186130700705,104839,0.922063194274994,2,3,119747,0.9050195353156875,119747,0.8955721285487822,119747,0.9056180045155401,2,4,126121,0.9055055505550554,126121,0.906980698069807,126121,0.919031903190319,3,1,16638,0.9095526382105529,16638,0.8649154596618387,16638,0.9065266261065044,3,2,53249,0.9047672861501782,53249,0.8910991790335018,53249,0.9184078910391741,3,3,58003,0.9072558895434771,58003,0.911557025071277,58003,0.9219155764552359,3,4,58309,0.912385845890452,58309,0.9174640287050333,58309,0.9194461000596021,4,1,13919,0.8955407495156802,13919,0.8749392407828894,13919,0.8986887033456905,4,2,35922,0.909176730362293,35922,0.8984993459764551,35922,0.9200931233524406,4,3,38066,0.9077242379535395,38066,0.9040084018904254,38066,0.9118001550348829,4,4,38146,0.9030256121024485,38146,0.8970055880223521,38146,0.9165286661146643,5,1,12075,0.9064100102406555,12075,0.8757520481310803,12075,0.9053859447004609,5,2,27453,0.9123623911930364,27453,0.9060019841269842,27453,0.9228990655401946,5,3,28746,0.9050411453703083,28746,0.9024946224516021,28746,0.9135337218034962,5,4,28535,0.9059447447699832,28535,0.9096016792883436,28535,0.9147654109023674,6,1,10675,0.9049212033165545,10675,0.8763135698784656,10675,0.9042943717226412,6,2,22041,0.906187514776065,22041,0.8975082044726899,22041,0.9093190387844158,6,3,22738,0.9043423149608978,22738,0.9023204233066784,22738,0.9014880562327987,6,4,22808,0.9194188428059396,22808,0.9139864951356887,22808,0.9154825908858167
datasetthibault/outputlowerTruestripTruelemmatizTruenamesFalsenumbersTrueadverbsTrueconjoctionFalse.txt,0,1,37328,0.9158651248243812,37328,0.8510573147447674,37328,0.9168397836937769,0,2,612596,0.9057642084317871,612596,0.8735683252363893,612596,0.9218521207842065,0,3,1437257,0.895929648442347,1437257,0.7249120405394046,1437257,0.9107056370106192,0,4,2326902,0.8989423619250293,2326902,0.6735892492129716,2326902,0.9229972279002043,1,1,37560,0.9032046415844278,37560,0.8365168713512583,37560,0.9060231179069261,1,2,611283,0.8900195600782403,611283,0.820693282773131,611283,0.9100176400705602,1,3,1448949,0.9034672876256321,1448949,0.7499039754177069,1448949,0.9219000064016387,1,4,2314249,0.8802670338114754,2314249,0.6390641009221312,2314249,0.9035764600409836,2,1,20902,0.9047469743839004,20902,0.8463764115457971,20902,0.9110662390149208,2,2,110059,0.9096732347766772,110059,0.8838758750228789,110059,0.9191163306598815,2,3,129584,0.9085634253701481,129584,0.8881052420968387,129584,0.9131352541016406,2,4,132387,0.9178417562675613,132387,0.8970707534477466,132387,0.9247587552802761,3,1,16138,0.909153146881823,16138,0.8469491344037142,16138,0.9082569954322279,3,2,56714,0.9069541625874633,56714,0.8925995333958006,56714,0.9189632706694361,3,3,60635,0.9086017096615477,60635,0.899427379385658,60635,0.9200451216243786,3,4,61988,0.9077193920086792,61988,0.8901761381321691,61988,0.9218762979665899,4,1,13376,0.9177911066970318,13376,0.8563662258921758,13376,0.9134528735356277,4,2,38251,0.9234102427687397,38251,0.8941701901268445,38251,0.9274523882859783,4,3,40053,0.9112656080591796,40053,0.9019947909790318,40053,0.9188440934423147,4,4,40252,0.9141529174768407,40252,0.8931115783406103,40252,0.9243498510414092,5,1,11450,0.91569878390268,11450,0.858541808116154,11450,0.9129508137446718,5,2,28462,0.9184040625462517,28462,0.9016374589485221,28462,0.9224642087115136,5,3,29832,0.9071914723250927,29832,0.9022420178160345,29832,0.91377239515564,5,4,29965,0.91002491002491,29965,0.8834843834843834,29965,0.9150199150199151,6,1,10082,0.9102189065377831,10082,0.8575396749966736,10082,0.9018937351371955,6,2,23097,0.90128181662701,23097,0.8739662002878487,23097,0.9107899234970709,6,3,23770,0.9162385827622214,23770,0.893682161703694,23770,0.9193511928337954,6,4,23842,0.9078028673404396,23842,0.8930735982759104,23842,0.9103004738842889
datasetthibault/outputlowerFalsestripFalselemmatizFalsenamesFalsenumbersFalseadverbsTrueconjoctionFalse.txt,0,1,55604,0.9070236280945124,55604,0.87187548750195,55604,0.9135066540266161,0,2,732752,0.8960024000600015,732752,0.8418485462136553,732752,0.9255156378909474,0,3,1669350,0.8994915954243589,1669350,0.814494330448974,1669350,0.9240203161828456,0,4,2601784,0.8904088281513357,2601784,0.7011196235712122,2601784,0.911093305965424,1,1,55592,0.9132959078741513,55592,0.8655474373697079,55592,0.9171531576230698,1,2,734576,0.9189842708584377,734576,0.8309289783608054,734576,0.9304888743998696,1,3,1659489,0.9000899756695381,1659489,0.7300885044322275,1659489,0.9233049995045832,1,4,2612484,0.8944633287031064,2612484,0.6717579161378908,2612484,0.9145413125243137,2,1,30214,0.903989903989904,30214,0.854063854063854,30214,0.9174974174974175,2,2,117649,0.915440209395388,117649,0.899996599425303,117649,0.9303387272449044,2,3,135307,0.9059916239664959,135307,0.8840715362861451,135307,0.9165086660346641,2,4,140079,0.9185721605738898,140079,0.9003038382091559,140079,0.9342664649084882,3,1,22600,0.9138465754356278,22600,0.8557635473892341,22600,0.9138575767667889,3,2,60839,0.9011275890671144,60839,0.8870026727146687,60839,0.9135024182658209,3,3,65257,0.9015346061384247,65257,0.9044666178664714,65257,0.9205266821067284,3,4,66448,0.917569758127823,66448,0.9054856493708443,66448,0.9315398838589547,4,1,18521,0.9035964195929609,18521,0.8712470576932315,18521,0.9137543834366142,4,2,41387,0.906,41387,0.889,41387,0.9145000000000001,4,3,43419,0.9131287433084221,43419,0.9034497690386829,43419,0.919087035264728,4,4,43552,0.9121167741554702,43552,0.9022497121460847,43552,0.9122308153243321,5,1,15844,0.9132379946469507,15844,0.8578541394113247,15844,0.9123638233093686,5,2,31174,0.9162775904077199,31174,0.8992772583426352,31174,0.921208556877148,5,3,32636,0.9187243941427712,32636,0.9063129667610574,32636,0.9255254299381706,5,4,32966,0.9117436394538428,32966,0.902603839986235,32966,0.9200851507394169,6,1,13765,0.9014071241924365,13765,0.8680264993026501,13765,0.9068576764616297,6,2,25448,0.9006629143214508,25448,0.890744215134459,25448,0.9108192620387742,6,3,26293,0.9230567675981755,26293,0.9063259123989044,26293,0.9285257105825572,6,4,26272,0.9159716638866556,26272,0.8930295721182886,26272,0.9239876959507839
datasetthibault/outputlowerTruestripTruelemmatizTruenamesTruenumbersFalseadverbsTrueconjoctionFalse.txt,0,1,26244,0.900542712602459,26244,0.8774013831967213,26244,0.9040567366803278,0,2,512426,0.8956173195084485,512426,0.8754640296979007,512426,0.9055859575012802,0,3,1264616,0.8917691376996169,1264616,0.8863897217218543,1264616,0.9106183947658327,0,4,2029946,0.8892557848655409,2029946,0.7333083176985615,2029946,0.9070669168230143,1,1,26192,0.903310556750901,26192,0.8786109185554626,26192,0.8970722538813716,1,2,510681,0.8981222877155303,510681,0.8794182938703875,510681,0.9189069518630866,1,3,1251855,0.9050726268156705,1251855,0.8458936473411836,1251855,0.9190629765744143,1,4,2023219,0.9019811970786569,2023219,0.8144234067469307,2023219,0.9135132621498454,2,1,15475,0.9038825397714317,15475,0.8806787044333596,15475,0.9048825757727279,2,2,99239,0.9020975524388111,99239,0.8869721743043576,99239,0.908555213880347,2,3,117626,0.8979303254917177,117626,0.9055175986335509,117626,0.9119308295098623,2,4,121143,0.8995683930942895,121143,0.9005084081345301,121143,0.9110305764892237,3,1,12216,0.9029125728143202,12216,0.8726943173579339,12216,0.8999624990624766,3,2,51322,0.9049367404619415,51322,0.8898154098811009,51322,0.908149095798171,3,3,55981,0.9130748706953449,55981,0.907511670420135,55981,0.9205061382209759,3,4,56469,0.9076820916538657,56469,0.9039778545826933,56469,0.9116823476702508,4,1,10332,0.9127694451028574,10332,0.8669293984572134,10332,0.9083954158453174,4,2,34555,0.9094680617765721,34555,0.9003075209962439,34555,0.9129543344839085,4,3,36698,0.9011089898281762,36698,0.8955230373660266,36698,0.9076050160062965,4,4,36886,0.9065933515368623,36886,0.9131115508905534,36886,0.9111525839825646,5,1,9039,0.9068500384024578,9039,0.871727790578597,9039,0.905377944188428,5,2,25946,0.9149567097618811,25946,0.9100001100133116,25946,0.9194627549933542,5,3,27006,0.9103234048949123,27006,0.8984969563365816,27006,0.9155139156792506,5,4,27347,0.907939171452543,27347,0.8939720457484117,27347,0.9184557661018948,6,1,8171,0.9094686378745515,8171,0.868067472269889,8171,0.9074926299705199,6,2,20923,0.9069769069769069,20923,0.8934923934923935,20923,0.9134814134814135,6,3,21696,0.9075479698505227,21696,0.8995125761162296,21696,0.9145203114952631,6,4,21709,0.9121146936199874,21709,0.906030395489379,21709,0.9085550191959405
datasetthibault/outputlowerTruestripTruelemmatizTruenamesFalsenumbersFalseadverbsTrueconjoctionTrue.txt,0,1,38215,0.9068394539957736,38215,0.858123007963645,38215,0.9158491837838866,0,2,622009,0.894137905854792,622009,0.7943560689039132,622009,0.9172635891772721,0,3,1478553,0.9029138844854364,1478553,0.788766392851996,1478553,0.9278494339562217,0,4,2355405,0.8979431702061433,2355405,0.6180467773397427,2355405,0.9112078257814823,1,1,38169,0.8996583723281585,38169,0.8428797732616342,38169,0.9075420109028831,1,2,616195,0.917050981615893,616195,0.845387870550123,616195,0.9310403458184433,1,3,1480750,0.8980195920783683,1480750,0.7385089540358162,1480750,0.9135226540906164,1,4,2368634,0.9052219300246966,2368634,0.7235661307043562,2368634,0.9199008529766122,2,1,21280,0.90986892644517,21280,0.851461974265412,21280,0.912693649574291,2,2,112489,0.9073088351931476,112489,0.8885271610902243,112489,0.9138684437669965,2,3,130731,0.9107275025905077,130731,0.8991512336417938,130731,0.9227158523070521,2,4,137002,0.9007845537725395,137002,0.8865097559121589,137002,0.9144622345979813,3,1,16393,0.9235855896397409,16393,0.8521638040951024,16393,0.9235305882647066,3,2,57630,0.9125457129114161,57630,0.891963027667249,57630,0.9220412983716852,3,3,62884,0.9066499386450304,62884,0.8882974520936195,62884,0.9225882296466014,3,4,63116,0.9079338599970597,63116,0.8877559184661344,63116,0.9219245528708974,4,1,13469,0.9106842737094838,13469,0.8659463785514205,13469,0.9047619047619047,4,2,38940,0.9189542705884353,38940,0.9045696411267701,38940,0.9189932709394384,4,3,41135,0.9035172016144533,41135,0.8838410532385162,41135,0.9104603113588315,4,4,41294,0.9112575025179255,41294,0.9021264593716338,41294,0.9154012028032738,5,1,11623,0.9132763276327632,11623,0.8644964496449645,11623,0.9038503850385038,5,2,29402,0.9173341178636757,29402,0.8955133670361164,29402,0.9247221121478121,5,3,30978,0.9186921200729814,30978,0.899038591455414,30978,0.9230437798188277,5,4,31015,0.9195207123313973,31015,0.8939103025648409,31015,0.9155126482023711,6,1,10330,0.9060817185499483,10330,0.8519118226507145,10330,0.9163434092073484,6,2,23547,0.9108064981717878,23547,0.894801622939252,23547,0.9160064789274489,6,3,24384,0.9110074781865373,24384,0.8904216952491344,24384,0.916105377267554,6,4,24455,0.9127056526470777,24455,0.8962134306382433,24455,0.9163265796043788
datasetthibault/outputlowerTruestripTruelemmatizFalsenamesTruenumbersFalseadverbsTrueconjoctionFalse.txt,0,1,33406,0.921220686295984,33406,0.8926958656012867,33406,0.9216752631194671,0,2,577600,0.8892489248924892,577600,0.8734373437343734,577600,0.9032203220322033,0,3,1333664,0.891575187184172,1333664,0.8406416914428807,1333664,0.9165344101860992,0,4,2095844,0.9015391792912608,2095844,0.7477934492273066,2095844,0.9156645081714462,1,1,33377,0.9143322436469415,33377,0.8747664243214801,33377,0.917279198460301,1,2,580002,0.9017406962785113,580002,0.8497899159663865,580002,0.9237094837935175,1,3,1343444,0.8994791494378002,1343444,0.7290549609612679,1343444,0.9153211861679893,1,4,2115696,0.897053543478761,2115696,0.8192621307178167,2115696,0.9110992430084041,2,1,20137,0.9106582821300563,20137,0.8742079493087557,20137,0.9110743087557605,2,2,96914,0.9211431360136647,96914,0.9089325376943469,96914,0.9315701469372,2,3,110481,0.9163866487455197,110481,0.9079941116231438,110481,0.9244031618023554,2,4,114174,0.9177505401437648,114174,0.9108535122104013,114174,0.9241607131598936,3,1,15830,0.9015595887102338,15830,0.8750503810961127,15830,0.8984382110235338,3,2,49847,0.9084586761280852,49847,0.9060201541813876,49847,0.9184947664528981,3,3,52831,0.9171989810767103,52831,0.9155502815840717,52831,0.9190122004762576,3,4,52923,0.9073860727086533,52923,0.8990255376344087,52923,0.9219230030721967,4,1,13272,0.9055401385034625,13272,0.8718017950448762,13272,0.8994949873746844,4,2,33012,0.9079841718575467,33012,0.9035276317486857,33012,0.9109961989657906,4,3,34484,0.9160858585100282,34484,0.8987592075985021,34484,0.9204195231617585,4,4,34543,0.9170579264481612,34543,0.9045651141278532,34543,0.9220380509512738,5,1,11441,0.9014866059464239,11441,0.865071460285841,11441,0.9114886459545839,5,2,24940,0.9165366037161986,24940,0.910330600010405,24940,0.9136231936257149,5,3,25897,0.9120807276008719,25897,0.9013554977745186,25897,0.9273879780983414,5,4,26140,0.9084010116495709,26140,0.9050023451149106,26140,0.9164994084710151,6,1,10295,0.9110276441105765,10295,0.8654164616658467,10295,0.912001648006592,6,2,20242,0.9200811229204251,20242,0.9135418875079503,20242,0.915553959942558,6,3,20807,0.9086864101455541,20807,0.9081059550687739,20807,0.9169448847896751,6,4,20714,0.917951261561354,20714,0.9154947394526551,20714,0.9134977214794934
datasetthibault/outputlowerTruestripTruelemmatizTruenamesTruenumbersFalseadverbsFalseconjoctionTrue.txt,0,1,26187,0.888379030572498,26187,0.8483355684428536,26187,0.8954073749613731,0,2,512935,0.9025306101224405,512935,0.8488013952055808,512935,0.9135226540906164,0,3,1255909,0.8840446141591716,1255909,0.8052623573535711,1255909,0.9080348315461252,0,4,2021991,0.8938349478110685,2021991,0.6684238191784937,2021991,0.9100222772896799,1,1,26160,0.9059526488162205,26160,0.8662466561664042,26160,0.9079976999424986,1,2,511536,0.9018817204301075,511536,0.8488063236047106,511536,0.912410394265233,1,3,1262955,0.8959053379416283,1262955,0.8013872887864824,1262955,0.9169146825396826,1,4,2024783,0.8890320051521855,2024783,0.7553771935789688,2024783,0.9095117424227273,2,1,15569,0.9074343972217297,15569,0.8624622991248289,15569,0.9079147046184637,2,2,99608,0.9088349690312528,99608,0.8977571286125622,99608,0.9199353121727729,2,3,117150,0.9034436309926789,117150,0.9000051000459005,117150,0.9174527570748136,2,4,120675,0.9054243574918274,120675,0.8940736798722786,120675,0.9114082962879972,3,1,12167,0.9158663465386155,12167,0.8743197278911565,12167,0.9114745898359343,3,2,51272,0.9082390334137355,51272,0.9012294421840031,51272,0.9188592169146594,3,3,56263,0.9112903145154757,56263,0.9115423349291293,56263,0.9113893225351253,3,4,56456,0.8996095750128008,56456,0.9000416026625705,56456,0.9020737327188939,4,1,10364,0.9214008755472171,10364,0.8979737335834898,10364,0.9168605378361477,4,2,34346,0.9105246947222525,34346,0.9064856583709254,34346,0.9115127036143326,4,3,36923,0.9134038825397716,36923,0.9190150845430436,36923,0.9154159549743791,4,4,36957,0.9054579493087557,36957,0.8980734767025089,36957,0.9110583077316949,5,1,8988,0.9070427697595328,8988,0.878826024779782,8988,0.9056737929570299,5,2,25978,0.9087094596284163,25978,0.9004701057737992,25978,0.919294341226776,5,3,27363,0.9120998252617066,27363,0.8954956796357749,27363,0.9200211609676333,5,4,27423,0.903153801843318,27423,0.9051059267793139,27423,0.9101222478238606,6,1,8158,0.8994534229090225,8158,0.8651052941152932,8158,0.902292342719041,6,2,20809,0.9143869786303038,20809,0.9081740189694621,20809,0.9140754290568563,6,3,21667,0.917005668022672,21667,0.9119856479425917,21667,0.9099816399265597,6,4,21684,0.9058016019938413,21684,0.8909428040792936,21684,0.9109342230409879
datasetthibault/outputlowerTruestripTruelemmatizFalsenamesTruenumbersTrueadverbsTrueconjoctionTrue.txt,0,1,32931,0.9109383000512032,32931,0.866927483358935,32931,0.9160026241679469,0,2,572511,0.9040983959059046,572511,0.8897881643678885,572511,0.9150667230734919,0,3,1314716,0.9041282515764081,1314716,0.7491290576799639,1314716,0.9202242870489701,0,4,2063753,0.8880526472150452,2063753,0.8173122032267325,2063753,0.9025993512125005,1,1,32651,0.9125964203100452,32651,0.8786661719599287,32651,0.9115783378453655,1,2,567801,0.9077579205524283,567801,0.8663037955439264,567801,0.9228868858296225,1,3,1309710,0.9090101659925346,1309710,0.8039605762729495,1309710,0.9284929846249865,1,4,2059103,0.9009519276534982,2059103,0.8901400335679751,2059103,0.9157744432475763,2,1,19957,0.9071419637273295,19957,0.8671544715447155,19957,0.9149968730456536,2,2,94576,0.908615565773242,94576,0.9027439561671926,94576,0.9225255931687467,2,3,107158,0.9177869534600859,107158,0.9063880353370464,107158,0.9197874655911914,2,4,109861,0.9055139229155658,109861,0.9099193767914046,109861,0.9174112504203297,3,1,15639,0.9171800739306462,15639,0.8789965755068729,15639,0.9176261381638955,3,2,47797,0.9139184170081966,47797,0.9130699282786885,47797,0.915679431352459,3,3,50623,0.9006036295778493,50623,0.8965054287660096,50623,0.9140307875085878,3,4,50907,0.9109571986147874,50907,0.8985125866132795,50907,0.9170082530742778,4,1,12989,0.917007015183548,12989,0.8849862258953167,12989,0.9137797104234736,4,2,32000,0.9145864586458645,32000,0.9079107910791079,32000,0.9185568556855687,4,3,33177,0.9106606065700413,33177,0.907911748341879,33177,0.9170479243968923,4,4,33360,0.9095000000000001,33360,0.907,33360,0.916,5,1,11356,0.9167784355556089,11356,0.8885131587238243,11356,0.9131673252779721,5,2,24207,0.9178130230892143,24207,0.9030176963613751,24207,0.9129999769878265,5,3,25031,0.9153432852549509,25031,0.9043087410722417,25031,0.9169934882529365,5,4,24756,0.9174427163338453,24756,0.9155465949820789,24756,0.9184907834101382,6,1,10054,0.9102695704721085,10054,0.8619231708146743,10054,0.9054432345255103,6,2,19573,0.901125703564728,19573,0.8973983739837398,19573,0.9124327704815509,6,3,20026,0.9031432072216249,20026,0.8999774949363608,20026,0.911145007626716,6,4,19988,0.9112772239202446,19988,0.8965030964458882,19988,0.9124933990494631
datasetthibault/outputlowerFalsestripFalselemmatizFalsenamesFalsenumbersFalseadverbsFalseconjoctionFalse.txt,0,1,55686,0.9177717771777177,55686,0.8537453745374537,55686,0.9253975397539754,0,2,734607,0.9026214493495891,734607,0.8457720301377646,734607,0.9255568804292591,0,3,1651911,0.9029750399193209,1651911,0.7135983816167025,1651911,0.9218301658002473,0,4,2603737,0.8950070247487301,2603737,0.6189083820662769,2603737,0.9183798247615387,1,1,55845,0.9164707341294644,55845,0.8428602716820063,55845,0.9200295223913136,1,2,736370,0.9033246960693944,736370,0.8387248676136629,736370,0.9295132206185402,1,3,1657420,0.8860506637203567,1657420,0.7841928071608141,1657420,0.9101815823605706,1,4,2599737,0.8860188208181294,2599737,0.733455764675757,2599737,0.9091847512963319,2,1,30102,0.907873876165648,30102,0.8532808401578801,30102,0.9163282352458089,2,2,116824,0.9098020860524123,116824,0.8873713719360042,116824,0.925342466438439,2,3,136516,0.9112208632172132,136516,0.8888479764344263,136516,0.9253249871926229,2,4,138600,0.9129776519106076,138600,0.8995385981543925,138600,0.9254827019308077,3,1,22575,0.9055843408175013,22575,0.8576205852168908,22575,0.9095116517734225,3,2,61234,0.9123826785941137,61234,0.8931036069424063,61234,0.9332187002043589,3,3,65633,0.9067489466646799,65633,0.9058843766345073,65633,0.9181463698559584,3,4,65829,0.9152097403785858,65829,0.886700290735179,65829,0.9181440954355476,4,1,18486,0.9089999999999999,18486,0.8570000000000001,18486,0.9185,4,2,41229,0.9085557822699958,41229,0.9002583342598909,41229,0.919643921431927,4,3,43502,0.9155286484583752,43502,0.9024204387270195,43502,0.9255248083969343,4,4,43832,0.9134782778445727,43832,0.9026630000070075,43832,0.9289341092449678,5,1,15818,0.9202491607280758,15818,0.8849347188489071,15818,0.9208663607008671,5,2,31521,0.9150728768219205,31521,0.8899022475561889,31521,0.9190629765744143,5,3,32852,0.9218585448839309,32852,0.9116488095059504,32852,0.9304860888167469,5,4,32774,0.9201945128726754,32774,0.9084130218006844,32774,0.9260525028729855,6,1,13723,0.904985904985905,13723,0.8665463665463665,13723,0.9084884084884085,6,2,25424,0.90957535670377,25424,0.8928473178817553,25424,0.9242766638756592,6,3,26168,0.9024124385990175,26168,0.8755280084481352,26168,0.9134246147938367,6,4,26243,0.9143559168130053,26243,0.9035235268469666,26243,0.9254283154193551
datasetthibault/outputlowerTruestripTruelemmatizTruenamesFalsenumbersFalseadverbsFalseconjoctionFalse.txt,0,1,38216,0.9174410475370338,38216,0.8526105911899111,38216,0.9183371989866288,0,2,621225,0.9116002900072503,621225,0.8268181704542614,621225,0.9240781019525488,0,3,1490252,0.9020725518137954,1490252,0.7568539213480338,1490252,0.9160529013225331,0,4,2358044,0.9105651046667946,2358044,0.7069849881569682,2358044,0.9307302669483388,1,1,38259,0.9163626472094214,38259,0.840685803891449,38259,0.9129224270353302,1,2,623842,0.8946823577421175,623842,0.8204558093386304,623842,0.9156164608263219,1,3,1477652,0.8961739942843482,1477652,0.7682950372657698,1477652,0.9137385704468592,1,4,2371024,0.8926521596023846,2371024,0.6707713101477751,2371024,0.9108281752252743,2,1,21409,0.9250337001348006,21409,0.8818595274381098,21409,0.919500678002712,2,2,111869,0.8986402075725543,111869,0.8788319238900635,111869,0.9141080466397591,2,3,132367,0.9065707514691518,132367,0.9028778562392916,132367,0.9242486109109542,2,4,136172,0.9085145607080447,136172,0.9017180965298971,136172,0.9172295793484316,3,1,16308,0.9048103428271941,16308,0.8626540801997193,16308,0.9077689227088509,3,2,58379,0.912,58379,0.8805,58379,0.9184999999999999,3,3,63037,0.9062424969987996,63037,0.8911664665866346,63037,0.919577831132453,3,4,62789,0.9110583077316949,62789,0.8857366871479774,62789,0.9280433947772659,4,1,13572,0.908202124935996,13572,0.8610311059907833,13572,0.9041538658474141,4,2,38936,0.9121931594369986,38936,0.8817753118444861,38936,0.9212282429424669,4,3,41330,0.9082591572745902,41330,0.9007028048155737,41330,0.9170722336065573,4,4,41276,0.9036433326931694,41276,0.8927325395301197,41276,0.9201235516292171,5,1,11680,0.9149189370817349,11680,0.8723074030665103,11680,0.9170030121084359,5,2,29339,0.9142857142857144,29339,0.9041516606642658,29339,0.9195578231292516,5,3,30839,0.9075896732282361,30839,0.8894030185086663,30839,0.9190570860550981,5,4,30828,0.9149666394662312,30828,0.899050384806157,30828,0.9249907998527975,6,1,10314,0.9139955982392958,10314,0.8665766306522609,10314,0.9093237294917966,6,2,23601,0.9140920414553579,23601,0.889279531642063,23601,0.9195519837106805,6,3,24499,0.9206872980176327,24499,0.9108380147704218,24499,0.9254012624617304,6,4,24506,0.9067415168412893,24506,0.8808231852166738,24506,0.9126078367632717
datasetthibault/outputlowerTruestripTruelemmatizTruenamesFalsenumbersTrueadverbsFalseconjoctionTrue.txt,0,1,37678,0.89996738822715,37678,0.8581472911721132,37678,0.9087425560627386,0,2,614545,0.9003466585853009,614545,0.8017089888191105,614545,0.9168689508526942,0,3,1459681,0.9015686768651664,1459681,0.7458250454272259,1459681,0.9200520825520452,0,4,2321960,0.8854646697388634,2321960,0.6601862519201229,2321960,0.9124183947772657,1,1,37546,0.9150813559457653,37546,0.8680501378270141,37546,0.9164766294193661,1,2,615176,0.920168504264614,615176,0.8413811588868798,615176,0.9271215054967916,1,3,1460931,0.8976031099763071,1460931,0.7676728884194987,1460931,0.9116378081747891,1,4,2311637,0.8831966699265277,2311637,0.5985230321723212,2311637,0.9050201860628402,2,1,21015,0.906673640251049,21015,0.840448256137221,21015,0.9091407290662464,2,2,110046,0.9128554511849707,110046,0.8926205373573795,110046,0.9178921764734121,2,3,129282,0.9060381543433891,129282,0.8878729908569176,129282,0.9160322442901986,2,4,132649,0.9054015112704918,132649,0.8976050204918034,132649,0.9163358094262295,3,1,16130,0.9074256668310015,16130,0.8466921202290821,16130,0.9149602346421118,3,2,56529,0.9063169095285669,56529,0.8942468180940867,56529,0.917897977000873,3,3,61230,0.9189307028912463,61230,0.8971063537016593,61230,0.9304488871821949,3,4,61539,0.9001212660131721,61539,0.8930756205244981,61539,0.9141039082503948,4,1,13362,0.911,13362,0.8435,13362,0.915,4,2,38170,0.9112527615841517,38170,0.8883274876260027,38170,0.9203528626963863,4,3,40028,0.9013261935742168,40028,0.887478730857772,40028,0.9136122510259234,4,4,40220,0.9182902337936664,40220,0.9016718407450672,40220,0.9213866796818742,5,1,11461,0.9169407524217166,11461,0.8745087732472279,11461,0.9127956747015094,5,2,28804,0.9247574757475748,28804,0.8977797779777977,28804,0.9251225122512252,5,3,30036,0.9132804881098247,30036,0.9063814358230602,30036,0.9180115525993349,5,4,30055,0.9149696598786395,30055,0.9020236080944324,30055,0.9179796719186876,6,1,10145,0.9115880832980707,10145,0.8613144345108584,10145,0.9052472942732327,6,2,23129,0.907137678441961,23129,0.8839420985524639,23129,0.9185804645116128,6,3,23813,0.9116646034959486,23813,0.8953832343778615,23813,0.920319913216735,6,4,23795,0.9193118451651623,23795,0.8974394238703708,23795,0.9142206996574229
datasetthibault/outputlowerFalsestripFalselemmatizFalsenamesFalsenumbersFalseadverbsFalseconjoctionTrue.txt,0,1,55531,0.9085606770460934,55531,0.8512571613144518,55531,0.9190262712364411,0,2,738043,0.899009899009899,738043,0.8298518298518298,738043,0.9215124215124215,0,3,1667605,0.9075246677220095,1667605,0.7267220404983645,1667605,0.9305518749668746,0,4,2618745,0.8959781680845337,2618745,0.7207494263317958,2618745,0.9156410022906699,1,1,55335,0.9047412686183872,55335,0.8555469953775039,55335,0.9150455829481252,1,2,731793,0.8981277064403894,731793,0.8698305424144577,731793,0.9160796976295962,1,3,1666048,0.8955565290796996,1666048,0.7674514204784139,1666048,0.9131089693579941,1,4,2609745,0.8930773269331733,2609745,0.6721043026075653,2609745,0.9155003875096878,2,1,30245,0.9159746555944895,30245,0.8637398198371173,30245,0.9179826877230036,2,2,117563,0.9064794064794066,117563,0.896028896028896,117563,0.918987918987919,2,3,136669,0.9111319574734208,136669,0.8876547842401501,136669,0.9273420888055034,2,4,140655,0.9163411064279346,140655,0.9103934835262351,140655,0.9322431192155742,3,1,22693,0.9132775119617224,22693,0.867688947208398,22693,0.9198564593301435,3,2,61342,0.9168399667503908,61342,0.9004642341636732,61342,0.9193491919164638,3,3,65998,0.9103222311344231,65998,0.8987123371896125,65998,0.926492368051863,3,4,65882,0.9124814124814123,65882,0.902015902015902,65882,0.9219919219919219,4,1,18473,0.9103358467581021,18473,0.8689123461865056,18473,0.9216882653168386,4,2,41344,0.9208793649142323,41344,0.893515499021683,41344,0.9257189329342707,4,3,43493,0.909458794144842,43493,0.8960787492344824,43493,0.9252094415825097,4,4,43805,0.9130356521426086,43805,0.887945551782207,43805,0.9235226940907765,5,1,15778,0.9135366541466167,15778,0.8568674274697098,15778,0.9110236440945764,5,2,31302,0.9160786572585162,31302,0.8954003264052225,31302,0.9225567609081746,5,3,32473,0.906458658127923,32473,0.8955275597480378,32473,0.9164887483987355,5,4,32597,0.9171408961937578,32597,0.9007049411915368,32597,0.923787112962674,6,1,13747,0.9176225782157186,13747,0.8693019120231319,13747,0.9175445650314904,6,2,25323,0.9138616953862757,25323,0.8883849512118697,25323,0.915094037406736,6,3,26504,0.9084745150888002,26504,0.8984193258571175,26504,0.9206233655805297,6,4,26275,0.9164293879559426,26275,0.9076483254473792,26275,0.9185726472903223
datasetthibault/outputlowerFalsestripFalselemmatizTruenamesTruenumbersFalseadverbsFalseconjoctionTrue.txt,0,1,29908,0.9150353877439913,29908,0.8932723255031945,29908,0.9152975933131575,0,2,545460,0.8949430744498763,545460,0.8461864733168674,545460,0.9024172726354214,0,3,1347253,0.8999874996874921,1347253,0.8366609165229131,1347253,0.913972849321233,0,4,2174301,0.8895050221807986,2174301,0.8251117040213448,2174301,0.9075416715001741,1,1,29859,0.9044550434340727,29859,0.8704540271047819,29859,0.9058384916713016,1,2,544576,0.9028511404561824,544576,0.8924669867947178,544576,0.9157362945178071,1,3,1337540,0.8914141414141414,1337540,0.8334233423342334,1337540,0.9149314931493149,1,4,2166038,0.892002892002892,2166038,0.8258578258578257,2166038,0.9065064065064065,2,1,16868,0.9048836502144548,16868,0.8623887715255105,16868,0.9096448690864861,2,2,106346,0.9017057091653865,106346,0.8994015616999488,106346,0.9145945340501792,2,3,127361,0.9131811469049586,127361,0.9051638256864658,127361,0.9239493379389752,2,4,132599,0.8995828286501741,132599,0.9074739192767427,132599,0.9183164671477563,3,1,13117,0.9169130088683193,13117,0.878744634806853,13117,0.9094157389666028,3,2,55001,0.8947852662570405,55001,0.8921050947260625,55001,0.9038178443420379,3,3,61490,0.9100625610009759,61490,0.9230067681082896,61490,0.9160466567465079,3,4,61999,0.9002496359475765,61999,0.9056724168280232,61999,0.9132395064889343,4,1,10983,0.9039206582991803,10983,0.8731509349385246,10983,0.9016233350409835,4,2,37081,0.9002074250984369,37081,0.9009990208815266,37081,0.9062411551797768,4,3,40093,0.9214189916979955,40093,0.9136380502040746,40093,0.9279912869457204,4,4,40196,0.9160378103899559,40196,0.9129722923174017,40196,0.9259874918861287,5,1,9613,0.9120512051205122,9613,0.8816081608160815,9613,0.9139913991399141,5,2,28130,0.911989911989912,28130,0.9100039100039099,28130,0.9194984194984196,5,3,29693,0.900665518736997,29693,0.8994870377103912,29693,0.9081040228624317,5,4,29911,0.9114631481637112,29911,0.9037284045478011,29911,0.9148437843916456,6,1,8624,0.8985683770940334,8624,0.861355781692507,8624,0.9005204083265332,6,2,22649,0.900230138893473,22649,0.8990089325095941,22649,0.9076208879300602,6,3,23607,0.8994435198668609,23607,0.8940567441711608,23607,0.9034921028628122,6,4,23636,0.9036594166994482,23636,0.8968698919661795,23636,0.9036904465191049
