step1/outputlowerTruestripTruelemmatizFalsenamesFalsenumbersTrueadverbsTrueconjoctionTrue.txt,0,1,44903,0.9102250256564293,44903,0.861798202798428,44903,0.9152386673675251,0,2,676365,0.9053230508040232,676365,0.7841149336921007,676365,0.9269251713754886,0,3,1533053,0.9125224014336917,1533053,0.7325828853046595,1533053,0.9285074244751664,0,4,2399764,0.8994963994963996,2399764,0.6706756706756706,2399764,0.9135104135104135,1,1,45197,0.9124774124774125,45197,0.8595643595643596,45197,0.9194824194824195,1,2,680022,0.9024600615015375,680022,0.7979049476236906,680022,0.9184804620115502,1,3,1537608,0.8906470774243389,1537608,0.6888236447838739,1537608,0.911940471758909,1,4,2403751,0.8901444067877992,2403751,0.6271922102761295,2403751,0.9135169795013584,2,1,25932,0.9123262326232623,25932,0.865021502150215,25932,0.9243374337433743,2,2,106756,0.9173387096774194,106756,0.8992255504352278,106756,0.9263552867383512,2,3,122445,0.9126718836892032,122445,0.888390124464395,122445,0.9246742361502854,2,4,126058,0.9071046557676077,126058,0.8968882879783673,126058,0.9191050877831601,3,1,19764,0.9003746157786885,19764,0.848936987704918,19764,0.9122374487704918,3,2,55072,0.9115885854173668,55072,0.8833761340181442,55072,0.9180786892590282,3,3,58319,0.9061139912954428,58319,0.9048819124423962,58319,0.9176187275985663,3,4,58479,0.9171357098186366,58479,0.9008505315822388,58479,0.9243151969981238,4,1,16295,0.910646899325986,16295,0.863159373934195,16295,0.9196744249778214,4,2,36977,0.9129024253830277,36977,0.8848525870185329,36977,0.9253515109492921,4,3,38349,0.9096102402560063,38349,0.9044451111277783,38349,0.9186054651366284,4,4,38353,0.9164527480747326,38353,0.8960920648285834,38353,0.9244978204803842,5,1,14086,0.9156997532583007,14086,0.8626137817291122,14086,0.914297016195737,5,2,27870,0.907555627581557,27870,0.8901468430103265,27870,0.9128390348915958,5,3,28747,0.9112309553180923,28747,0.8875662859065349,28747,0.9208474182540572,5,4,28764,0.9108699656803265,28764,0.895389069764648,28764,0.9120072804161611,6,1,12377,0.9191941620557629,12377,0.8602446079431569,12377,0.9186870626642822,6,2,22578,0.9164878970286886,22578,0.8925861296106558,22578,0.9097960425204917,6,3,23106,0.9103490902689987,23106,0.8906582547886895,23106,0.9163379526651838,6,4,23138,0.9248208603305793,23138,0.8868676592249802,23138,0.9250299358068262
step1/outputlowerFalsestripTruelemmatizTruenamesTruenumbersFalseadverbsTrueconjoctionTrue.txt,0,1,29745,0.9083488022275208,29745,0.8576154966315149,29745,0.9078067241682801,0,2,545793,0.8952838293433505,545793,0.8599620554087044,545793,0.9143851406020128,0,3,1336691,0.8828817837442148,1336691,0.8536547315703367,1336691,0.9009184330635903,0,4,2179762,0.897156762295082,2179762,0.9170322105532787,2179762,0.916655993852459,1,1,29915,0.9209560295271493,29915,0.8898496421194216,29915,0.9301972746633362,1,2,545169,0.8980415921663686,545169,0.8753625014500057,545169,0.9165246660986645,1,3,1345350,0.8923577235772359,1345350,0.9070168855534708,1345350,0.9117573483427142,1,4,2165306,0.8890800275239634,2165306,0.8242106863388329,2165306,0.9046122641660399,2,1,16808,0.9055053113692554,16808,0.8843089209365321,16808,0.9081319447505399,2,2,106258,0.8999905969534129,106258,0.8969666171839676,106258,0.9096107138712942,2,3,126517,0.9018556544223896,126517,0.8986004539068411,126517,0.9102963603395895,2,4,131861,0.8957788892455988,131861,0.9042304118798374,131861,0.9127039371763982,3,1,13096,0.9094626378505515,13096,0.870564482257929,13096,0.9064826259305037,3,2,54916,0.901676047529706,54916,0.8937836147592245,54916,0.9133208255159474,3,3,61107,0.9123183323845816,61107,0.8978289425636706,61107,0.9217700005702515,3,4,61388,0.9043938152969495,61388,0.9029742457380413,61388,0.9129257333609347,4,1,11031,0.9089227230680768,11031,0.8722418060451512,11031,0.912972824320608,4,2,37006,0.9155000000000001,37006,0.9065,37006,0.918,4,3,39928,0.9116671716914129,39928,0.9075549701935395,39928,0.9186045116210694,4,4,39987,0.9140678588988326,39987,0.9096543167596439,39987,0.9212627086481393,5,1,9677,0.9075316946312921,9677,0.8732139731439573,9677,0.9045760296066615,5,2,27928,0.9193769376937693,27928,0.9100910091009101,27928,0.923952395239524,5,3,29788,0.9095,29788,0.9005,29788,0.913,5,4,29813,0.9049776244406111,29813,0.8950423760594014,29813,0.9189979749493737,6,1,8674,0.9080864060962389,8674,0.866691326854945,8674,0.9119040635251789,6,2,22602,0.9022044725558619,22602,0.8983983293176547,22602,0.9091406447689658,6,3,23660,0.9249816999267998,23660,0.9154906619626478,23660,0.9244786979147918,6,4,23596,0.9060036240144961,23596,0.8979875919503678,23596,0.9129916519666079
step1/outputlowerTruestripFalselemmatizTruenamesFalsenumbersTrueadverbsFalseconjoctionFalse.txt,0,1,37575,0.9065000000000001,37575,0.8465000000000001,37575,0.9125000000000001,0,2,611652,0.9032082882028725,611652,0.8309890496750106,611652,0.9206388973065742,0,3,1454646,0.9025457629288274,1454646,0.7693212365591399,1454646,0.9215709805427547,0,4,2317506,0.8920320282882545,2317506,0.6844376599389395,2317506,0.914011226101035,1,1,37457,0.8998523946862087,37457,0.8583729014244513,37457,0.9029185050661824,1,2,613202,0.9146105350742447,613202,0.8132920506912443,613202,0.928067396313364,1,3,1456212,0.8877851140456183,1456212,0.7605242096838737,1456212,0.9108743497398959,1,4,2336946,0.8847056446288597,2336946,0.6320497841300582,2336946,0.9009679136040077,2,1,20954,0.9237490198588596,20954,0.8538789585700342,20954,0.9229048983053559,2,2,110512,0.9097421919931985,110512,0.8914205696281663,110512,0.9216398689705183,2,3,128776,0.914839757152332,128776,0.8818398441837504,128776,0.9202372056312329,2,4,134109,0.9036324923155736,134109,0.8934186091188524,134109,0.9121013703893442,3,1,16040,0.9207308283682492,16040,0.8698226984432058,16040,0.9219240502274328,3,2,56033,0.9123848985727273,56033,0.8844370168790423,56033,0.9184626339787114,3,3,61012,0.9063539296341676,61012,0.8931534595283939,61012,0.9166537470930959,3,4,61575,0.9052028523088713,61575,0.8918562919784566,61575,0.9200727184680696,4,1,13370,0.9101622503840245,13370,0.8589909754224271,13370,0.9156426011264722,4,2,37834,0.91675671024776,37834,0.8872634355027833,37834,0.9217591314196071,4,3,40226,0.9129266068257091,40226,0.8895682330917294,40226,0.9224567593081489,4,4,40109,0.9048273461598474,40109,0.9051914175178336,40109,0.9144342291089054,5,1,11490,0.9188492410792428,11490,0.8731764647045585,11490,0.9186541971943688,5,2,28638,0.9123558448104132,28638,0.888097971526975,28638,0.9159309735150465,5,3,29710,0.9152534820168812,29710,0.9020884591005086,29710,0.9205572428654829,5,4,30242,0.9169422524802724,30242,0.8990410913698222,30242,0.9174467570208132,6,1,10187,0.9176026510764989,10187,0.8511143657411674,10187,0.9199427790622657,6,2,23153,0.9163660050609284,23153,0.8979723241117089,23153,0.9169227672683904,6,3,23846,0.9060825921880689,23846,0.893472120535625,23846,0.9188020852087009,6,4,23914,0.9127234321742331,23914,0.8975392456513738,23914,0.9232069417996192
step1/outputlowerTruestripTruelemmatizTruenamesFalsenumbersTrueadverbsFalseconjoctionFalse.txt,0,1,37638,0.9063705173544991,37638,0.8743699092669345,37638,0.90878086444448,0,2,613555,0.9057678765764035,613555,0.822942673324371,613555,0.9243446322258498,0,3,1461233,0.8925254955849657,1461233,0.7888954563502184,1461233,0.9170669651027775,0,4,2328526,0.8929653207639274,2328526,0.6124214245415515,2328526,0.9139361153013578,1,1,37619,0.9166266256646806,37619,0.8612258953168043,37619,0.9228570055737075,1,2,609954,0.9037685619358137,609954,0.8024198671614182,609954,0.9202233184834513,1,3,1450734,0.9040933425010435,1450734,0.8214998814002575,1450734,0.9210205783063555,1,4,2319221,0.8882580985873232,2319221,0.6528039495741166,2319221,0.9175048309468655,2,1,20855,0.9074452239092831,20855,0.8625192196809532,20855,0.9124223204561471,2,2,110368,0.9023052305230523,110368,0.8808330833083308,110368,0.9193169316931693,2,3,128656,0.913374018256209,128656,0.8933720980238609,128656,0.9224411153749603,2,4,132162,0.909914558632938,132162,0.8901342421478744,132162,0.9184646954351269,3,1,16083,0.9000622150356008,16083,0.8517533920218484,16083,0.9047754297696441,3,2,56675,0.9058805880588058,56675,0.8779027902790278,56675,0.917021702170217,3,3,61110,0.9039464631434102,61110,0.8990223843581497,61110,0.9145006320101123,3,4,61355,0.9054900042122282,61355,0.896054512837291,61355,0.9196815115195939,4,1,13321,0.9086464014340646,13321,0.8427360464790591,13321,0.9093536305763068,4,2,37939,0.9009829009829009,37939,0.8925223925223926,37939,0.9084894084894084,4,3,40040,0.9096377469588905,40040,0.8904630566700401,40040,0.9196261065398356,4,4,40307,0.9076739040852008,40307,0.8951054406663705,40307,0.9162245800176835,5,1,11419,0.9067662015581553,11419,0.8567248678574112,11419,0.9020716951827451,5,2,28467,0.9074794074794075,28467,0.898000898000898,28467,0.9154914154914154,5,3,29952,0.9093208602576928,29952,0.8935943306386444,29952,0.911991015700494,5,4,29811,0.9115271648310768,29811,0.8909036542790597,29811,0.9165274098430822,6,1,10250,0.9138554415696253,10250,0.8652507273729259,10250,0.9150506435587614,6,2,23011,0.9158829717869844,23011,0.9010804388958003,23011,0.9214161709821553,6,3,23707,0.9085726771540943,23707,0.8875034875313879,23707,0.9180592625333629,6,4,23856,0.9134253356333909,23856,0.8840871021775545,23856,0.9174454361359033
step1/outputlowerTruestripFalselemmatizFalsenamesTruenumbersFalseadverbsTrueconjoctionTrue.txt,0,1,33474,0.9131951117944775,33474,0.874171151258889,33474,0.9069647318854508,0,2,580055,0.8921627159730827,580055,0.8835812954834786,580055,0.9100935945861348,0,3,1344510,0.8940261849426578,1344510,0.8573648651351449,1344510,0.9130628702633294,0,4,2116925,0.9010604241696678,2116925,0.6689775910364146,2116925,0.9224789915966387,1,1,33487,0.9104926419705679,33487,0.8725984903939616,33487,0.911003644014576,1,2,579202,0.9090826356934912,579202,0.8918747418540902,579202,0.9240298464175597,1,3,1336839,0.906984280343378,1336839,0.8505997513579796,1336839,0.9229869848004313,1,4,2115934,0.8973112128146453,2115934,0.6980025123617801,2115934,0.9132775119617224,2,1,20190,0.905617501030202,20190,0.8773819668655056,20190,0.89975635224504,2,2,97625,0.9076436751723063,97625,0.9124878495625843,97625,0.9215481757343265,2,3,111332,0.9038418458781362,111332,0.900921658986175,111332,0.9144105222734256,2,4,112315,0.912808048349322,112315,0.8989344300836669,112315,0.9261564349878296,3,1,15761,0.9202681072428971,15761,0.8835334133653462,15761,0.9126550620248101,3,2,49936,0.9215925285423773,49936,0.9161682759283278,49936,0.9225372692190678,3,3,52547,0.9135487219384972,52547,0.9139992259930341,52547,0.9305218746968724,3,4,52983,0.9143865207373272,52983,0.9084741423451101,52983,0.9249871991807476,4,1,13217,0.911030264346577,13217,0.8696985370548412,13217,0.9089388420293348,4,2,33011,0.9078348167562863,33011,0.9067411532941605,33011,0.9106831490697351,4,3,34498,0.9139722661049675,34498,0.9056270217407657,34498,0.9220065698738684,4,4,34661,0.9174874174874175,34661,0.9094974094974094,34661,0.922991922991923,5,1,11505,0.9182579517567246,11505,0.8842559568769828,11505,0.9147038844130261,5,2,24947,0.9160396641586566,24947,0.9075066300265202,24947,0.9215226860907444,5,3,25903,0.9138130188545273,25903,0.9164887355875826,25903,0.9203810508651201,5,4,25850,0.9109877746943673,25850,0.9085652141303532,25850,0.9115452886322158,6,1,10205,0.9109477736943424,10205,0.8711417785444636,10205,0.9074651866296658,6,2,20245,0.9148733984121412,20245,0.8927665095212517,20245,0.9183318979184985,6,3,20769,0.9144202263643675,20769,0.9011486251305256,20769,0.9205474272957499,6,4,20781,0.9242368131318186,20781,0.9036082474226803,20781,0.9199879891902711
step1/outputlowerTruestripFalselemmatizFalsenamesFalsenumbersTrueadverbsTrueconjoctionTrue.txt,0,1,45156,0.9215455386384661,45156,0.8661591539788495,45156,0.9275006875171878,0,2,677982,0.8984178795822787,677982,0.7981805515100011,677982,0.9167960409953966,0,3,1525674,0.8989217695341136,1525674,0.7377292652410941,1525674,0.9188471805088416,0,4,2388405,0.8834963834963836,2388405,0.6626666626666627,2388405,0.903005903005903,1,1,45077,0.9152517962586613,45077,0.8391128322478437,45077,0.9236029988318318,1,2,673429,0.9066605591205134,673429,0.8368505064729322,673429,0.9205785633131169,1,3,1528455,0.906600507546681,1528455,0.7102357581341008,1528455,0.9260466274753404,1,4,2383174,0.8820362197747689,2383174,0.6414884329332138,2383174,0.9100095904699331,2,1,25880,0.915966915966916,25880,0.8695513695513696,25880,0.9189779189779189,2,2,107651,0.9039781358032222,107651,0.8821459393134538,107651,0.9184887663988976,2,3,121028,0.9100390050898839,121028,0.890920904565678,121028,0.9182184605403847,2,4,126327,0.9084302107552689,126327,0.8891272281807044,126327,0.9219330483262081,3,1,19792,0.9142057960840081,19792,0.8666714669018782,19792,0.9161288903156255,3,2,54893,0.9245885789949347,54893,0.9023023362647986,54893,0.93585905746733,3,3,57931,0.9083408340834083,57931,0.8867586758675867,57931,0.9222522252225223,3,4,58433,0.9181772709083633,58433,0.8973189275710284,58433,0.9237695078031214,4,1,16370,0.9184566738266953,16370,0.8651014604058417,16370,0.9254867019468078,4,2,36678,0.9175667566756677,36678,0.8982548254825483,36678,0.921982198219822,4,3,38325,0.9104914104914105,38325,0.9050239050239052,38325,0.9234974234974236,4,4,38684,0.9121064595264108,38684,0.9016664065407658,38684,0.9197581629508682,5,1,14039,0.917852272852328,14039,0.884003845695952,14039,0.9202378248807724,5,2,27790,0.9035246317216854,27790,0.8914255228297054,27790,0.9150202351821166,5,3,28911,0.9180322622903605,28911,0.8989210902898127,28911,0.9245008205073846,5,4,28715,0.9061706170617061,28715,0.8942644264426444,28715,0.9175667566756677,6,1,12383,0.9075721056438856,12383,0.8500696868643514,12383,0.9109934155168083,6,2,22642,0.910590118915827,22642,0.8768049634432088,22642,0.9200380818660114,6,3,23080,0.9082890061613018,23080,0.8950088554339163,23080,0.9118836823004327,6,4,23058,0.9108671648717415,23058,0.8893440655454384,23058,0.9164459682194236
step1/outputlowerTruestripTruelemmatizFalsenamesFalsenumbersFalseadverbsFalseconjoctionTrue.txt,0,1,45645,0.9054084865357847,45645,0.8223411574585193,45645,0.9109425750812014,0,2,685514,0.9048062921060633,685514,0.794636427645581,685514,0.9222908098766223,0,3,1552546,0.9097686053783616,1552546,0.7143839899937461,1552546,0.9197748592870544,0,4,2451810,0.8976814778352724,2451810,0.7002499209617454,2451810,0.9123535791323001,1,1,45441,0.9069999999999999,45441,0.8550000000000001,45441,0.9125000000000001,1,2,683913,0.912271173828377,683913,0.836814921721771,683913,0.9301962031583338,1,3,1563894,0.8895162322597161,1563894,0.738019808316933,1563894,0.9135286164578632,1,4,2447501,0.8925002800044801,2447501,0.6481083697339157,2447501,0.9120225923614778,2,1,26066,0.9091425479848513,26066,0.8581745505529771,26066,0.9111146446175864,2,2,109593,0.9152561024409765,109593,0.8932072829131653,109593,0.9218287314925969,2,3,125739,0.900628410054561,125739,0.8904242467879485,125739,0.9126006016096258,2,4,129480,0.9075830332132854,129480,0.8918067226890756,129480,0.921218487394958,3,1,20121,0.9082099430598787,20121,0.8505079186889865,20121,0.9158865039605952,3,2,56097,0.917671538256129,56097,0.8941956976794192,56097,0.9281453055819755,3,3,59352,0.9172709248477969,59352,0.9075602581771269,59352,0.9245595545854063,3,4,60321,0.9269073686652719,60321,0.9021224764091507,60321,0.9339256213223677,4,1,16531,0.9120844488732547,16531,0.8646364840582841,16531,0.9147997630853333,4,2,37782,0.9057684306540141,37782,0.8922624857979549,37782,0.916179929909907,4,3,39655,0.905,39655,0.905,39655,0.919,4,4,39776,0.9199616798467194,39776,0.9090236360945444,39776,0.9254847019388078,5,1,14241,0.9156486701691349,14241,0.858687214657549,14241,0.9157927168402563,5,2,28842,0.9102342549923195,28842,0.9009136584741424,28842,0.9146505376344086,5,3,30010,0.9078547310812758,30010,0.8962730633211181,30010,0.9158798867036854,5,4,29961,0.9157863145258103,29961,0.9032012805122048,29961,0.9188675470188076,6,1,12570,0.9125,12570,0.8495,12570,0.9175,6,2,23454,0.912271173828377,23454,0.9049059291020182,23454,0.9141284877144238,6,3,23843,0.9197852779144713,23843,0.8973468799884777,23843,0.9326898072022117,6,4,24091,0.908830871645517,24091,0.895212910659135,24091,0.9163979613064281
step1/outputlowerTruestripTruelemmatizTruenamesTruenumbersTrueadverbsTrueconjoctionTrue.txt,0,1,25680,0.9093660589368879,25680,0.8772109833381836,25680,0.906890437631444,0,2,500585,0.9004884004884004,500585,0.8890568890568891,500585,0.9114914114914114,0,3,1241571,0.8935585506739016,1241571,0.8159110799929984,1241571,0.9113975644520018,0,4,1976540,0.8936392351553971,1976540,0.8746051661328843,1976540,0.9106712450886518,1,1,25769,0.9096180712854931,25769,0.8822807317558561,25769,0.9090795448977,1,2,503367,0.907993907993908,503367,0.8635863635863636,503367,0.9154954154954155,1,3,1229888,0.8998308389328548,1229888,0.8037826655422607,1229888,0.9193663912672475,1,4,1963301,0.8920000000000001,1963301,0.8165,1963301,0.905,2,1,15223,0.9172003073770492,15223,0.8654424948770492,15223,0.9130779328893441,2,2,97530,0.9042162593703824,97530,0.8982491278653887,97530,0.9079384008347682,2,3,116131,0.9090465447447159,116131,0.9044924718795501,116131,0.9120105921694748,2,4,117058,0.8990463847421558,117058,0.8890102241635865,117058,0.9085205363285812,3,1,12004,0.9022799346530848,12004,0.8693261900185791,12004,0.9068686334806844,3,2,50182,0.905028905028905,50182,0.8974913974913974,50182,0.9105144105144105,3,3,54509,0.9157808094779468,54509,0.9059776232924184,54509,0.917869062156521,3,4,54695,0.903853751283967,54695,0.9029055910448865,54695,0.9184537186784566,4,1,10074,0.9086606171179821,10074,0.8779487548812497,10074,0.9020549260610715,4,2,33297,0.9087065154718432,33297,0.90005765904286,33297,0.9099357742328145,4,3,35562,0.9054616491548425,35562,0.8969990729916569,35562,0.9099811898307084,4,4,35662,0.9061888925008127,35662,0.9092045710284814,35662,0.9181315796054111,5,1,8786,0.9051921005170495,8786,0.877406570498874,8786,0.8988347632465782,5,2,25184,0.9129054037158361,25184,0.9095771548598436,25184,0.9173088945012627,5,3,26383,0.9049786201895428,26383,0.8945437723487784,26383,0.9060238553674578,5,4,26548,0.9116161616161617,26548,0.9084958495849585,26548,0.9100510051005101,6,1,7951,0.9084202105052627,7951,0.8831270781769545,7951,0.9079226980674517,6,2,20233,0.8999123968462865,20233,0.8960322571612579,20233,0.9039245412834862,6,3,20883,0.9128388104162103,20883,0.9054471742333534,20883,0.9134324819872943,6,4,20955,0.9079338599970597,20955,0.8995373440186263,20955,0.9090549956544742
step1/outputlowerTruestripTruelemmatizTruenamesFalsenumbersTrueadverbsTrueconjoctionTrue.txt,0,1,37434,0.9158978974474361,37434,0.8508437710942773,37434,0.9119927998199955,0,2,609606,0.9047186034158331,609606,0.8270500650734914,609606,0.9202717180902306,0,3,1459742,0.9028319223239589,1459742,0.7181422493520161,1459742,0.9172706346991263,0,4,2328209,0.895125276171673,2328209,0.701712089343099,2328209,0.9136349042988265,1,1,37590,0.9170750477097804,37590,0.8566770175457908,37590,0.9176970011138119,1,2,613289,0.9151094434021264,613289,0.8362101313320826,613289,0.9333833646028769,1,3,1456228,0.8950376658854409,1456228,0.7402089203779891,1456228,0.9148393885833006,1,4,2307801,0.9109536367281996,2307801,0.6926024375194385,2307801,0.9274159433812257,2,1,20976,0.9192777110844338,20976,0.8687575030012005,20976,0.9168267306922769,2,2,110043,0.9134446151138418,110043,0.8901822429158868,110043,0.9189667034672554,2,3,130019,0.9093849514330063,130019,0.892560528716135,130019,0.9208926085356292,2,4,133459,0.9114834114834115,133459,0.902009902009902,133459,0.9194874194874195,3,1,15971,0.9066026410564226,15971,0.8626150460184073,15971,0.9133153261304522,3,2,56499,0.9164236850958842,56499,0.8978396001217579,56499,0.9267610823627421,3,3,60899,0.9204465443023796,60899,0.8928385687539006,60899,0.9194824054663872,3,4,61303,0.9194154992581284,61303,0.8982739084567365,61303,0.9229004429189571,4,1,13325,0.9103403560450819,13325,0.8510101818647541,13325,0.9139264216188524,4,2,37905,0.9045218087234894,37905,0.8948279311724691,37905,0.9120548219287715,4,3,40030,0.9154453861346533,40030,0.9020775519387985,40030,0.9209780244506113,4,4,40169,0.9092269286777296,40169,0.8942867772959306,40169,0.9226868669088348,5,1,11533,0.9105805692891087,11533,0.8542516680266885,11533,0.9105605689691035,5,2,28749,0.9085054085054085,28749,0.8924643924643925,28749,0.9124964124964124,5,3,29944,0.9127859356607885,29944,0.8926668060112869,29944,0.9173898085744946,5,4,29740,0.9135306541226165,29740,0.8929855719422878,29740,0.9155046620186481,6,1,10153,0.9119027975699392,10153,0.8712017800445011,10153,0.9144353608840221,6,2,23007,0.9133878625487708,23007,0.8838118642050506,23007,0.9189342998966826,6,3,23809,0.9202120212021202,23809,0.9029802980298031,23809,0.9241724172417242,6,4,23828,0.9121348539415767,23828,0.9030812324929972,23828,0.914155662264906
step1/outputlowerTruestripFalselemmatizTruenamesTruenumbersTrueadverbsFalseconjoctionFalse.txt,0,1,25601,0.9105658836527838,25601,0.8666694688635891,25601,0.9020452034394966,0,2,503855,0.904523025574851,503855,0.8839381086002656,503855,0.9167228111413329,0,3,1231950,0.8983106117668006,1231950,0.86170053145359,1231950,0.9122296343643312,0,4,1969145,0.8833857859035092,1969145,0.7873125783163375,1969145,0.9023447148910297,1,1,25676,0.9134278834038025,25676,0.8747504910176767,25676,0.9104397758319298,1,2,501421,0.8983899597489937,501421,0.8753618840471011,501421,0.9134153353833847,1,3,1230466,0.8940295761183045,1230466,0.8522884091536367,1230466,0.9090196360785444,1,4,1978849,0.8819327731092437,1978849,0.7571128451380551,1978849,0.8983893557422968,2,1,15205,0.9026281102407123,15205,0.8591575515008123,15205,0.8999158292123677,2,2,97204,0.9095822378030968,97204,0.8967910468666835,97204,0.9125616798530489,2,3,114020,0.8892282795792489,114020,0.8918907295332912,114020,0.9026460471819738,2,4,119366,0.9091762519368096,119366,0.9002756796714251,119366,0.9168059569215503,3,1,11986,0.9060795915999535,11986,0.880346547923393,11986,0.9070517821493013,3,2,49894,0.9128354530898238,49894,0.9084724251634448,49894,0.912351894579244,3,3,54428,0.9103176391079072,54428,0.9036094215413882,54428,0.9144552076293461,3,4,55018,0.9128037638360883,55018,0.912128149657292,55018,0.9202075150700468,4,1,10000,0.905646026484764,10000,0.8598321083729645,10000,0.9006701253782965,4,2,33869,0.9103731082823059,33869,0.907533969164489,33869,0.913918782020319,4,3,35260,0.9096609631208104,35260,0.9031218723419602,35260,0.9173256350992987,4,4,35762,0.9191376550620248,35762,0.918297318927571,35762,0.9262204881952782,5,1,8824,0.9094150613380055,8824,0.8762529363938832,8824,0.9049953447718937,5,2,25391,0.905395390944524,25391,0.8995259154218691,25391,0.9146617715981877,5,3,26495,0.9076820916538657,26495,0.898665514592934,26495,0.9096502176139273,5,4,26458,0.922014922014922,26458,0.911008911008911,26458,0.9165124165124166,6,1,7928,0.9125000000000001,7928,0.8935000000000002,7928,0.9049999999999999,6,2,20291,0.9032145090681676,20291,0.8966228893058161,20291,0.9076297686053784,6,3,20959,0.9030377339605644,20959,0.9057351616454811,20959,0.9141977780002002,6,4,21166,0.9119816479265916,21166,0.8935085740342961,21166,0.9144906579626318
step1/outputlowerTruestripFalselemmatizTruenamesFalsenumbersTrueadverbsTrueconjoctionFalse.txt,0,1,37637,0.9009636038544155,37637,0.84562438249753,37637,0.9134826539306157,0,2,613967,0.8942619352167527,613967,0.8089650261671194,613967,0.9087316072601881,0,3,1466969,0.9035826353816253,1466969,0.779061648816508,1466969,0.9170950404666949,0,4,2315630,0.8904902305932054,2315630,0.6792938183098367,2315630,0.9100590485029845,1,1,37560,0.9192332948939715,37560,0.8784355179704016,37560,0.9244666538535461,1,2,610857,0.907200243262275,610857,0.8211902246975225,610857,0.9177109339991036,1,3,1455315,0.8953851047739466,1455315,0.7140193422668946,1455315,0.9137920686302362,1,4,2318511,0.8779390095457748,2318511,0.6316227817284901,2318511,0.8989605355884426,2,1,20907,0.9116987179487178,20907,0.8569711538461539,20907,0.9112580128205128,2,2,109461,0.9107367966095591,109461,0.8823780709863575,109461,0.9182514336939078,2,3,128809,0.8979630816677351,128809,0.8921040289362604,128809,0.9134737212634915,2,4,132022,0.9026230715063055,132022,0.8938328212022277,132022,0.9182150630561423,3,1,16077,0.9061994021515742,16077,0.8528535811400723,16077,0.9111548035390867,3,2,56494,0.9099025584409351,56494,0.8911222579561274,56494,0.9214407430518887,3,3,60926,0.9125074125074125,60926,0.904978904978905,60926,0.9155034155034154,3,4,60878,0.9055817131150902,60878,0.89034230892728,60878,0.9242145980188275,4,1,13347,0.9082309910374853,13347,0.8543658878350442,13347,0.9008142376061555,4,2,37942,0.9178817881788178,37942,0.9042804280428043,37942,0.9214571457145714,4,3,40016,0.9130336521346086,40016,0.8899515598062391,40016,0.9225166900667602,4,4,40105,0.9123498445944055,40105,0.8969722910024761,40105,0.9143739174610285,5,1,11492,0.915,11492,0.8630000000000001,11492,0.91,5,2,28467,0.9054833181433013,28467,0.8903571475020484,28467,0.9114649560456162,5,3,29954,0.9190384421138112,29954,0.8968026410139222,29954,0.9205070610719468,5,4,29806,0.9119326847015504,29806,0.9016386802953344,29806,0.9199680784358434,6,1,10181,0.911484593837535,10181,0.8653561424569828,10181,0.9139155662264907,6,2,22995,0.9085845373525976,22995,0.8939103025648409,22995,0.9100585609369749,6,3,23794,0.9054471742333534,23794,0.8855279175681772,23794,0.9110422912221632,6,4,23786,0.9108829807257189,23786,0.9013689825438206,23786,0.9105766265803269
step1/outputlowerFalsestripTruelemmatizFalsenamesFalsenumbersFalseadverbsTrueconjoctionTrue.txt,0,1,55550,0.9209187346997552,55550,0.8587837405398487,55550,0.9269588313413013,0,2,734635,0.9008346136610973,734635,0.8507577939952627,734635,0.9188232187439984,0,3,1648633,0.900993603974416,1648633,0.7429859719438877,1648633,0.9244826979307917,0,4,2592662,0.8945078031212486,2592662,0.7554221688675471,2592662,0.919187675070028,1,1,55257,0.9110144057623049,55257,0.847108843537415,55257,0.9113645458183274,1,2,729829,0.901296616547373,729829,0.8216021360746826,729829,0.9156818946053706,1,3,1662679,0.882566987926022,1662679,0.7756413269474828,1662679,0.9131279633650325,1,4,2618428,0.8974089635854341,2618428,0.7149559823929572,2618428,0.9151460584233693,2,1,30219,0.9174772626330931,30219,0.8716934286708894,30219,0.9248446496664922,2,2,117718,0.9125762576257626,117718,0.8869136913691368,117718,0.9250025002500251,2,3,136214,0.925254516880594,136214,0.9163307954171456,136214,0.9354291899375675,2,4,140174,0.9206355158878972,140174,0.9084552113802845,140174,0.9330683267081678,3,1,22587,0.9124362093742594,22587,0.8484825756462068,22587,0.9169749317716567,3,2,60811,0.9034350858771469,60811,0.89367984199605,60811,0.9149828745718642,3,3,66030,0.9140119140119141,66030,0.8999748999749,66030,0.929001929001929,3,4,66167,0.908443675993084,66167,0.8925755331797985,66167,0.9219782978046801,4,1,18478,0.913476776209292,18478,0.8615437211122912,18478,0.9234546421052526,4,2,41253,0.9083877118559202,41253,0.8944425750784132,41253,0.9223568833395424,4,3,43072,0.9169560697609036,43072,0.9110854642105675,43072,0.9266336892215983,4,4,43404,0.925985925985926,43404,0.8995153995153995,43404,0.9294894294894295,5,1,15802,0.9065776367949245,15802,0.862689056806045,15802,0.9075416715001741,5,2,31426,0.909168747199283,31426,0.8960974009346394,31426,0.9141540234299981,5,3,32847,0.9184647661828956,32847,0.9000471004239038,32847,0.9224768022912205,5,4,32841,0.911915315805476,32841,0.9052743595077691,32841,0.923590997103583,6,1,13867,0.9180743640234859,13867,0.8634759415512657,13867,0.9185519027041189,6,2,25400,0.9059184946959152,25400,0.8935802972847565,25400,0.9139466231459702,6,3,26359,0.9134864134864136,26359,0.9010109010109009,26359,0.9129999129999129,6,4,26219,0.91654274888474,26219,0.89296303666733,26219,0.9295068655617902
step1/outputlowerTruestripTruelemmatizTruenamesTruenumbersFalseadverbsFalseconjoctionFalse.txt,0,1,26349,0.9165367488307394,26349,0.8713533421800795,26349,0.9190232712094409,0,2,513548,0.901845213739259,513548,0.8811770991007035,513548,0.9206435037851692,0,3,1261269,0.8989298929892988,1261269,0.8393539353935393,1261269,0.9144864486448645,0,4,2017901,0.9043849257172132,2017901,0.7267626152663935,2017901,0.9227635117827868,1,1,26214,0.8993715094973675,26214,0.8520726984685795,26214,0.9038541549983198,1,2,516526,0.9136930568598799,516526,0.8902717228784682,516526,0.9261120595592067,1,3,1259081,0.8856442577030812,1259081,0.8441876750700281,1259081,0.9091636654661864,1,4,2022986,0.8890980075282711,2022986,0.8119912316843406,2022986,0.9126018536667322,2,1,15402,0.9063951738160317,15402,0.8768095939608693,15402,0.9079338599970597,2,2,99933,0.9104940587867416,99933,0.8861163227016885,99933,0.9157473420888055,2,3,117796,0.8952091705105543,117796,0.9000399144091016,117796,0.9140639770957315,2,4,121364,0.9046991225156951,121364,0.9033336801123564,121364,0.9132648978268959,3,1,12175,0.8990260912348211,12175,0.8633592702334321,12175,0.9054976494788453,3,2,51660,0.8980383293798577,51660,0.8904210551579858,51660,0.9085357072854623,3,3,56314,0.9164377479397314,56314,0.9089571806146256,56314,0.9174527570748136,3,4,56302,0.906135382469305,56302,0.8996787201718837,56302,0.9136913709409109,4,1,10361,0.9146161252155235,10361,0.8790994548920954,10361,0.9090899072384839,4,2,34399,0.905058480935695,34399,0.8994483911742587,34399,0.9175286804588872,4,3,36719,0.9055360285591078,36719,0.9092564966867474,36719,0.9157024065730771,4,4,36971,0.9095020314522257,36971,0.9085826479246556,36971,0.9147125387497383,5,1,9062,0.9144051463042226,9062,0.8724187129233311,9062,0.9126479937923957,5,2,26008,0.9135446167138673,26008,0.9015124241987872,26008,0.9140426246819949,5,3,27293,0.9044854044854045,27293,0.8999968999968999,27293,0.910989910989911,5,4,27441,0.906052414207404,27441,0.8939400765938276,27441,0.9096793572125854,6,1,8133,0.9084916764250878,8133,0.8808939280453524,8133,0.9059841538573847,6,2,20879,0.901,20879,0.8900000000000001,20879,0.9055,6,3,21651,0.9282058387748997,21651,0.9127095048916571,21651,0.9232456513322376,6,4,21832,0.9069380440348181,21832,0.8930331541218638,21832,0.9169946876600102
step1/outputlowerTruestripTruelemmatizFalsenamesFalsenumbersFalseadverbsFalseconjoctionFalse.txt,0,1,45406,0.9105027565094954,45406,0.8529718164541951,45406,0.9159657390237483,0,2,686416,0.9040902037798669,686416,0.7972220749350462,686416,0.918733161324144,0,3,1559885,0.8905912615426468,1559885,0.7383283377288652,1559885,0.9130774823753676,0,4,2445087,0.8995083921342741,2445087,0.6488923822781164,2445087,0.9174886798188772,1,1,45467,0.9115,45467,0.8535000000000001,45467,0.9140000000000001,1,2,687317,0.9167834588286371,687317,0.8318838100554299,687317,0.9257677021404727,1,3,1559831,0.8980727438922552,1559831,0.7720915394146927,1559831,0.9140830407262989,1,4,2443382,0.8928267365908366,2443382,0.6380158649964633,2443382,0.9126674863614853,2,1,26131,0.906,26131,0.8360000000000002,26131,0.909,2,2,109121,0.9166019976719162,109121,0.887773959862555,109121,0.92857242860743,2,3,125173,0.9100318726375809,125173,0.8927021269780254,125173,0.9318622269203665,2,4,128171,0.9130199130199129,128171,0.897964897964898,128171,0.929004929004929,3,1,20028,0.9145090681676047,20028,0.8468542839274547,20028,0.9101688555347092,3,2,56219,0.9191274862159076,56219,0.888493723221229,56219,0.9297379095819586,3,3,59651,0.9043294238602871,59651,0.890843792098844,59651,0.915231743040908,3,4,60199,0.9220337389314137,60199,0.896308403922871,60199,0.9265622061547941,4,1,16515,0.908395209880247,16515,0.8547638690967274,16515,0.9204105102627566,4,2,38143,0.9221151836439986,38143,0.8988550438971509,38143,0.9275629505845786,4,3,39725,0.9225687611001777,39725,0.9004244067905085,39725,0.9284848557576921,4,4,39726,0.9070607060706071,39726,0.8984148414841484,39726,0.9180418041804181,5,1,14233,0.9075174075174075,14233,0.8584383584383585,14233,0.913999913999914,5,2,29063,0.9125228404795875,29063,0.8890866311231258,29063,0.9238717428850342,5,3,29852,0.926,29852,0.8965,29852,0.922,5,4,29816,0.9064646581819237,29816,0.9005456049104441,29816,0.9169812528312755,6,1,12532,0.9154108177127739,12532,0.8591697987839779,12532,0.9146372948112924,6,2,23423,0.9083468019394794,23423,0.8919364388471941,23423,0.9132635099454322,6,3,23936,0.9182666099872472,23936,0.8962591583106199,23936,0.9185341701882923,6,4,24062,0.9228448896641116,24062,0.8973212142548527,24062,0.9229169000336048
step1/outputlowerTruestripTruelemmatizFalsenamesTruenumbersFalseadverbsFalseconjoctionTrue.txt,0,1,33167,0.9157564882717013,33167,0.884571375989694,33167,0.9171377590007641,0,2,576506,0.9154218691790946,576506,0.8656820448727963,576506,0.9300379748356626,0,3,1337765,0.9028869973066964,1337765,0.7741536903861469,1337765,0.9251887913750254,0,4,2100861,0.8950886806287017,2100861,0.7697074454517354,2100861,0.913924124071857,1,1,33441,0.909015172060432,33441,0.8828325849544317,33441,0.9124771958757936,1,2,582342,0.9046658986175115,582342,0.8783682155657963,582342,0.9205949180747568,1,3,1336657,0.8972425359543051,1336657,0.9044604152407025,1336657,0.9138187414692331,1,4,2107530,0.8933785101647871,2107530,0.7717411417568953,2107530,0.9132779875471981,2,1,20102,0.8984283748539976,20102,0.8626438023008368,20102,0.8944723115569849,2,2,98134,0.9134208880550344,98134,0.9059412132582866,98134,0.9207129455909944,2,3,111862,0.9057059651817716,111862,0.9026337685611879,111862,0.9211229518689197,2,4,113933,0.914308204408064,113933,0.9162805909958353,113933,0.9303673520009921,3,1,15793,0.9148914891489149,15793,0.8793079307930792,15793,0.915891589158916,3,2,49562,0.9144784144784144,49562,0.9005004005004006,49562,0.9144854144854144,3,3,52667,0.9066987129477377,52667,0.9060795915999535,52667,0.9150813559457653,3,4,52568,0.907321837390519,52568,0.9050229488783604,52568,0.9144660447615648,4,1,13216,0.9093245980345578,13216,0.8677577454927359,13216,0.9136830786927059,4,2,33298,0.9043115037449587,33298,0.9003704948466807,33298,0.9177269380961525,4,3,34525,0.9159796639186557,34525,0.9155006620026479,34525,0.9174926699706799,4,4,34791,0.9124285988575818,34791,0.9074485191763069,34791,0.9204927278836461,5,1,11498,0.9141147916247897,11498,0.8762804377414494,11498,0.9125832165776122,5,2,25107,0.9129172837614695,25107,0.9138075024708828,25107,0.9198898291761421,5,3,25853,0.9119816479265916,25853,0.903007612030448,25853,0.9089936359745439,5,4,26003,0.9046818727490996,26003,0.8972889155662265,26003,0.9008003201280512,6,1,10260,0.9079421714795434,10260,0.8745963713673423,10260,0.8979660816947354,6,2,20330,0.9043762577465183,20330,0.8951194434109087,20330,0.9034740809198603,6,3,20844,0.91589865437847,20844,0.9089545432726925,20844,0.9194567113073809,6,4,20768,0.9065208080662529,20768,0.9086782665081595,20768,0.9137857191461428
step1/outputlowerFalsestripTruelemmatizTruenamesFalsenumbersFalseadverbsFalseconjoctionTrue.txt,0,1,48399,0.9168320238114288,48399,0.861784096909955,48399,0.9269654830295563,0,2,675501,0.9044616401547614,675501,0.8224424019816179,675501,0.917951261561354,0,3,1597536,0.9035750893772344,1597536,0.7800295007375185,1597536,0.9235555888897223,0,4,2530965,0.8909945780836962,2530965,0.7184164123736912,2530965,0.9115565530574667,1,1,48484,0.9167210176097056,48484,0.8552671065425197,48484,0.9197219899247357,1,2,673427,0.9065124065124065,673427,0.8343693343693344,673427,0.9230129230129231,1,3,1582008,0.8860795954617465,1582008,0.7547486838104687,1582008,0.9029980317165671,1,4,2546841,0.8770473356505214,2546841,0.6373484033907629,2546841,0.9013803105698782,2,1,25622,0.9119214589062206,25622,0.8622949113600793,25622,0.919770765037165,2,2,119672,0.912597217263646,119672,0.8857424013776676,119672,0.9156113649568829,2,3,142625,0.9166946738365019,142625,0.9093407912425581,142625,0.9285697138467449,2,4,144817,0.9076763651494782,144817,0.8909840919275336,144817,0.9220600473721272,3,1,19114,0.9152581786321888,19114,0.8564182346816612,19114,0.9179341308681167,3,2,61862,0.9070660522273426,61862,0.9017297107014849,61862,0.9175147209421403,3,3,67988,0.9099181892637033,67988,0.891050019450175,67988,0.9229513065617589,3,4,68658,0.9096787108397558,68658,0.9006355720148133,68658,0.9227204484035632,4,1,15521,0.9055820754311272,15521,0.8693681935514197,15521,0.9175285209510351,4,2,42501,0.926985926985927,42501,0.8875323875323875,42501,0.9324994324994326,4,3,44882,0.9035776897928732,44882,0.8963341030623481,44882,0.9159841947197722,4,4,45394,0.9027235602816875,45394,0.8872149393247458,45394,0.9139074503591107,5,1,13372,0.9095459545954596,13372,0.8498399839983999,13372,0.9044754475447546,5,2,32199,0.9059285208407524,32199,0.8806013148260036,32199,0.9191898175008703,5,3,33824,0.9084633853541416,33824,0.898859543817527,33824,0.9143257302921168,5,4,33864,0.9053455345534552,33864,0.891019101910191,33864,0.9199219921992199,6,1,11719,0.9034352794315346,11719,0.8627488637091096,11719,0.8992582101017861,6,2,25741,0.9098662314388122,25741,0.8922091013824885,25741,0.9134344598054276,6,3,26865,0.917264086028388,26865,0.9017578531308509,26865,0.9211446448288553,6,4,26874,0.9046362676225376,26874,0.8909242930982061,26874,0.9195544158358804
step1/outputlowerTruestripFalselemmatizFalsenamesTruenumbersTrueadverbsTrueconjoctionTrue.txt,0,1,32891,0.9204080530522973,32891,0.8917387308371978,32891,0.9119838706935262,0,2,569156,0.916011905714423,569156,0.8819309980637211,569156,0.9234709798210943,0,3,1306126,0.9049899049899051,1306126,0.8276433276433276,1306126,0.9194904194904194,0,4,2061445,0.9005140550164248,2061445,0.9023445923919857,2061445,0.9162867674716015,1,1,32723,0.9093450579078375,32723,0.8762039339927656,32723,0.9158838783100373,1,2,571141,0.9000416001664007,571141,0.852803411213645,571141,0.9175386701546806,1,3,1308091,0.8970008970008969,1308091,0.8686043686043686,1308091,0.9104974104974104,1,4,2060758,0.8974912387383783,2060758,0.8190899489526491,2060758,0.914083628042438,2,1,19934,0.9169490101643659,19934,0.8832177958406503,19934,0.9149489381617738,2,2,95022,0.9049994995495947,95022,0.8982734461014913,95022,0.9209238314483035,2,3,106994,0.9035595281430132,106994,0.8994633806817045,106994,0.9110147965326751,2,4,109804,0.9086137820512821,109804,0.8992788461538461,109804,0.916826923076923,3,1,15491,0.9111250125112602,15491,0.886753077769993,15491,0.9103693323991594,3,2,48046,0.9128056782536329,48046,0.9124055758274119,48046,0.9166786697394532,3,3,50724,0.9204555113877847,50724,0.9200080002000051,50724,0.9279481987049676,3,4,50723,0.9091777523704351,50723,0.9041082872950282,50723,0.9090077032262324,4,1,13033,0.9119082811369489,13033,0.8747206713694282,13033,0.919076006408672,4,2,32183,0.9172520843001393,32183,0.9039981757373061,32183,0.925663295514554,4,3,33362,0.9190196760787044,33362,0.8930035720142881,33362,0.91999967999872,4,4,33299,0.9170202531822785,33299,0.9109661986957882,33299,0.9205067845610609,5,1,11293,0.9066176970686255,11293,0.8645054430668411,11293,0.8987701589511544,5,2,24124,0.9104565673050767,24124,0.9055484887758204,24124,0.9159826557224916,5,3,25075,0.916,25075,0.91,25075,0.9170000000000001,5,4,24933,0.9104202703568455,24933,0.908193990646422,24933,0.9162662566468063,6,1,10031,0.9075876682890146,10031,0.8683893155038396,10031,0.9160412443711993,6,2,19611,0.9150618744613573,19611,0.9095836098490648,19611,0.9112752355013168,6,3,19990,0.9075901897547439,19990,0.89751993799845,19990,0.907057676441911,6,4,20019,0.9075533346146454,20019,0.899673265423794,20019,0.9106845409699531
step1/outputlowerTruestripTruelemmatizFalsenamesFalsenumbersTrueadverbsFalseconjoctionTrue.txt,0,1,44962,0.9077877055611598,44962,0.8359053497942387,44962,0.917393236297257,0,2,676786,0.9014514522522811,676786,0.8174144269193692,676786,0.9164339916236985,0,3,1522075,0.8839781436502984,1522075,0.7185774972399559,1522075,0.9104605673690779,0,4,2380351,0.8936801185227868,2380351,0.7580331499671381,2380351,0.9188412016738042,1,1,45092,0.9185000000000001,45092,0.8615,45092,0.9195000000000001,1,2,673206,0.9111409828260977,673206,0.8475312327783396,673206,0.9221688465350645,1,3,1530001,0.8970085944524624,1530001,0.7656068875639984,1530001,0.9190383174756535,1,4,2406831,0.8945854453457698,2406831,0.6353508616610597,2406831,0.9169320124564967,2,1,25899,0.9102270726984685,25899,0.8440775471667921,25899,0.9181442127666383,2,2,107760,0.9116371029713115,107760,0.8803790983606558,107760,0.9221551613729508,2,3,122387,0.9070801689369531,122387,0.8979352595297447,122387,0.9165360513340792,2,4,125264,0.9223857721255073,125264,0.893623588002309,125264,0.9307319527911809,3,1,19760,0.917230081131683,19760,0.8610859963834792,19760,0.9203985373893839,3,2,54613,0.9010441093969845,54613,0.8823984415859742,54613,0.9105486949382544,3,3,58105,0.9121411518546635,58105,0.904334332502193,58105,0.9155442269743588,3,4,58383,0.9138108971922989,58383,0.9000324011664421,58383,0.922871223364041,4,1,16357,0.9120089120089121,16357,0.8674373674373675,16357,0.9090019090019091,4,2,37014,0.9142275726973621,37014,0.8965170528878252,37014,0.9205321313782544,4,3,38661,0.9031255036735004,38661,0.8914212577496894,38661,0.909847323735548,4,4,38055,0.9119177979449488,38055,0.8896247406185155,38055,0.9194454861371535,5,1,14091,0.9211054381619644,14091,0.8648922250809262,14091,0.9230700747042042,5,2,28170,0.9105000000000001,28170,0.8965,28170,0.9225000000000001,5,3,28903,0.909975832169623,28903,0.8955471572789584,28903,0.9195959490875044,5,4,29027,0.9108137084587236,29027,0.8893821152359436,29027,0.9202213467829606,6,1,12379,0.9106041196018605,12379,0.8752033849658635,12379,0.9050513475160283,6,2,22647,0.9115000000000001,22647,0.896,22647,0.914,6,3,23120,0.9067390162786626,23120,0.8892300767672727,23120,0.9138606186391938,6,4,23299,0.9183849897540983,23299,0.9116851306352459,23299,0.9149189933401639
step1/outputlowerTruestripFalselemmatizTruenamesTruenumbersFalseadverbsTrueconjoctionFalse.txt,0,1,26380,0.901013901013901,26380,0.874971874971875,26380,0.9065134065134065,0,2,513015,0.8986784229106707,513015,0.833862524371298,513015,0.9152128918539593,0,3,1264151,0.8982622252642788,1264151,0.7887451917496228,1264151,0.90865224892027,0,4,2017682,0.8873574634113165,2017682,0.7944222573614941,2017682,0.90638667934881,1,1,26119,0.9069949069949069,26119,0.8565523565523565,26119,0.902997902997903,1,2,510392,0.8957838696670539,510392,0.8374615171425684,510392,0.9032763331802524,1,3,1259675,0.8965245687211185,1259675,0.8632332690994219,1259675,0.9130232172089549,1,4,2040685,0.8930366173740478,2040685,0.8828500096024583,2040685,0.9116453812175918,2,1,15404,0.9118814495896671,15404,0.8681142690231635,15404,0.9089344947763075,2,2,99540,0.9038302102470299,99540,0.8936038819144351,99540,0.9149121078807383,2,3,117426,0.9046548110867572,117426,0.8967588826690281,117426,0.9127701265031516,2,4,121729,0.9041938684075781,121729,0.9121783794162827,121729,0.9146585381464415,3,1,12192,0.9062972792232598,12192,0.8738649226638486,12192,0.9049056596206733,3,2,51364,0.9075453659944442,51364,0.902823374259934,51364,0.9150672823694939,3,3,56246,0.9052174817544164,56246,0.8964109934578944,56246,0.9113095113074109,3,4,56778,0.9090806645971878,56778,0.8966748103562088,56778,0.9140069456756809,4,1,10223,0.9084645354325668,10223,0.8776480423686781,10223,0.9095045520728332,4,2,34359,0.9008548769801416,34359,0.8964214405467371,34359,0.9142062028097103,4,3,36504,0.9141656140392986,36504,0.9080218706463482,36504,0.9171549757520661,4,4,36725,0.9128549712740588,36725,0.9105292758420889,36725,0.9186972302808747,5,1,9065,0.9100068422168782,9065,0.8748384476570409,9065,0.8942587398317055,5,2,26042,0.9033044547884994,26042,0.8863830098395403,26042,0.9079968426925662,5,3,27046,0.9204401358448904,27046,0.909936757723278,27046,0.9159369737310544,5,4,27234,0.9098147083093696,27234,0.9063364256957815,27234,0.9122927658723212,6,1,8090,0.9097429171931067,8090,0.8718552397415468,8090,0.9026833686960993,6,2,20775,0.9063997102954167,20775,0.897567521875397,20775,0.9104011548168889,6,3,21687,0.8972346760087566,21687,0.9061093948609839,21687,0.9041272343059789,6,4,21783,0.9103212297635463,21783,0.9114708035300326,21783,0.9128431823165915
step1/outputlowerFalsestripTruelemmatizFalsenamesFalsenumbersTrueadverbsFalseconjoctionFalse.txt,0,1,55071,0.9209027344437511,55071,0.8746999951999233,55071,0.9339349429590874,0,2,723153,0.9053299411162314,723153,0.8062756016385048,723153,0.9238671274961597,0,3,1623369,0.9040227798497945,1623369,0.7421674262950438,1623369,0.9238571318552835,0,4,2559571,0.896959695969597,2559571,0.7061006100610061,2559571,0.9190419041904191,1,1,54891,0.905723480658555,54891,0.8676477660751215,54891,0.9149613652030332,1,2,720238,0.9029661266951403,720238,0.82394991554924,720238,0.9199452795075156,1,3,1611884,0.9000836404819932,1611884,0.7061937977981342,1611884,0.921786144493935,1,4,2529686,0.8984655017921146,2529686,0.7198220686123912,2529686,0.9169786866359447,2,1,30064,0.8988927578346151,30064,0.8497707858413288,30064,0.9077131190661089,2,2,114455,0.9130791215628842,114455,0.9035351761986077,114455,0.9226870900395043,2,3,132531,0.9129856519426078,132531,0.8965905863623455,132531,0.9249856999427998,2,4,136327,0.9145530977880092,136327,0.9009108197377639,136327,0.925412871584426,3,1,22258,0.9148102018570164,22258,0.8488118123809781,22258,0.9195089005015087,3,2,58979,0.9125234125234126,58979,0.9054824054824054,58979,0.9205174205174205,3,3,63547,0.9064806259225037,63547,0.9045546182184729,63547,0.9214706858827435,3,4,64159,0.9087144544489882,64159,0.9058346059873245,64159,0.9176275329314847,4,1,18266,0.9157338656766575,18266,0.8814309260533517,18266,0.9220727784801012,4,2,39945,0.9080425286804588,39945,0.8903682458919342,39945,0.9200227203635258,4,3,41899,0.9092442715944908,41899,0.8961059746266671,41899,0.9208921378278322,4,4,42052,0.902937573439336,42052,0.8936198404960125,42052,0.9139628490712268,5,1,15581,0.9118743599590373,15581,0.8709277393753201,15581,0.9229470686123913,5,2,30527,0.9055855585558557,30527,0.8922542254225423,30527,0.9085258525852584,5,3,31787,0.9210234438367043,31787,0.909230516892544,31787,0.9260570529034012,5,4,31736,0.9069656278625114,31736,0.8925305701222804,31736,0.9179736718946875,6,1,13636,0.902530622775605,13636,0.8668908020172182,13636,0.9045306407757671,6,2,24457,0.9045475056304785,24457,0.8925751722661287,24457,0.9128564010361481,6,3,25255,0.9088757509029862,25255,0.8933720263040101,25255,0.915402686277514,6,4,25168,0.9292179476791123,25168,0.9086475217553537,25168,0.934862485357214
step1/outputlowerTruestripFalselemmatizTruenamesTruenumbersFalseadverbsTrueconjoctionTrue.txt,0,1,26279,0.9076027792008197,26279,0.8832607581967213,26279,0.905457543545082,0,2,512481,0.894736209878916,512481,0.8511435710167211,512481,0.9088466589787944,0,3,1260314,0.8907085297415264,1260314,0.7810695007456259,1260314,0.9077894164113736,0,4,2018947,0.893227011710424,2018947,0.8965646079390155,2018947,0.9102234258632362,1,1,26303,0.9154038634771294,26303,0.8812030827744971,26303,0.9184065659093184,1,2,511900,0.9012705082032813,511900,0.8417266906762705,511900,0.9173169267707083,1,3,1250835,0.9029681096311475,1250835,0.8284772028688525,1250835,0.9233958760245902,1,4,2019759,0.8908962841343071,2019759,0.727485339744725,2019759,0.907813233200363,2,1,15449,0.9060499871991808,15449,0.859166986687148,15449,0.9039698540706604,2,2,99195,0.9041504150415042,99195,0.8963446344634464,99195,0.9091409140914092,2,3,117330,0.9208891503605408,117330,0.9162086743887516,117330,0.9274961454609488,2,4,120338,0.9113439535654329,120338,0.9045890975272071,120338,0.9238295503803642,3,1,12150,0.9066811233786257,12150,0.8815030174882164,12150,0.9105155559827162,3,2,51531,0.909016427143847,51531,0.8941762410611408,51531,0.9155046525690664,3,3,56103,0.9074106666960003,56103,0.9044736402627624,56103,0.9104376939392455,3,4,56950,0.9076770218387689,56950,0.905532848160701,56950,0.9216241515562759,4,1,10358,0.9069790702908154,10358,0.8606511465079645,10358,0.903008176839789,4,2,34253,0.9042103167815498,34253,0.8998520572445438,34253,0.9205875498018927,4,3,36689,0.9064486257945032,36689,0.8989915959663839,36689,0.9149916599666398,4,4,36898,0.9099385590169442,36898,0.9085045360725771,36898,0.9119825917214676,5,1,9084,0.9117734145863261,9084,0.861963276101457,9084,0.9104079721829873,5,2,25766,0.9079369556433061,25766,0.9046563126372769,25766,0.9118397205852347,5,3,27174,0.9076863201789666,27174,0.9047999231628109,27174,0.9115782038506637,5,4,27293,0.9078389364315407,27293,0.8926399574316566,27293,0.9097133038075463,6,1,8178,0.902159643954918,8178,0.8696929431352459,8178,0.9090916367827868,6,2,20868,0.9119411941194119,20868,0.9021702170217021,20868,0.9175167516751674,6,3,21587,0.8985616010006253,21587,0.8937711069418386,21587,0.9101938711694808,6,4,21616,0.90514658527707,21616,0.8960742586733121,21616,0.9031645139225012
step1/outputlowerTruestripTruelemmatizTruenamesTruenumbersTrueadverbsFalseconjoctionFalse.txt,0,1,25569,0.9144185227854583,25569,0.8778161802355351,25569,0.9109703020993343,0,2,502365,0.8986548654865487,502365,0.8698519851985198,502365,0.9130913091309131,0,3,1243166,0.8985811899638996,1243166,0.8740781085733776,1243166,0.9190446038905243,0,4,1979708,0.8862749570792263,1979708,0.8620852492606421,1979708,0.9033712316761313,1,1,25709,0.9065821964457699,25709,0.8776001896229444,25709,0.9029882615796512,1,2,503164,0.9028825720643017,503164,0.862939073476837,503164,0.9164354108852721,1,3,1226690,0.8934765739062956,1226690,0.8587084348337393,1226690,0.9129796519186076,1,4,1990534,0.8931995866643169,1990534,0.886909434627277,1990534,0.9100634422211186,2,1,15187,0.9169429235730894,15187,0.8667491687292183,15187,0.9094602365059128,2,2,98388,0.9017708533384546,98388,0.9048796491901927,98388,0.9116773894116894,2,3,114767,0.9080000000000001,114767,0.9100000000000001,114767,0.9265000000000001,2,4,118953,0.9124803795179697,118953,0.9022331539317593,118953,0.9222918726379044,3,1,11961,0.9022029956740266,11961,0.866937560951214,11961,0.902127978795229,3,2,50347,0.895485244222521,50347,0.8854466743486332,50347,0.8993582357083414,3,3,54760,0.9051453167706585,54760,0.904010224828211,54760,0.9056048539931735,3,4,55763,0.9003240679541258,55763,0.9039753403915254,55763,0.9105288035923875,4,1,10129,0.9099068220732914,10129,0.8826179284698547,10129,0.9057958251565391,4,2,33663,0.9066095105872972,33663,0.8995691757844938,33663,0.9149104644908089,4,3,35542,0.909630881622583,35542,0.8975291978404012,35542,0.9113310850862717,4,4,35952,0.914765175897904,35952,0.8969752285792061,35952,0.9168508110358522,5,1,8822,0.9080926913368882,8822,0.8617610233968424,8822,0.9050865831169922,5,2,25294,0.9022126837557511,25294,0.8927483608265603,25294,0.8999883774988376,5,3,26247,0.9078136011275546,26247,0.9015471843167403,26247,0.9114613364084821,5,4,26451,0.9102544222001903,26451,0.9087012372456253,26451,0.9156412978123353,6,1,7950,0.9100737159709937,7950,0.8731432246011926,7950,0.9006044489603658,6,2,20264,0.9071217958719909,20264,0.8985571171949702,20264,0.9095172653840153,6,3,21094,0.9055206220824884,21094,0.9070056280225122,21094,0.9075066300265202,6,4,21116,0.9060646242935505,21116,0.889780856683015,21116,0.9093035507006157
step1/outputlowerFalsestripTruelemmatizFalsenamesFalsenumbersTrueadverbsTrueconjoctionTrue.txt,0,1,54887,0.9139417217268587,54887,0.8672942459426519,54887,0.9221045288344346,0,2,724957,0.9010384373837459,724957,0.8552567892444128,724957,0.9220451936269707,0,3,1630206,0.9100662442396313,1630206,0.7395433307731696,1630206,0.9234911034306196,0,4,2534250,0.9009800980098011,2534250,0.7116961696169617,2534250,0.9220622062206221,1,1,54879,0.9089127208579508,54879,0.8494625806529036,54879,0.9284404238552587,1,2,721582,0.9159748827692556,721582,0.8607476766361553,721582,0.9344512881131176,1,3,1624301,0.8976992440258825,1624301,0.73620987891601,1624301,0.9159138958293291,1,4,2558892,0.8893780654816389,2558892,0.6446927340770019,2558892,0.9165933902138672,2,1,29735,0.9150310578893442,29735,0.8585024974385246,29735,0.9187131787909836,2,2,114401,0.9039206740365654,114401,0.8916031580706195,114401,0.9213033694824562,2,3,131799,0.9159027836178623,131799,0.9031800761680503,131799,0.927467152027744,2,4,134377,0.904414816326,134377,0.8956733879960117,134377,0.917897977000873,3,1,22304,0.9032100276980046,22304,0.8579219394404983,22304,0.9091097327127539,3,2,59230,0.9121514584131832,59230,0.8960597275413775,59230,0.9268651847196606,3,3,62784,0.9164166626666026,62784,0.9125686010976175,62784,0.932464919438711,3,4,63227,0.9100556402225609,63227,0.9084926339705358,63227,0.9275407101628406,4,1,18172,0.9247828404904779,18172,0.8634420433637577,18172,0.9233778675677735,4,2,40092,0.9199107185714972,40092,0.9020424326789228,40092,0.9219467511480183,4,3,42002,0.9052616206083559,42002,0.8876955440122195,42002,0.9151624819572857,4,4,42296,0.921132113211321,42296,0.9058105810581059,42296,0.9245974597459745,5,1,15515,0.8968296829682968,15515,0.8669916991699169,15515,0.9059105910591059,5,2,30302,0.9088341653865847,30302,0.8836645545314901,30302,0.9213709677419355,5,3,31589,0.9029172769145599,31589,0.9005947476802237,31589,0.9200234054885771,5,4,31777,0.9112218205625926,31777,0.9064260980207447,31777,0.9123220186783407,6,1,13612,0.9157017346249156,13612,0.8541062801932368,13612,0.9194262972140872,6,2,24596,0.9072420634920635,24596,0.8903209805427547,24596,0.9181547619047619,6,3,25352,0.913062609001744,25352,0.9034724555592889,25352,0.9230347685562968,6,4,25416,0.9053555355535552,25416,0.8836433643364336,25416,0.9184068406840683
step1/outputlowerTruestripFalselemmatizTruenamesFalsenumbersTrueadverbsTrueconjoctionTrue.txt,0,1,37715,0.9029401250311676,37715,0.8365196954630889,37715,0.9092828081643769,0,2,614048,0.8990440531586047,614048,0.8209832281781808,614048,0.9135552642079462,0,3,1456508,0.8959716502787349,1456508,0.7223166012349977,1456508,0.9182514336939078,0,4,2310130,0.8827360162591869,2310130,0.6547483306728119,2310130,0.909573276362167,1,1,37556,0.9192376950780312,37556,0.8379851940776311,37556,0.9124149659863945,1,2,609314,0.8960802338401271,609314,0.7914850430238997,609314,0.9134004452094918,1,3,1455796,0.9008640181848014,1455796,0.7062378191044466,1455796,0.9228086393814606,1,4,2316921,0.8830132052821129,2316921,0.6930172068827531,2316921,0.9101040416166466,2,1,20981,0.9120270650520562,20981,0.8621467789403694,20981,0.9155879398897091,2,2,109891,0.9066262017704141,109891,0.8804905393552619,109891,0.9200563268155447,2,3,129328,0.9060673612696734,129328,0.8934912012946695,129328,0.9168168835798893,2,4,133662,0.906855581262985,133662,0.8945785331960937,133662,0.915705138785109,3,1,16007,0.9195997498436522,16007,0.8655659787367106,16007,0.9101813633520951,3,2,55837,0.9125153435707307,55837,0.8931085448032265,55837,0.9269145018662792,3,3,61318,0.912110365354208,61318,0.9008229995829495,61318,0.9210014411743821,3,4,61337,0.9150826413222612,61337,0.9084325349205588,61337,0.92804684874958,4,1,13270,0.9151915191519152,13270,0.867941794179418,13270,0.9150615061506152,4,2,37775,0.9180986895790332,37775,0.8989383830141281,37775,0.9210787372597962,4,3,40234,0.912565637807377,40234,0.8895603867827868,40234,0.9168080814549181,4,4,39976,0.9002494488919828,39976,0.8860476653424071,39976,0.9113076162927934,5,1,11526,0.9077299150633523,11526,0.8455127204932166,11526,0.9114196382490968,5,2,28760,0.9051791066876368,28760,0.8853575130363096,28760,0.910335602431577,5,3,29910,0.9143455787539302,29910,0.8952851979564623,29910,0.9203857592590926,5,4,29666,0.9140666250660011,29666,0.9084405350485607,29666,0.9180466887470199,6,1,10160,0.9085306341225364,10160,0.8638954555818223,10160,0.9125086500346001,6,2,22800,0.9079676318705274,22800,0.8995365981463926,22800,0.9114866459465837,6,3,23854,0.9141460458297122,23854,0.8939284082010643,23854,0.9145605794069318,6,4,23808,0.9041512608918452,23808,0.8888006410005707,23808,0.9157668891917395
step1/outputlowerTruestripFalselemmatizFalsenamesTruenumbersTrueadverbsFalseconjoctionFalse.txt,0,1,32675,0.902152349185991,32675,0.8663335530969158,32675,0.9097922183683004,0,2,571433,0.8970753205128206,571433,0.8465945512820512,571433,0.9168669871794872,0,3,1317144,0.8966246624662465,1317144,0.8334733473347335,1317144,0.917091709170917,0,4,2058276,0.8929103257363846,2058276,0.8278225536268438,2058276,0.9119028641319947,1,1,32760,0.9035266141064564,32760,0.8719154876619506,32760,0.904506618026472,1,2,570248,0.9043108458344462,570248,0.8666104504201715,570248,0.9173316088349533,1,3,1304922,0.8974817553293644,1304922,0.7939712566417004,1304922,0.9175188848345176,1,4,2071061,0.8970442935945694,2071061,0.8034039225412114,2071061,0.9105297790720467,2,1,19891,0.8968051399401514,19891,0.857109423757021,19891,0.9023959450160822,2,2,95955,0.9183629980821544,95955,0.9108977058882968,95955,0.9257297468183467,2,3,106859,0.9106257825281711,106859,0.9039905436595717,106859,0.9190990875671524,2,4,111474,0.9114806459225837,111474,0.9064846259385038,111474,0.9129916519666079,3,1,15447,0.9196057722984482,15447,0.889656648454463,15447,0.9181550967667088,3,2,48060,0.9134858523782088,48060,0.9076923692465271,48060,0.9164226041866719,3,3,50665,0.9053975943133953,50665,0.8954932377565593,50665,0.9174040265449556,3,4,51664,0.9095,51664,0.9015,51664,0.921,4,1,13039,0.9109814091654486,13039,0.8832317295849506,13039,0.9153056967135614,4,2,32013,0.9068185818757901,32013,0.9029020178905762,32013,0.9123853834952234,4,3,33541,0.9089421804796244,33541,0.908963180668626,33541,0.9164707482367341,4,4,33352,0.9121167741554702,33352,0.9067003188150923,33352,0.9192713569598625,5,1,11311,0.9176941438558216,11311,0.8802406845907972,11311,0.9131124420150272,5,2,24264,0.9200827213235412,24264,0.9080185282964527,24264,0.9190547048752781,5,3,25047,0.911488583817341,25047,0.9050224803596857,25047,0.9229947679162867,5,4,24996,0.9137774283853971,24996,0.8995415225173053,24996,0.9174535496498909,6,1,10082,0.90368452487547,10082,0.8714408053951792,10082,0.8957440231141933,6,2,19546,0.9159510889950239,19546,0.9078442649596159,19546,0.9123527793753594,6,3,20049,0.9138303662909836,20049,0.9053134605532787,20049,0.9170962474385246,6,4,20067,0.9094613155349082,20067,0.8991345875861186,20067,0.9118576806227048
